phy_tx/PHY_TX.vcd
$date
	Sat Jun 12 16:43:32 2021
$end
$version
	Icarus Verilog
$end
$timescale
	100ps
$end
$scope module BancoPruebas $end
$var wire 1 ! validIn_3 $end
$var wire 1 " validIn_2 $end
$var wire 1 # validIn_1 $end
$var wire 1 $ validIn_0 $end
$var wire 1 % reset $end
$var wire 8 & res_In_3 [7:0] $end
$var wire 8 ' res_In_2 [7:0] $end
$var wire 8 ( res_In_1 [7:0] $end
$var wire 8 ) res_In_0 [7:0] $end
$var wire 1 * data_sp $end
$var wire 1 + data_out $end
$var wire 1 , clk_f $end
$var wire 1 - clk_4f $end
$var wire 1 . clk_32f $end
$var wire 1 / clk_2f $end
$var wire 8 0 In_3 [7:0] $end
$var wire 8 1 In_2 [7:0] $end
$var wire 8 2 In_1 [7:0] $end
$var wire 8 3 In_0 [7:0] $end
$scope module Probador $end
$var wire 8 4 recirculador_desactivado3 [7:0] $end
$var wire 8 5 recirculador_desactivado2 [7:0] $end
$var wire 8 6 recirculador_desactivado1 [7:0] $end
$var wire 8 7 recirculador_desactivado0 [7:0] $end
$var wire 1 + out_to_rx $end
$var reg 1 / clk_2f $end
$var reg 1 . clk_32f $end
$var reg 1 - clk_4f $end
$var reg 1 , clk_f $end
$var reg 8 8 data_in0 [7:0] $end
$var reg 8 9 data_in1 [7:0] $end
$var reg 8 : data_in2 [7:0] $end
$var reg 8 ; data_in3 [7:0] $end
$var reg 1 * in_from_rx $end
$var reg 1 % reset $end
$var reg 1 $ valid0 $end
$var reg 1 # valid1 $end
$var reg 1 " valid2 $end
$var reg 1 ! valid3 $end
$upscope $end
$scope module transmisior $end
$var wire 1 / clk_2f $end
$var wire 1 . clk_32f $end
$var wire 1 - clk_4f $end
$var wire 1 , clk_f $end
$var wire 8 < data_in0 [7:0] $end
$var wire 8 = data_in1 [7:0] $end
$var wire 8 > data_in2 [7:0] $end
$var wire 8 ? data_in3 [7:0] $end
$var wire 1 * in_from_rx $end
$var wire 1 % reset $end
$var wire 1 $ valid0 $end
$var wire 1 # valid1 $end
$var wire 1 " valid2 $end
$var wire 1 ! valid3 $end
$var wire 1 @ validsalida $end
$var wire 1 A valid_out_recirculador3 $end
$var wire 1 B valid_out_recirculador2 $end
$var wire 1 C valid_out_recirculador1 $end
$var wire 1 D valid_out_recirculador0 $end
$var wire 8 E recirculador_desactivado3 [7:0] $end
$var wire 8 F recirculador_desactivado2 [7:0] $end
$var wire 8 G recirculador_desactivado1 [7:0] $end
$var wire 8 H recirculador_desactivado0 [7:0] $end
$var wire 1 + out_to_rx $end
$var wire 8 I data_serial_paraleloRX [7:0] $end
$var wire 1 J active $end
$var wire 8 K Salida_conductual [7:0] $end
$var wire 1 L IDLEOut $end
$var wire 8 M Entrada3 [7:0] $end
$var wire 8 N Entrada2 [7:0] $end
$var wire 8 O Entrada1 [7:0] $end
$var wire 8 P Entrada0 [7:0] $end
$scope module muxess $end
$var wire 1 / clk_2f $end
$var wire 1 - clk_4f $end
$var wire 1 , clk_f $end
$var wire 1 % reset $end
$var wire 1 Q validsalida1 $end
$var wire 1 R validsalida0 $end
$var wire 1 @ validsalida $end
$var wire 1 A validEntrada3 $end
$var wire 1 B validEntrada2 $end
$var wire 1 C validEntrada1 $end
$var wire 1 D validEntrada0 $end
$var wire 8 S Salida_conductual [7:0] $end
$var wire 8 T Salida1 [7:0] $end
$var wire 8 U Salida0 [7:0] $end
$var wire 8 V Entrada3 [7:0] $end
$var wire 8 W Entrada2 [7:0] $end
$var wire 8 X Entrada1 [7:0] $end
$var wire 8 Y Entrada0 [7:0] $end
$scope module muxitol2 $end
$var wire 1 - clk_4f $end
$var wire 1 % reset $end
$var wire 1 @ validsalida $end
$var wire 1 Q validEntrada1 $end
$var wire 1 R validEntrada0 $end
$var wire 8 Z Salida_conductual [7:0] $end
$var wire 8 [ Entrada1 [7:0] $end
$var wire 8 \ Entrada0 [7:0] $end
$scope module mux1 $end
$var wire 1 - clk $end
$var wire 1 % reset $end
$var wire 1 Q validEntrada1 $end
$var wire 1 R validEntrada0 $end
$var wire 8 ] Entrada1 [7:0] $end
$var wire 8 ^ Entrada0 [7:0] $end
$var reg 8 _ Salida_conductual [7:0] $end
$var reg 1 ` selector $end
$var reg 1 @ validsalida $end
$upscope $end
$upscope $end
$scope module muxl1 $end
$var wire 1 / clk_2f $end
$var wire 1 % reset $end
$var wire 1 Q validsalida1 $end
$var wire 1 R validsalida0 $end
$var wire 1 A validEntrada3 $end
$var wire 1 B validEntrada2 $end
$var wire 1 C validEntrada1 $end
$var wire 1 D validEntrada0 $end
$var wire 8 a Salida1 [7:0] $end
$var wire 8 b Salida0 [7:0] $end
$var wire 8 c Entrada3 [7:0] $end
$var wire 8 d Entrada2 [7:0] $end
$var wire 8 e Entrada1 [7:0] $end
$var wire 8 f Entrada0 [7:0] $end
$scope module mux1 $end
$var wire 1 / clk $end
$var wire 1 % reset $end
$var wire 1 C validEntrada1 $end
$var wire 1 D validEntrada0 $end
$var wire 8 g Entrada1 [7:0] $end
$var wire 8 h Entrada0 [7:0] $end
$var reg 8 i Salida_conductual [7:0] $end
$var reg 1 j selector $end
$var reg 1 R validsalida $end
$upscope $end
$scope module mux2 $end
$var wire 1 / clk $end
$var wire 1 % reset $end
$var wire 1 A validEntrada1 $end
$var wire 1 B validEntrada0 $end
$var wire 8 k Entrada1 [7:0] $end
$var wire 8 l Entrada0 [7:0] $end
$var reg 8 m Salida_conductual [7:0] $end
$var reg 1 n selector $end
$var reg 1 Q validsalida $end
$upscope $end
$upscope $end
$upscope $end
$scope module p2s $end
$var wire 1 . clk_32f $end
$var wire 1 - clk_4f $end
$var wire 8 o in_serial [7:0] $end
$var wire 1 % reset $end
$var wire 1 @ valid_in $end
$var reg 1 + out_serial_conductual $end
$var reg 3 p selector [2:0] $end
$var reg 3 q selector_2 [2:0] $end
$upscope $end
$scope module recirculadorphy $end
$var wire 1 , clk $end
$var wire 8 r data_in0 [7:0] $end
$var wire 8 s data_in1 [7:0] $end
$var wire 8 t data_in2 [7:0] $end
$var wire 8 u data_in3 [7:0] $end
$var wire 1 % reset $end
$var wire 1 $ valid0 $end
$var wire 1 # valid1 $end
$var wire 1 " valid2 $end
$var wire 1 ! valid3 $end
$var wire 1 J active $end
$var reg 8 v recirculador_activo0 [7:0] $end
$var reg 8 w recirculador_activo1 [7:0] $end
$var reg 8 x recirculador_activo2 [7:0] $end
$var reg 8 y recirculador_activo3 [7:0] $end
$var reg 8 z recirculador_desactivado0 [7:0] $end
$var reg 8 { recirculador_desactivado1 [7:0] $end
$var reg 8 | recirculador_desactivado2 [7:0] $end
$var reg 8 } recirculador_desactivado3 [7:0] $end
$var reg 1 D valid_out_recirculador0 $end
$var reg 1 C valid_out_recirculador1 $end
$var reg 1 B valid_out_recirculador2 $end
$var reg 1 A valid_out_recirculador3 $end
$upscope $end
$scope module s2p $end
$var wire 1 * IDLin $end
$var wire 1 . clk_32f $end
$var wire 1 - clk_4f $end
$var wire 1 % reset $end
$var reg 1 L IDLEOut $end
$var reg 1 J active_serial_paraleloTX $end
$var reg 8 ~ buffer [7:0] $end
$var reg 8 !" buffer_pasado [7:0] $end
$var reg 8 "" data_serial_paraleloTX [7:0] $end
$var integer 32 #" contador [31:0] $end
$var integer 32 $" contador_BC [31:0] $end
$upscope $end
$upscope $end
$upscope $end
$enddefinitions $end
#0
$dumpvars
b0 $"
b0 #"
bx0000000 ""
bx !"
b0 ~
b0 }
b0 |
b0 {
b0 z
b0 y
b0 x
b0 w
b0 v
b10010 u
b11001010 t
b11111101 s
b11111100 r
b0 q
b0 p
b0 o
xn
b0 m
b0 l
b0 k
xj
b0 i
b0 h
b0 g
b0 f
b0 e
b0 d
b0 c
b0 b
b0 a
x`
b0 _
b0 ^
b0 ]
b0 \
b0 [
b0 Z
b0 Y
b0 X
b0 W
b0 V
b0 U
b0 T
b0 S
xR
xQ
b0 P
b0 O
b0 N
b0 M
0L
b0 K
0J
bx0000000 I
b0 H
b0 G
b0 F
b0 E
0D
0C
0B
0A
x@
b10010 ?
b11001010 >
b11111101 =
b11111100 <
b10010 ;
b11001010 :
b11111101 9
b11111100 8
b0 7
b0 6
b0 5
b0 4
b11111100 3
b11111101 2
b11001010 1
b10010 0
1/
1.
1-
1,
0+
0*
b0 )
b0 (
b0 '
b0 &
1%
1$
1#
1"
1!
$end
#10000000
0.
#20000000
1*
b1 #"
b1 p
1+
1.
0`
0j
0n
#30000000
0.
#40000000
b10 p
0+
b10 #"
b0 !"
b1 ~
0*
1.
#50000000
0.
#60000000
1*
b11 #"
b10 ~
b11 p
1+
1.
#70000000
0.
#80000000
b100 p
b100 #"
b101 ~
1.
0-
#90000000
0.
#100000000
b101 #"
b1011 ~
b101 p
1.
#110000000
0.
#120000000
b110 p
b110 #"
b10111 ~
1.
#130000000
0.
#140000000
0*
b111 #"
b101111 ~
b111 p
0+
1.
#150000000
0.
#160000000
b0 p
b0 #"
b1011110 ~
1*
1`
0@
1.
1-
0/
#170000000
0.
#180000000
b1 #"
b10111101 ~
b1 p
1+
1.
#190000000
0.
#200000000
b10 p
0+
b10 #"
b10111101 !"
b1111011 ~
1.
#210000000
0.
#220000000
b11 #"
b11110111 ~
b11 p
1+
1.
#230000000
0.
#240000000
b100 p
b100 #"
b11101111 ~
1.
0-
#250000000
0.
#260000000
b101 #"
b11011111 ~
b101 p
1.
#270000000
0.
#280000000
b110 p
b110 #"
b10111111 ~
1.
#290000000
0.
#300000000
b111 #"
b1111111 ~
b111 p
0+
1.
#310000000
0.
#320000000
b0 p
b0 #"
b11111111 ~
0`
1n
0Q
1j
0R
b10001 0
b10001 ;
b10001 ?
b10001 u
b10101010 1
b10101010 :
b10101010 >
b10101010 t
b11110000 2
b11110000 9
b11110000 =
b11110000 s
b11001100 3
b11001100 8
b11001100 <
b11001100 r
0!
0"
0#
0$
1.
1-
1/
0,
#330000000
0.
#340000000
b1 #"
b1 p
1+
1.
#350000000
0.
#360000000
b10 p
0+
b10 #"
b11111111 !"
0*
1.
#370000000
0.
#380000000
1*
b11 #"
b11111110 ~
b11 p
1+
1.
#390000000
0.
#400000000
b100 p
b100 #"
b11111101 ~
1.
0-
#410000000
0.
#420000000
b101 #"
b11111011 ~
b101 p
1.
#430000000
0.
#440000000
b110 p
b110 #"
b11110111 ~
1.
#450000000
0.
#460000000
0*
b111 #"
b11101111 ~
b111 p
0+
1.
#470000000
0.
#480000000
b0 p
b0 #"
b11011110 ~
1`
1.
1-
0/
#490000000
0.
#500000000
b1 #"
b10111100 ~
b1 p
1+
1.
#510000000
0.
#520000000
b10 p
0+
b10 #"
b10111100 !"
b1 $"
b0 I
b0 ""
b1111000 ~
1.
#530000000
0.
#540000000
b11 #"
b11110000 ~
b11 p
1+
1.
#550000000
0.
#560000000
b100 p
b100 #"
b11100000 ~
1.
0-
#570000000
0.
#580000000
b101 #"
b11000000 ~
b101 p
1.
#590000000
0.
#600000000
b110 p
b110 #"
b10000000 ~
1.
#610000000
0.
#620000000
b111 #"
b0 ~
b111 p
0+
1.
#630000000
0.
#640000000
b0 p
b0 #"
0`
0j
0n
1A
1B
1C
1D
1.
1-
1/
1,
#650000000
0.
#660000000
1*
b1 #"
b1 p
1+
1.
#670000000
0.
#680000000
b10 p
0+
b10 #"
b0 !"
b1 ~
0*
1.
#690000000
0.
#700000000
1*
b11 #"
b10 ~
b11 p
1+
1.
#710000000
0.
#720000000
b100 p
b100 #"
b101 ~
1.
0-
#730000000
0.
#740000000
b101 #"
b1011 ~
b101 p
1.
#750000000
0.
#760000000
b110 p
b110 #"
b10111 ~
1.
#770000000
0.
#780000000
0*
b111 #"
b101111 ~
b111 p
0+
1.
#790000000
0.
#800000000
b0 p
b0 #"
b1011110 ~
1`
1.
1-
0/
#810000000
0.
#820000000
b1 #"
b10111100 ~
b1 p
1+
1.
#830000000
0.
#840000000
b10 p
0+
b10 #"
b10111100 !"
b10 $"
b1111000 ~
1.
#850000000
0.
#860000000
b11 #"
b11110000 ~
b11 p
1+
1.
#870000000
0.
#880000000
b100 p
b100 #"
b11100000 ~
1.
0-
#890000000
0.
#900000000
b101 #"
b11000000 ~
b101 p
1.
#910000000
0.
#920000000
b110 p
b110 #"
b10000000 ~
1.
#930000000
0.
#940000000
b111 #"
b0 ~
b111 p
0+
1.
#950000000
0.
#960000000
b0 p
b0 #"
0`
1n
1Q
1j
1R
b101 0
b101 ;
b101 ?
b101 u
b11001010 1
b11001010 :
b11001010 >
b11001010 t
b11110001 2
b11110001 9
b11110001 =
b11110001 s
b11001010 3
b11001010 8
b11001010 <
b11001010 r
1!
1"
1#
1$
1.
1-
1/
0,
#970000000
0.
#980000000
1*
b1 #"
b1 p
1+
1.
#990000000
0.
#1000000000
b10 p
0+
b10 #"
b0 !"
b1 ~
0*
1.
#1010000000
0.
#1020000000
1*
b11 #"
b10 ~
b11 p
1+
1.
#1030000000
0.
#1040000000
b100 p
b100 #"
b101 ~
1.
0-
#1050000000
0.
#1060000000
b101 #"
b1011 ~
b101 p
1.
#1070000000
0.
#1080000000
b110 p
b110 #"
b10111 ~
1.
#1090000000
0.
#1100000000
0*
b111 #"
b101111 ~
b111 p
0+
1.
#1110000000
0.
#1120000000
b0 p
b0 #"
b1011110 ~
1`
1@
1.
1-
0/
#1130000000
0.
#1140000000
1*
b1 #"
b10111100 ~
b1 q
1.
#1150000000
0.
#1160000000
b10 q
b10 #"
b10111100 !"
b11 $"
b1111001 ~
0*
1.
#1170000000
0.
#1180000000
1*
b11 #"
b11110010 ~
b11 q
1.
#1190000000
0.
#1200000000
b100 q
b100 #"
b11100101 ~
1.
0-
#1210000000
0.
#1220000000
b101 #"
b11001011 ~
b101 q
1.
#1230000000
0.
#1240000000
b110 q
b110 #"
b10010111 ~
1.
#1250000000
0.
#1260000000
0*
b111 #"
b101111 ~
b111 q
1.
#1270000000
0.
#1280000000
b0 q
b0 #"
b1011110 ~
0`
0j
0n
1.
1-
1/
1,
#1290000000
0.
#1300000000
b1 #"
b10111100 ~
b1 q
1.
#1310000000
0.
#1320000000
b10 q
b10 #"
b100 $"
b1111000 ~
1.
#1330000000
0.
#1340000000
b11 #"
b11110000 ~
b11 q
1.
#1350000000
0.
#1360000000
b100 q
b100 #"
b11100000 ~
1.
0-
#1370000000
0.
#1380000000
b101 #"
b11000000 ~
b101 q
1.
#1390000000
0.
#1400000000
b110 q
b110 #"
b10000000 ~
1.
#1410000000
0.
#1420000000
b111 #"
b0 ~
b111 q
1.
#1430000000
0.
#1440000000
b0 q
b0 #"
1`
1.
1-
0/
#1450000000
0.
#1460000000
b1 #"
b1 q
1.
#1470000000
0.
#1480000000
b10 q
b10 #"
b0 !"
1L
1J
1.
#1490000000
0.
#1500000000
b11 #"
b11 q
1.
#1510000000
0.
#1520000000
b100 q
b100 #"
1.
0-
#1530000000
0.
#1540000000
b101 #"
b101 q
1.
#1550000000
0.
#1560000000
b110 q
b110 #"
1.
#1570000000
0.
#1580000000
b111 #"
b111 q
1.
#1590000000
0.
#1600000000
b0 q
b0 #"
0`
1n
1j
1.
1-
1/
0,
#1610000000
0.
#1620000000
b1 #"
b1 q
1.
#1630000000
0.
#1640000000
b10 q
b10 #"
1.
#1650000000
0.
#1660000000
b11 #"
b11 q
1.
#1670000000
0.
#1680000000
b100 q
b100 #"
1.
0-
#1690000000
0.
#1700000000
b101 #"
b101 q
1.
#1710000000
0.
#1720000000
b110 q
b110 #"
1.
#1730000000
0.
#1740000000
b111 #"
b111 q
1.
#1750000000
0.
#1760000000
b0 q
b0 #"
1`
1.
1-
0/
#1770000000
0.
#1780000000
b1 #"
b1 q
1.
#1790000000
0.
#1800000000
b10 q
b10 #"
1.
#1810000000
0.
#1820000000
b11 #"
b11 q
1.
#1830000000
0.
#1840000000
b100 q
b100 #"
1.
0-
#1850000000
0.
#1860000000
b101 #"
b101 q
1.
#1870000000
0.
#1880000000
b110 q
b110 #"
1.
#1890000000
0.
#1900000000
b111 #"
b111 q
1.
#1910000000
0.
#1920000000
b0 q
b0 #"
0`
0j
0n
b101 M
b101 V
b101 c
b101 k
b101 y
b11001010 N
b11001010 W
b11001010 d
b11001010 l
b11001010 x
b11110001 O
b11110001 X
b11110001 e
b11110001 g
b11110001 w
b11001010 P
b11001010 Y
b11001010 f
b11001010 h
b11001010 v
b11110101 0
b11110101 ;
b11110101 ?
b11110101 u
b111111 1
b111111 :
b111111 >
b111111 t
b101110 2
b101110 9
b101110 =
b101110 s
b10000 3
b10000 8
b10000 <
b10000 r
1.
1-
1/
1,
#1930000000
0.
#1940000000
1*
b1 #"
b1 q
1.
#1950000000
0.
#1960000000
b10 q
b10 #"
b1 ~
0*
1.
#1970000000
0.
#1980000000
1*
b11 #"
b10 ~
b11 q
1.
#1990000000
0.
#2000000000
b100 q
b100 #"
b101 ~
1.
0-
#2010000000
0.
#2020000000
b101 #"
b1011 ~
b101 q
1.
#2030000000
0.
#2040000000
b110 q
b110 #"
b10111 ~
1.
#2050000000
0.
#2060000000
0*
b111 #"
b101111 ~
b111 q
1.
#2070000000
0.
#2080000000
b0 q
b0 #"
b1011110 ~
1`
1.
1-
0/
#2090000000
0.
#2100000000
b1 #"
b10111100 ~
b1 q
1.
#2110000000
0.
#2120000000
b10 q
b10 #"
b10111100 !"
b0 $"
0L
b1111000 ~
1.
#2130000000
0.
#2140000000
b11 #"
b11110000 ~
b11 q
1.
#2150000000
0.
#2160000000
b100 q
b100 #"
b11100000 ~
1.
0-
#2170000000
0.
#2180000000
b101 #"
b11000000 ~
b101 q
1.
#2190000000
0.
#2200000000
b110 q
b110 #"
b10000000 ~
1.
#2210000000
0.
#2220000000
b111 #"
b0 ~
b111 q
1.
#2230000000
0.
#2240000000
b0 q
b0 #"
0`
1n
b11001010 T
b11001010 [
b11001010 ]
b11001010 a
b11001010 m
1j
b11001010 U
b11001010 \
b11001010 ^
b11001010 b
b11001010 i
1.
1-
1/
0,
#2250000000
0.
#2260000000
b1 #"
b1 q
1.
#2270000000
0.
#2280000000
b10 q
b10 #"
b0 !"
1.
#2290000000
0.
#2300000000
b11 #"
b11 q
1.
#2310000000
0.
#2320000000
b100 q
b100 #"
1.
0-
#2330000000
0.
#2340000000
b101 #"
b101 q
1.
#2350000000
0.
#2360000000
b110 q
b110 #"
1.
#2370000000
0.
#2380000000
b111 #"
b111 q
1.
#2390000000
0.
#2400000000
b0 q
b0 #"
1`
b11001010 K
b11001010 S
b11001010 Z
b11001010 _
b11001010 o
1.
1-
0/
#2410000000
0.
#2420000000
b1 #"
b1 q
1+
1.
#2430000000
0.
#2440000000
b10 q
b10 #"
1.
#2450000000
0.
#2460000000
b11 #"
b11 q
0+
1.
#2470000000
0.
#2480000000
b100 q
b100 #"
1.
0-
#2490000000
0.
#2500000000
b101 #"
b101 q
1+
1.
#2510000000
0.
#2520000000
b110 q
0+
b110 #"
1.
#2530000000
0.
#2540000000
b111 #"
b111 q
1+
1.
#2550000000
0.
#2560000000
b0 q
0+
b0 #"
0`
b11110001 U
b11110001 \
b11110001 ^
b11110001 b
b11110001 i
0j
b101 T
b101 [
b101 ]
b101 a
b101 m
0n
b11110101 M
b11110101 V
b11110101 c
b11110101 k
b11110101 y
b111111 N
b111111 W
b111111 d
b111111 l
b111111 x
b101110 O
b101110 X
b101110 e
b101110 g
b101110 w
b10000 P
b10000 Y
b10000 f
b10000 h
b10000 v
b10000 0
b10000 ;
b10000 ?
b10000 u
b10001001 1
b10001001 :
b10001001 >
b10001001 t
b1001100 2
b1001100 9
b1001100 =
b1001100 s
b10 3
b10 8
b10 <
b10 r
1.
1-
1/
1,
#2570000000
0.
#2580000000
1*
b1 #"
b1 q
1+
1.
#2590000000
0.
#2600000000
b10 q
b10 #"
b1 ~
0*
1.
#2610000000
0.
#2620000000
1*
b11 #"
b10 ~
b11 q
0+
1.
#2630000000
0.
#2640000000
b100 q
b100 #"
b101 ~
1.
0-
#2650000000
0.
#2660000000
b101 #"
b1011 ~
b101 q
1+
1.
#2670000000
0.
#2680000000
b110 q
0+
b110 #"
b10111 ~
1.
#2690000000
0.
#2700000000
0*
b111 #"
b101111 ~
b111 q
1+
1.
#2710000000
0.
#2720000000
b0 q
0+
b0 #"
b1011110 ~
1`
b11110001 K
b11110001 S
b11110001 Z
b11110001 _
b11110001 o
1.
1-
0/
#2730000000
0.
#2740000000
b1 #"
b10111100 ~
b1 q
1+
1.
#2750000000
0.
#2760000000
b10 q
b10 #"
b10111100 !"
b1 $"
b1111000 ~
1.
#2770000000
0.
#2780000000
b11 #"
b11110000 ~
b11 q
1.
#2790000000
0.
#2800000000
b100 q
b100 #"
b11100000 ~
1.
0-
#2810000000
0.
#2820000000
b101 #"
b11000000 ~
b101 q
0+
1.
#2830000000
0.
#2840000000
b110 q
b110 #"
b10000000 ~
1.
#2850000000
0.
#2860000000
b111 #"
b0 ~
b111 q
1.
#2870000000
0.
#2880000000
b0 q
1+
b0 #"
b101 K
b101 S
b101 Z
b101 _
b101 o
0`
1n
b111111 T
b111111 [
b111111 ]
b111111 a
b111111 m
1j
b10000 U
b10000 \
b10000 ^
b10000 b
b10000 i
1.
1-
1/
0,
#2890000000
0.
#2900000000
b1 #"
b1 q
0+
1.
#2910000000
0.
#2920000000
b10 q
b10 #"
b0 !"
1.
#2930000000
0.
#2940000000
b11 #"
b11 q
1.
#2950000000
0.
#2960000000
b100 q
b100 #"
1.
0-
#2970000000
0.
#2980000000
b101 #"
b101 q
1.
#2990000000
0.
#3000000000
b110 q
1+
b110 #"
1.
#3010000000
0.
#3020000000
b111 #"
b111 q
0+
1.
#3030000000
0.
#3040000000
b0 q
1+
b0 #"
1`
b10000 K
b10000 S
b10000 Z
b10000 _
b10000 o
1.
1-
0/
#3050000000
0.
#3060000000
b1 #"
b1 q
0+
1.
#3070000000
0.
#3080000000
b10 q
b10 #"
1.
#3090000000
0.
#3100000000
b11 #"
b11 q
1.
#3110000000
0.
#3120000000
b100 q
1+
b100 #"
1.
0-
#3130000000
0.
#3140000000
b101 #"
b101 q
0+
1.
#3150000000
0.
#3160000000
b110 q
b110 #"
1.
#3170000000
0.
#3180000000
b111 #"
b111 q
1.
#3190000000
0.
#3200000000
b0 q
b0 #"
b111111 K
b111111 S
b111111 Z
b111111 _
b111111 o
0`
b101110 U
b101110 \
b101110 ^
b101110 b
b101110 i
0j
b11110101 T
b11110101 [
b11110101 ]
b11110101 a
b11110101 m
0n
b10000 M
b10000 V
b10000 c
b10000 k
b10000 y
b10001001 N
b10001001 W
b10001001 d
b10001001 l
b10001001 x
b1001100 O
b1001100 X
b1001100 e
b1001100 g
b1001100 w
b10 P
b10 Y
b10 f
b10 h
b10 v
b11101111 0
b11101111 ;
b11101111 ?
b11101111 u
b11011111 1
b11011111 :
b11011111 >
b11011111 t
b10111100 2
b10111100 9
b10111100 =
b10111100 s
b10000101 3
b10000101 8
b10000101 <
b10000101 r
1.
1-
1/
1,
#3210000000
0.
#3220000000
1*
b1 #"
b1 q
1.
#3230000000
0.
#3240000000
b10 q
b10 #"
b1 ~
0*
1.
#3250000000
0.
#3260000000
1*
b11 #"
b10 ~
b11 q
1+
1.
#3270000000
0.
#3280000000
b100 q
b100 #"
b101 ~
1.
0-
#3290000000
0.
#3300000000
b101 #"
b1011 ~
b101 q
1.
#3310000000
0.
#3320000000
b110 q
b110 #"
b10111 ~
1.
#3330000000
0.
#3340000000
0*
b111 #"
b101111 ~
b111 q
1.
#3350000000
0.
#3360000000
b0 q
b0 #"
b1011110 ~
1`
b101110 K
b101110 S
b101110 Z
b101110 _
b101110 o
1.
1-
0/
#3370000000
0.
#3380000000
b1 #"
b10111100 ~
b1 q
0+
1.
#3390000000
0.
#3400000000
b10 q
b10 #"
b10111100 !"
b10 $"
b1111000 ~
1.
#3410000000
0.
#3420000000
b11 #"
b11110000 ~
b11 q
1+
1.
#3430000000
0.
#3440000000
b100 q
0+
b100 #"
b11100000 ~
1.
0-
#3450000000
0.
#3460000000
b101 #"
b11000000 ~
b101 q
1+
1.
#3470000000
0.
#3480000000
b110 q
b110 #"
b10000000 ~
1.
#3490000000
0.
#3500000000
b111 #"
b0 ~
b111 q
1.
#3510000000
0.
#3520000000
b0 q
0+
b0 #"
b11110101 K
b11110101 S
b11110101 Z
b11110101 _
b11110101 o
0`
1n
b10001001 T
b10001001 [
b10001001 ]
b10001001 a
b10001001 m
1j
b10 U
b10 \
b10 ^
b10 b
b10 i
1.
1-
1/
0,
#3530000000
0.
#3540000000
b1 #"
b1 q
1+
1.
#3550000000
0.
#3560000000
b10 q
b10 #"
b0 !"
1.
#3570000000
0.
#3580000000
b11 #"
b11 q
1.
#3590000000
0.
#3600000000
b100 q
b100 #"
1.
0-
#3610000000
0.
#3620000000
b101 #"
b101 q
0+
1.
#3630000000
0.
#3640000000
b110 q
1+
b110 #"
1.
#3650000000
0.
#3660000000
b111 #"
b111 q
0+
1.
#3670000000
0.
#3680000000
b0 q
1+
b0 #"
1`
b10 K
b10 S
b10 Z
b10 _
b10 o
1.
1-
0/
#3690000000
0.
#3700000000
b1 #"
b1 q
0+
1.
#3710000000
0.
#3720000000
b10 q
b10 #"
1.
#3730000000
0.
#3740000000
b11 #"
b11 q
1.
#3750000000
0.
#3760000000
b100 q
b100 #"
1.
0-
#3770000000
0.
#3780000000
b101 #"
b101 q
1.
#3790000000
0.
#3800000000
b110 q
b110 #"
1.
#3810000000
0.
#3820000000
b111 #"
b111 q
1+
1.
#3830000000
0.
#3840000000
b0 q
0+
b0 #"
b10001001 K
b10001001 S
b10001001 Z
b10001001 _
b10001001 o
0`
b1001100 U
b1001100 \
b1001100 ^
b1001100 b
b1001100 i
0j
b10000 T
b10000 [
b10000 ]
b10000 a
b10000 m
0n
b11101111 M
b11101111 V
b11101111 c
b11101111 k
b11101111 y
b11011111 N
b11011111 W
b11011111 d
b11011111 l
b11011111 x
b10111100 O
b10111100 X
b10111100 e
b10111100 g
b10111100 w
b10000101 P
b10000101 Y
b10000101 f
b10000101 h
b10000101 v
b1010110 0
b1010110 ;
b1010110 ?
b1010110 u
b101 1
b101 :
b101 >
b101 t
b11110001 2
b11110001 9
b11110001 =
b11110001 s
b10010010 3
b10010010 8
b10010010 <
b10010010 r
1.
1-
1/
1,
#3850000000
0.
#3860000000
b1 #"
b1 q
1+
1.
#3870000000
0.
#3880000000
b10 q
0+
b10 #"
1.
#3890000000
0.
#3900000000
b11 #"
b11 q
1.
#3910000000
0.
#3920000000
b100 q
b100 #"
1.
0-
#3930000000
0.
#3940000000
b101 #"
b101 q
1+
1.
#3950000000
0.
#3960000000
b110 q
0+
b110 #"
1.
#3970000000
0.
#3980000000
b111 #"
b111 q
1.
#3990000000
0.
#4000000000
b0 q
1+
b0 #"
1*
1`
b1001100 K
b1001100 S
b1001100 Z
b1001100 _
b1001100 o
1.
1-
0/
#4010000000
0.
#4020000000
0*
b1 #"
b1 ~
b1 q
0+
1.
#4030000000
0.
#4040000000
b10 q
1+
b10 #"
b1 !"
b10 ~
1*
1.
#4050000000
0.
#4060000000
b11 #"
b101 ~
b11 q
0+
1.
#4070000000
0.
#4080000000
b100 q
b100 #"
b1011 ~
1.
0-
#4090000000
0.
#4100000000
b101 #"
b10111 ~
b101 q
1+
1.
#4110000000
0.
#4120000000
b110 q
b110 #"
b101111 ~
0*
1.
#4130000000
0.
#4140000000
b111 #"
b1011110 ~
b111 q
0+
1.
#4150000000
0.
#4160000000
b0 q
b0 #"
b10111100 ~
b10000 K
b10000 S
b10000 Z
b10000 _
b10000 o
0`
1*
1n
b11011111 T
b11011111 [
b11011111 ]
b11011111 a
b11011111 m
1j
b10000101 U
b10000101 \
b10000101 ^
b10000101 b
b10000101 i
1.
1-
1/
0,
#4170000000
0.
#4180000000
0*
b1 #"
b11 $"
b1111001 ~
b1 q
1.
#4190000000
0.
#4200000000
b10 q
b10 #"
b1111001 !"
b11110010 ~
1*
1.
#4210000000
0.
#4220000000
b11 #"
b11100101 ~
b11 q
1.
#4230000000
0.
#4240000000
b100 q
1+
b100 #"
b11001011 ~
1.
0-
#4250000000
0.
#4260000000
b101 #"
b10010111 ~
b101 q
0+
1.
#4270000000
0.
#4280000000
b110 q
b110 #"
b101111 ~
0*
1.
#4290000000
0.
#4300000000
b111 #"
b1011110 ~
b111 q
1.
#4310000000
0.
#4320000000
b0 q
b0 #"
b10111100 ~
1`
b10000101 K
b10000101 S
b10000101 Z
b10000101 _
b10000101 o
1*
1.
1-
0/
#4330000000
0.
#4340000000
0*
b1 #"
b100 $"
b1111001 ~
b1 q
1+
1.
#4350000000
0.
#4360000000
b10 q
0+
b10 #"
b1111001 I
b1111001 ""
1L
b11110010 ~
1*
1.
#4370000000
0.
#4380000000
b11 #"
b11100101 ~
b11 q
1.
#4390000000
0.
#4400000000
b100 q
b100 #"
b11001011 ~
1.
0-
#4410000000
0.
#4420000000
b101 #"
b10010111 ~
b101 q
1.
#4430000000
0.
#4440000000
b110 q
1+
b110 #"
b101111 ~
0*
1.
#4450000000
0.
#4460000000
b111 #"
b1011110 ~
b111 q
0+
1.
#4470000000
0.
#4480000000
b0 q
1+
b0 #"
b10111100 ~
b11011111 K
b11011111 S
b11011111 Z
b11011111 _
b11011111 o
0`
1*
b10111100 U
b10111100 \
b10111100 ^
b10111100 b
b10111100 i
0j
b11101111 T
b11101111 [
b11101111 ]
b11101111 a
b11101111 m
0n
b1010110 M
b1010110 V
b1010110 c
b1010110 k
b1010110 y
b101 N
b101 W
b101 d
b101 l
b101 x
b11110001 O
b11110001 X
b11110001 e
b11110001 g
b11110001 w
b10010010 P
b10010010 Y
b10010010 f
b10010010 h
b10010010 v
1.
1-
1/
1,
#4490000000
0.
