phy_tx/PHY_TX.vcd
$date
	Wed Jun  9 18:20:55 2021
$end
$version
	Icarus Verilog
$end
$timescale
	100ps
$end
$scope module BancoPruebas $end
$var wire 1 ! data_out $end
$var wire 1 " validIn_3 $end
$var wire 1 # validIn_2 $end
$var wire 1 $ validIn_1 $end
$var wire 1 % validIn_0 $end
$var wire 1 & reset $end
$var wire 8 ' res_In_3 [7:0] $end
$var wire 8 ( res_In_2 [7:0] $end
$var wire 8 ) res_In_1 [7:0] $end
$var wire 8 * res_In_0 [7:0] $end
$var wire 1 + data_sp $end
$var wire 1 , clk_f $end
$var wire 1 - clk_4f $end
$var wire 1 . clk_32f $end
$var wire 1 / clk_2f $end
$var wire 8 0 In_3 [7:0] $end
$var wire 8 1 In_2 [7:0] $end
$var wire 8 2 In_1 [7:0] $end
$var wire 8 3 In_0 [7:0] $end
$scope module Probador $end
$var wire 1 ! out_to_rx $end
$var wire 8 4 recirculador_desactivado3 [7:0] $end
$var wire 8 5 recirculador_desactivado2 [7:0] $end
$var wire 8 6 recirculador_desactivado1 [7:0] $end
$var wire 8 7 recirculador_desactivado0 [7:0] $end
$var reg 1 / clk_2f $end
$var reg 1 . clk_32f $end
$var reg 1 - clk_4f $end
$var reg 1 , clk_f $end
$var reg 8 8 data_in0 [7:0] $end
$var reg 8 9 data_in1 [7:0] $end
$var reg 8 : data_in2 [7:0] $end
$var reg 8 ; data_in3 [7:0] $end
$var reg 1 + in_from_rx $end
$var reg 1 & reset $end
$var reg 1 % valid0 $end
$var reg 1 $ valid1 $end
$var reg 1 # valid2 $end
$var reg 1 " valid3 $end
$upscope $end
$scope module transmisior $end
$var wire 1 / clk_2f $end
$var wire 1 . clk_32f $end
$var wire 1 - clk_4f $end
$var wire 1 , clk_f $end
$var wire 8 < data_in0 [7:0] $end
$var wire 8 = data_in1 [7:0] $end
$var wire 8 > data_in2 [7:0] $end
$var wire 8 ? data_in3 [7:0] $end
$var wire 1 + in_from_rx $end
$var wire 1 @ out_serial2_conductual $end
$var wire 1 ! out_to_rx $end
$var wire 1 & reset $end
$var wire 1 % valid0 $end
$var wire 1 $ valid1 $end
$var wire 1 # valid2 $end
$var wire 1 " valid3 $end
$var wire 1 A validsalida $end
$var wire 1 B valid_out_recirculador3 $end
$var wire 1 C valid_out_recirculador2 $end
$var wire 1 D valid_out_recirculador1 $end
$var wire 1 E valid_out_recirculador0 $end
$var wire 8 F recirculador_desactivado3 [7:0] $end
$var wire 8 G recirculador_desactivado2 [7:0] $end
$var wire 8 H recirculador_desactivado1 [7:0] $end
$var wire 8 I recirculador_desactivado0 [7:0] $end
$var wire 1 J out_serial_conductual $end
$var wire 8 K data_serial_paraleloRX [7:0] $end
$var wire 1 L active $end
$var wire 8 M Salida_conductual [7:0] $end
$var wire 1 N IDLEOut $end
$var wire 8 O Entrada3 [7:0] $end
$var wire 8 P Entrada2 [7:0] $end
$var wire 8 Q Entrada1 [7:0] $end
$var wire 8 R Entrada0 [7:0] $end
$scope module muxess $end
$var wire 1 / clk_2f $end
$var wire 1 - clk_4f $end
$var wire 1 , clk_f $end
$var wire 1 & reset $end
$var wire 1 A validsalida $end
$var wire 1 S validsalida0 $end
$var wire 1 T validsalida1 $end
$var wire 1 B validEntrada3 $end
$var wire 1 C validEntrada2 $end
$var wire 1 D validEntrada1 $end
$var wire 1 E validEntrada0 $end
$var wire 8 U Salida_conductual [7:0] $end
$var wire 8 V Salida1 [7:0] $end
$var wire 8 W Salida0 [7:0] $end
$var wire 8 X Entrada3 [7:0] $end
$var wire 8 Y Entrada2 [7:0] $end
$var wire 8 Z Entrada1 [7:0] $end
$var wire 8 [ Entrada0 [7:0] $end
$scope module muxitol2 $end
$var wire 1 - clk_4f $end
$var wire 1 & reset $end
$var wire 1 S validEntrada0 $end
$var wire 1 S validsalida $end
$var wire 1 T validEntrada1 $end
$var wire 8 \ Salida_conductual [7:0] $end
$var wire 8 ] Entrada1 [7:0] $end
$var wire 8 ^ Entrada0 [7:0] $end
$scope module mux1 $end
$var wire 1 - clk $end
$var wire 1 & reset $end
$var wire 1 S validEntrada0 $end
$var wire 1 T validEntrada1 $end
$var wire 8 _ Entrada1 [7:0] $end
$var wire 8 ` Entrada0 [7:0] $end
$var reg 8 a Salida_conductual [7:0] $end
$var reg 1 b selector $end
$var reg 1 c validsalida $end
$upscope $end
$upscope $end
$scope module muxl1 $end
$var wire 1 / clk_2f $end
$var wire 1 & reset $end
$var wire 1 S validsalida0 $end
$var wire 1 T validsalida1 $end
$var wire 1 B validEntrada3 $end
$var wire 1 C validEntrada2 $end
$var wire 1 D validEntrada1 $end
$var wire 1 E validEntrada0 $end
$var wire 8 d Salida1 [7:0] $end
$var wire 8 e Salida0 [7:0] $end
$var wire 8 f Entrada3 [7:0] $end
$var wire 8 g Entrada2 [7:0] $end
$var wire 8 h Entrada1 [7:0] $end
$var wire 8 i Entrada0 [7:0] $end
$scope module mux1 $end
$var wire 1 / clk $end
$var wire 1 & reset $end
$var wire 1 D validEntrada1 $end
$var wire 1 E validEntrada0 $end
$var wire 8 j Entrada1 [7:0] $end
$var wire 8 k Entrada0 [7:0] $end
$var reg 8 l Salida_conductual [7:0] $end
$var reg 1 m selector $end
$var reg 1 n validsalida $end
$upscope $end
$scope module mux2 $end
$var wire 1 / clk $end
$var wire 1 & reset $end
$var wire 1 B validEntrada1 $end
$var wire 1 C validEntrada0 $end
$var wire 8 o Entrada1 [7:0] $end
$var wire 8 p Entrada0 [7:0] $end
$var reg 8 q Salida_conductual [7:0] $end
$var reg 1 r selector $end
$var reg 1 T validsalida $end
$upscope $end
$upscope $end
$upscope $end
$scope module p2s $end
$var wire 1 . clk_32f $end
$var wire 1 - clk_4f $end
$var wire 8 s in_serial [7:0] $end
$var wire 1 & reset $end
$var wire 1 A valid_in $end
$var reg 1 J out_serial_conductual $end
$var reg 3 t selector [2:0] $end
$var reg 3 u selector_2 [2:0] $end
$upscope $end
$scope module recirculadorphy $end
$var wire 1 , clk $end
$var wire 8 v data_in0 [7:0] $end
$var wire 8 w data_in1 [7:0] $end
$var wire 8 x data_in2 [7:0] $end
$var wire 8 y data_in3 [7:0] $end
$var wire 1 & reset $end
$var wire 1 % valid0 $end
$var wire 1 $ valid1 $end
$var wire 1 # valid2 $end
$var wire 1 " valid3 $end
$var wire 1 L active $end
$var reg 8 z recirculador_activo0 [7:0] $end
$var reg 8 { recirculador_activo1 [7:0] $end
$var reg 8 | recirculador_activo2 [7:0] $end
$var reg 8 } recirculador_activo3 [7:0] $end
$var reg 8 ~ recirculador_desactivado0 [7:0] $end
$var reg 8 !" recirculador_desactivado1 [7:0] $end
$var reg 8 "" recirculador_desactivado2 [7:0] $end
$var reg 8 #" recirculador_desactivado3 [7:0] $end
$var reg 1 E valid_out_recirculador0 $end
$var reg 1 D valid_out_recirculador1 $end
$var reg 1 C valid_out_recirculador2 $end
$var reg 1 B valid_out_recirculador3 $end
$upscope $end
$scope module s2p $end
$var wire 1 @ IDLin $end
$var wire 1 . clk_32f $end
$var wire 1 - clk_4f $end
$var wire 1 & reset $end
$var reg 1 N IDLEOut $end
$var reg 1 L active_serial_paraleloTX $end
$var reg 8 $" buffer [7:0] $end
$var reg 8 %" buffer_pasado [7:0] $end
$var reg 8 &" data_serial_paraleloTX [7:0] $end
$var integer 32 '" contador [31:0] $end
$var integer 32 (" contador_BC [31:0] $end
$upscope $end
$upscope $end
$upscope $end
$enddefinitions $end
#0
$dumpvars
b0 ("
b0 '"
bx0000000 &"
bx %"
b0 $"
b0 #"
b0 ""
b0 !"
b0 ~
b0 }
b0 |
b0 {
b0 z
b10010 y
b11001010 x
b11111101 w
b11111100 v
b0 u
b0 t
b0 s
0r
b0 q
b0 p
b0 o
xn
0m
b0 l
b0 k
b0 j
b0 i
b0 h
b0 g
b0 f
b0 e
b0 d
xc
0b
b0 a
b0 `
b0 _
b0 ^
b0 ]
b0 \
b0 [
b0 Z
b0 Y
b0 X
b0 W
b0 V
b0 U
xT
xS
b0 R
b0 Q
b0 P
b0 O
0N
b0 M
0L
bx0000000 K
0J
b0 I
b0 H
b0 G
b0 F
0E
0D
0C
0B
zA
z@
b10010 ?
b11001010 >
b11111101 =
b11111100 <
b10010 ;
b11001010 :
b11111101 9
b11111100 8
b0 7
b0 6
b0 5
b0 4
b11111100 3
b11111101 2
b11001010 1
b10010 0
1/
1.
1-
1,
0+
b0 *
b0 )
b0 (
b0 '
1&
1%
1$
1#
1"
z!
$end
#10000000
0.
#20000000
b1 '"
b0z $"
b1 t
1J
1.
#30000000
0.
#40000000
b10 t
0J
b10 '"
b0z %"
b0zz $"
1.
#50000000
0.
#60000000
b11 '"
b0zzz $"
b11 t
1J
1.
#70000000
0.
#80000000
b100 t
b100 '"
b0zzzz $"
1.
0-
#90000000
0.
#100000000
b101 '"
b0zzzzz $"
b101 t
1.
#110000000
0.
#120000000
b110 t
b110 '"
b0zzzzzz $"
1.
#130000000
0.
#140000000
b111 '"
b0zzzzzzz $"
b111 t
0J
1.
#150000000
0.
#160000000
b0 t
b0 '"
bz $"
1b
0c
1.
1-
0/
#170000000
0.
#180000000
b1 '"
b1 t
1J
1.
#190000000
0.
#200000000
b10 t
0J
b10 '"
bz %"
1.
#210000000
0.
#220000000
b11 '"
b11 t
1J
1.
#230000000
0.
#240000000
b100 t
b100 '"
1.
0-
0,
#250000000
0.
#260000000
b101 '"
b101 t
1.
#270000000
0.
#280000000
b110 t
b110 '"
1.
#290000000
0.
#300000000
b111 '"
b111 t
0J
1.
#310000000
0.
#320000000
b0 t
b0 '"
0b
b10001 0
b10001 ;
b10001 ?
b10001 y
b10101010 1
b10101010 :
b10101010 >
b10101010 x
b11110000 2
b11110000 9
b11110000 =
b11110000 w
b11001100 3
b11001100 8
b11001100 <
b11001100 v
0"
0#
0$
0%
1r
0T
1m
0S
0n
1.
1-
1/
#330000000
0.
#340000000
b1 '"
b1 t
1J
1.
#350000000
0.
#360000000
b10 t
0J
b10 '"
1.
#370000000
0.
#380000000
b11 '"
b11 t
1J
1.
#390000000
0.
#400000000
b100 t
b100 '"
1.
0-
#410000000
0.
#420000000
b101 '"
b101 t
1.
#430000000
0.
#440000000
b110 t
b110 '"
1.
#450000000
0.
#460000000
b111 '"
b111 t
0J
1.
#470000000
0.
#480000000
b0 t
b0 '"
1b
1B
1C
1D
1E
1.
1-
0/
1,
#490000000
0.
#500000000
b1 '"
b1 t
1J
1.
#510000000
0.
#520000000
b10 t
0J
b10 '"
1.
#530000000
0.
#540000000
b11 '"
b11 t
1J
1.
#550000000
0.
#560000000
b100 t
b100 '"
1.
0-
#570000000
0.
#580000000
b101 '"
b101 t
1.
#590000000
0.
#600000000
b110 t
b110 '"
1.
#610000000
0.
#620000000
b111 '"
b111 t
0J
1.
#630000000
0.
#640000000
b0 t
b0 '"
0b
xS
1n
0m
1T
0r
b101 0
b101 ;
b101 ?
b101 y
b11001010 1
b11001010 :
b11001010 >
b11001010 x
b11110001 2
b11110001 9
b11110001 =
b11110001 w
b11001010 3
b11001010 8
b11001010 <
b11001010 v
1"
1#
1$
1%
1.
1-
1/
#650000000
0.
#660000000
b1 '"
b1 t
1J
1.
#670000000
0.
#680000000
b10 t
0J
b10 '"
1.
#690000000
0.
#700000000
b11 '"
b11 t
1J
1.
#710000000
0.
#720000000
b100 t
b100 '"
1.
0-
0,
#730000000
0.
#740000000
b101 '"
b101 t
1.
#750000000
0.
#760000000
b110 t
b110 '"
1.
#770000000
0.
#780000000
b111 '"
b111 t
0J
1.
#790000000
0.
#800000000
b0 t
b0 '"
1+
1b
1.
1-
0/
#810000000
0.
#820000000
0+
b1 '"
b1 t
1J
1.
#830000000
0.
#840000000
b10 t
0J
b10 '"
1+
1.
#850000000
0.
#860000000
b11 '"
b11 t
1J
1.
#870000000
0.
#880000000
b100 t
b100 '"
1.
0-
#890000000
0.
#900000000
b101 '"
b101 t
1.
#910000000
0.
#920000000
b110 t
b110 '"
0+
1.
#930000000
0.
#940000000
b111 '"
b111 t
0J
1.
#950000000
0.
#960000000
b0 t
b0 '"
1S
1c
0b
1+
1r
1m
1.
1-
1/
1,
#970000000
0.
#980000000
0+
b1 '"
b1 t
1J
1.
#990000000
0.
#1000000000
b10 t
0J
b10 '"
1+
1.
#1010000000
0.
#1020000000
b11 '"
b11 t
1J
1.
#1030000000
0.
#1040000000
b100 t
b100 '"
1.
0-
#1050000000
0.
#1060000000
b101 '"
b101 t
1.
#1070000000
0.
#1080000000
b110 t
b110 '"
0+
1.
#1090000000
0.
#1100000000
b111 '"
b111 t
0J
1.
#1110000000
0.
#1120000000
b0 t
b0 '"
1b
1+
1.
1-
0/
#1130000000
0.
#1140000000
0+
b1 '"
b1 t
1J
1.
#1150000000
0.
#1160000000
b10 t
0J
b10 '"
1+
1.
#1170000000
0.
#1180000000
b11 '"
b11 t
1J
1.
#1190000000
0.
#1200000000
b100 t
b100 '"
1.
0-
0,
#1210000000
0.
#1220000000
b101 '"
b101 t
1.
#1230000000
0.
#1240000000
b110 t
b110 '"
0+
1.
#1250000000
0.
#1260000000
b111 '"
b111 t
0J
1.
#1270000000
0.
#1280000000
b0 t
b0 '"
0b
1+
0m
0r
1.
1-
1/
#1290000000
0.
#1300000000
0+
b1 '"
b1 t
1J
1.
#1310000000
0.
#1320000000
b10 t
0J
b10 '"
1+
1.
#1330000000
0.
#1340000000
b11 '"
b11 t
1J
1.
#1350000000
0.
#1360000000
b100 t
b100 '"
1.
0-
#1370000000
0.
#1380000000
b101 '"
b101 t
1.
#1390000000
0.
#1400000000
b110 t
b110 '"
0+
1.
#1410000000
0.
#1420000000
b111 '"
b111 t
0J
1.
#1430000000
0.
#1440000000
b0 t
b0 '"
1b
1+
1.
1-
0/
1,
#1450000000
0.
#1460000000
0+
b1 '"
b1 t
1J
1.
#1470000000
0.
#1480000000
b10 t
0J
b10 '"
1+
1.
#1490000000
0.
#1500000000
b11 '"
b11 t
1J
1.
#1510000000
0.
#1520000000
b100 t
b100 '"
1.
0-
#1530000000
0.
#1540000000
b101 '"
b101 t
1.
#1550000000
0.
#1560000000
b110 t
b110 '"
0+
1.
#1570000000
0.
#1580000000
b111 '"
b111 t
0J
1.
#1590000000
0.
#1600000000
b0 t
b0 '"
0b
1+
1r
1m
1.
1-
1/
#1610000000
0.
#1620000000
0+
b1 '"
b1 t
1J
1.
#1630000000
0.
#1640000000
b10 t
0J
b10 '"
1+
1.
#1650000000
0.
#1660000000
b11 '"
b11 t
1J
1.
#1670000000
0.
#1680000000
b100 t
b100 '"
1.
0-
0,
#1690000000
0.
#1700000000
b101 '"
b101 t
1.
#1710000000
0.
#1720000000
b110 t
b110 '"
0+
1.
#1730000000
0.
#1740000000
b111 '"
b111 t
0J
1.
#1750000000
0.
#1760000000
b0 t
b0 '"
1b
1+
1.
1-
0/
#1770000000
0.
#1780000000
0+
b1 '"
b1 t
1J
1.
#1790000000
0.
#1800000000
b10 t
0J
b10 '"
1+
1.
#1810000000
0.
#1820000000
0+
b11 '"
b11 t
1J
1.
#1830000000
0.
#1840000000
b100 t
b100 '"
1+
1.
0-
#1850000000
0.
#1860000000
b101 '"
b101 t
1.
#1870000000
0.
#1880000000
b110 t
b110 '"
0+
1.
#1890000000
0.
#1900000000
b111 '"
b111 t
0J
1.
#1910000000
0.
#1920000000
b0 t
b0 '"
0b
1+
0m
0r
1.
1-
1/
1,
#1930000000
0.
#1940000000
b1 '"
b1 t
1J
1.
#1950000000
0.
#1960000000
b10 t
0J
b10 '"
1.
#1970000000
0.
#1980000000
b11 '"
b11 t
1J
1.
#1990000000
0.
#2000000000
b100 t
b100 '"
0+
1.
0-
#2010000000
0.
#2020000000
1+
b101 '"
b101 t
1.
#2030000000
0.
#2040000000
b110 t
b110 '"
0+
1.
#2050000000
0.
#2060000000
b111 '"
b111 t
0J
1.
#2070000000
0.
#2080000000
b0 t
b0 '"
1b
1+
1.
1-
0/
#2090000000
0.
#2100000000
b1 '"
b1 t
1J
1.
#2110000000
0.
#2120000000
b10 t
0J
b10 '"
1.
#2130000000
0.
#2140000000
b11 '"
b11 t
1J
1.
#2150000000
0.
#2160000000
b100 t
b100 '"
1.
0-
0,
#2170000000
0.
#2180000000
0+
b101 '"
b101 t
1.
#2190000000
0.
#2200000000
b110 t
b110 '"
1.
#2210000000
0.
#2220000000
1+
b111 '"
b111 t
0J
1.
#2230000000
0.
#2240000000
b0 t
b0 '"
0b
1r
1m
1.
1-
1/
#2250000000
0.
#2260000000
b1 '"
b1 t
1J
1.
#2270000000
0.
#2280000000
b10 t
0J
b10 '"
1.
#2290000000
0.
#2300000000
b11 '"
b11 t
1J
1.
#2310000000
0.
#2320000000
b100 t
b100 '"
1.
0-
#2330000000
0.
#2340000000
0+
b101 '"
b101 t
1.
#2350000000
0.
#2360000000
b110 t
b110 '"
1.
#2370000000
0.
#2380000000
b111 '"
b111 t
0J
1.
#2390000000
0.
#2400000000
b0 t
b0 '"
1b
1+
1.
1-
0/
1,
#2410000000
0.
#2420000000
0+
b1 '"
b1 t
1J
1.
#2430000000
0.
#2440000000
b10 t
0J
b10 '"
1+
1.
#2450000000
0.
#2460000000
b11 '"
b11 t
1J
1.
#2470000000
0.
#2480000000
b100 t
b100 '"
1.
0-
#2490000000
0.
#2500000000
b101 '"
b101 t
1.
#2510000000
0.
#2520000000
b110 t
b110 '"
0+
1.
#2530000000
0.
#2540000000
b111 '"
b111 t
0J
1.
#2550000000
0.
#2560000000
b0 t
b0 '"
0b
0m
0r
1.
1-
1/
#2570000000
0.
#2580000000
b1 '"
b1 t
1J
1.
#2590000000
0.
#2600000000
b10 t
0J
b10 '"
1.
#2610000000
0.
#2620000000
b11 '"
b11 t
1J
1.
#2630000000
0.
#2640000000
b100 t
b100 '"
1+
1.
0-
0,
#2650000000
0.
#2660000000
b101 '"
b101 t
1.
#2670000000
0.
#2680000000
b110 t
b110 '"
1.
#2690000000
0.
#2700000000
b111 '"
b111 t
0J
1.
#2710000000
0.
#2720000000
b0 t
b0 '"
1b
1.
1-
0/
#2730000000
0.
#2740000000
b1 '"
b1 t
1J
1.
#2750000000
0.
#2760000000
b10 t
0J
b10 '"
1.
#2770000000
0.
#2780000000
b11 '"
b11 t
1J
1.
#2790000000
0.
#2800000000
b100 t
b100 '"
1.
0-
#2810000000
0.
#2820000000
b101 '"
b101 t
1.
#2830000000
0.
#2840000000
b110 t
b110 '"
1.
#2850000000
0.
#2860000000
b111 '"
b111 t
0J
1.
#2870000000
0.
#2880000000
b0 t
b0 '"
0b
1r
1m
1.
1-
1/
1,
#2890000000
0.
#2900000000
b1 '"
b1 t
1J
1.
#2910000000
0.
#2920000000
b10 t
0J
b10 '"
1.
#2930000000
0.
#2940000000
b11 '"
b11 t
1J
1.
#2950000000
0.
#2960000000
b100 t
b100 '"
1.
0-
#2970000000
0.
#2980000000
b101 '"
b101 t
1.
#2990000000
0.
#3000000000
b110 t
b110 '"
1.
#3010000000
0.
#3020000000
b111 '"
b111 t
0J
1.
#3030000000
0.
#3040000000
b0 t
b0 '"
1b
1.
1-
0/
#3050000000
0.
#3060000000
b1 '"
b1 t
1J
1.
#3070000000
0.
#3080000000
b10 t
0J
b10 '"
1.
#3090000000
0.
#3100000000
b11 '"
b11 t
1J
1.
#3110000000
0.
#3120000000
b100 t
b100 '"
1.
0-
0,
#3130000000
0.
#3140000000
b101 '"
b101 t
1.
#3150000000
0.
#3160000000
b110 t
b110 '"
1.
#3170000000
0.
#3180000000
b111 '"
b111 t
0J
1.
#3190000000
0.
#3200000000
b0 t
b0 '"
0b
0m
0r
1.
1-
1/
#3210000000
0.
#3220000000
b1 '"
b1 t
1J
1.
#3230000000
0.
#3240000000
b10 t
0J
b10 '"
1.
#3250000000
0.
#3260000000
b11 '"
b11 t
1J
1.
#3270000000
0.
#3280000000
b100 t
b100 '"
1.
0-
#3290000000
0.
#3300000000
b101 '"
b101 t
1.
#3310000000
0.
#3320000000
b110 t
b110 '"
1.
#3330000000
0.
#3340000000
b111 '"
b111 t
0J
1.
#3350000000
0.
#3360000000
b0 t
b0 '"
1b
1.
1-
0/
1,
#3370000000
0.
#3380000000
b1 '"
b1 t
1J
1.
#3390000000
0.
#3400000000
b10 t
0J
b10 '"
1.
#3410000000
0.
#3420000000
b11 '"
b11 t
1J
1.
#3430000000
0.
#3440000000
b100 t
b100 '"
1.
0-
#3450000000
0.
#3460000000
b101 '"
b101 t
1.
#3470000000
0.
#3480000000
b110 t
b110 '"
1.
#3490000000
0.
#3500000000
b111 '"
b111 t
0J
1.
#3510000000
0.
#3520000000
b0 t
b0 '"
0b
1r
1m
1.
1-
1/
#3530000000
0.
#3540000000
b1 '"
b1 t
1J
1.
#3550000000
0.
#3560000000
b10 t
0J
b10 '"
1.
#3570000000
0.
#3580000000
b11 '"
b11 t
1J
1.
#3590000000
0.
#3600000000
b100 t
b100 '"
1.
0-
0,
#3610000000
0.
#3620000000
b101 '"
b101 t
1.
#3630000000
0.
#3640000000
b110 t
b110 '"
1.
#3650000000
0.
#3660000000
b111 '"
b111 t
0J
1.
#3670000000
0.
#3680000000
b0 t
b0 '"
1b
1.
1-
0/
#3690000000
0.
#3700000000
b1 '"
b1 t
1J
1.
#3710000000
0.
#3720000000
b10 t
0J
b10 '"
1.
#3730000000
0.
#3740000000
b11 '"
b11 t
1J
1.
#3750000000
0.
#3760000000
b100 t
b100 '"
1.
0-
#3770000000
0.
#3780000000
b101 '"
b101 t
1.
#3790000000
0.
#3800000000
b110 t
b110 '"
1.
#3810000000
0.
#3820000000
b111 '"
b111 t
0J
1.
#3830000000
0.
#3840000000
b0 t
b0 '"
0b
0m
0r
1.
1-
1/
1,
#3850000000
0.
#3860000000
b1 '"
b1 t
1J
1.
#3870000000
0.
#3880000000
b10 t
0J
b10 '"
1.
#3890000000
0.
#3900000000
b11 '"
b11 t
1J
1.
#3910000000
0.
#3920000000
b100 t
b100 '"
1.
0-
#3930000000
0.
#3940000000
b101 '"
b101 t
1.
#3950000000
0.
#3960000000
b110 t
b110 '"
1.
#3970000000
0.
#3980000000
b111 '"
b111 t
0J
1.
#3990000000
0.
#4000000000
b0 t
b0 '"
1b
1.
1-
0/
#4010000000
0.
#4020000000
b1 '"
b1 t
1J
1.
#4030000000
0.
#4040000000
b10 t
0J
b10 '"
1.
#4050000000
0.
#4060000000
b11 '"
b11 t
1J
1.
#4070000000
0.
#4080000000
b100 t
b100 '"
1.
0-
0,
#4090000000
0.
#4100000000
b101 '"
b101 t
1.
#4110000000
0.
#4120000000
b110 t
b110 '"
1.
#4130000000
0.
#4140000000
b111 '"
b111 t
0J
1.
#4150000000
0.
#4160000000
b0 t
b0 '"
0b
1r
1m
1.
1-
1/
#4170000000
0.
#4180000000
b1 '"
b1 t
1J
1.
#4190000000
0.
#4200000000
b10 t
0J
b10 '"
1.
#4210000000
0.
#4220000000
b11 '"
b11 t
1J
1.
#4230000000
0.
#4240000000
b100 t
b100 '"
1.
0-
#4250000000
0.
#4260000000
b101 '"
b101 t
1.
#4270000000
0.
#4280000000
b110 t
b110 '"
1.
#4290000000
0.
#4300000000
b111 '"
b111 t
0J
1.
#4310000000
0.
#4320000000
b0 t
b0 '"
1b
1.
1-
0/
1,
#4330000000
0.
#4340000000
b1 '"
b1 t
1J
1.
#4350000000
0.
#4360000000
b10 t
0J
b10 '"
1.
#4370000000
0.
#4380000000
b11 '"
b11 t
1J
1.
#4390000000
0.
#4400000000
b100 t
b100 '"
1.
0-
#4410000000
0.
#4420000000
b101 '"
b101 t
1.
#4430000000
0.
#4440000000
b110 t
b110 '"
1.
#4450000000
0.
#4460000000
b111 '"
b111 t
0J
1.
#4470000000
0.
#4480000000
b0 t
b0 '"
0b
0m
0r
1.
1-
1/
#4490000000
0.
#4500000000
b1 '"
b1 t
1J
1.
#4510000000
0.
#4520000000
b10 t
0J
b10 '"
1.
#4530000000
0.
#4540000000
b11 '"
b11 t
1J
1.
#4550000000
0.
#4560000000
b100 t
b100 '"
1.
0-
0,
#4570000000
0.
#4580000000
b101 '"
b101 t
1.
#4590000000
0.
#4600000000
b110 t
b110 '"
1.
#4610000000
0.
#4620000000
b111 '"
b111 t
0J
1.
#4630000000
0.
#4640000000
b0 t
b0 '"
1b
1.
1-
0/
#4650000000
0.
#4660000000
b1 '"
b1 t
1J
1.
#4670000000
0.
#4680000000
b10 t
0J
b10 '"
1.
#4690000000
0.
#4700000000
b11 '"
b11 t
1J
1.
#4710000000
0.
#4720000000
b100 t
b100 '"
1.
0-
#4730000000
0.
#4740000000
b101 '"
b101 t
1.
#4750000000
0.
#4760000000
b110 t
b110 '"
1.
#4770000000
0.
#4780000000
b111 '"
b111 t
0J
1.
#4790000000
0.
#4800000000
b0 t
b0 '"
0b
1r
1m
1.
1-
1/
1,
