phy/PHY.vcd
$date
	Fri Jun 11 02:26:45 2021
$end
$version
	Icarus Verilog
$end
$timescale
	100ps
$end
$scope module BUF $end
$var wire 1 ! A $end
$var wire 1 " Y $end
$upscope $end
$scope module BancoPruebas $end
$var wire 8 # out0_rxS [7:0] $end
$var wire 8 $ out1_rxS [7:0] $end
$var wire 8 % out2_rxS [7:0] $end
$var wire 8 & out3_rxS [7:0] $end
$var wire 1 ' validIn_3 $end
$var wire 1 ( validIn_2 $end
$var wire 1 ) validIn_1 $end
$var wire 1 * validIn_0 $end
$var wire 1 + reset $end
$var wire 8 , out3_rx [7:0] $end
$var wire 8 - out2_rx [7:0] $end
$var wire 8 . out1_rx [7:0] $end
$var wire 8 / out0_rx [7:0] $end
$var wire 1 0 clk_f $end
$var wire 1 1 clk_4f $end
$var wire 1 2 clk_32f $end
$var wire 1 3 clk_2f $end
$var wire 8 4 In_3 [7:0] $end
$var wire 8 5 In_2 [7:0] $end
$var wire 8 6 In_1 [7:0] $end
$var wire 8 7 In_0 [7:0] $end
$scope module Probador $end
$var wire 8 8 out0_rxS [7:0] $end
$var wire 8 9 out1_rxS [7:0] $end
$var wire 8 : out2_rxS [7:0] $end
$var wire 8 ; out3_rxS [7:0] $end
$var wire 8 < out3_rx [7:0] $end
$var wire 8 = out2_rx [7:0] $end
$var wire 8 > out1_rx [7:0] $end
$var wire 8 ? out0_rx [7:0] $end
$var reg 1 3 clk_2f $end
$var reg 1 2 clk_32f $end
$var reg 1 1 clk_4f $end
$var reg 1 0 clk_f $end
$var reg 8 @ data_in0 [7:0] $end
$var reg 8 A data_in1 [7:0] $end
$var reg 8 B data_in2 [7:0] $end
$var reg 8 C data_in3 [7:0] $end
$var reg 1 + reset $end
$var reg 1 * valid0 $end
$var reg 1 ) valid1 $end
$var reg 1 ( valid2 $end
$var reg 1 ' valid3 $end
$upscope $end
$scope module phy_general $end
$var wire 1 3 clk_2f $end
$var wire 1 2 clk_32f $end
$var wire 1 1 clk_4f $end
$var wire 1 0 clk_f $end
$var wire 8 D in0_tx [7:0] $end
$var wire 8 E in1_tx [7:0] $end
$var wire 8 F in2_tx [7:0] $end
$var wire 8 G in3_tx [7:0] $end
$var wire 1 + reset $end
$var wire 1 * valid_in0_tx $end
$var wire 1 ) valid_in1_tx $end
$var wire 1 ( valid_in2_tx $end
$var wire 1 ' valid_in3_tx $end
$var wire 1 H valid_out0_tx $end
$var wire 1 I valid_out1_tx $end
$var wire 1 J valid_out2_tx $end
$var wire 1 K valid_out3_tx $end
$var wire 1 L valid_out3_rx $end
$var wire 1 M valid_out2_rx $end
$var wire 1 N valid_out1_rx $end
$var wire 1 O valid_out0_rx $end
$var wire 1 P out_tx $end
$var wire 1 Q out_rx $end
$var wire 8 R out3_tx [7:0] $end
$var wire 8 S out3_rx [7:0] $end
$var wire 8 T out2_tx [7:0] $end
$var wire 8 U out2_rx [7:0] $end
$var wire 8 V out1_tx [7:0] $end
$var wire 8 W out1_rx [7:0] $end
$var wire 8 X out0_tx [7:0] $end
$var wire 8 Y out0_rx [7:0] $end
$scope module receptor $end
$var wire 1 3 clk_2f $end
$var wire 1 2 clk_32f $end
$var wire 1 1 clk_4f $end
$var wire 1 0 clk_f $end
$var wire 1 + reset $end
$var wire 1 Z valid_serial_paraleloRX $end
$var wire 1 L valid_datademuxL23 $end
$var wire 1 M valid_datademuxL22 $end
$var wire 1 N valid_datademuxL21 $end
$var wire 1 O valid_datademuxL20 $end
$var wire 1 Q out_serial2_conductual $end
$var wire 8 [ out3 [7:0] $end
$var wire 8 \ out2 [7:0] $end
$var wire 8 ] out1 [7:0] $end
$var wire 8 ^ out0 [7:0] $end
$var wire 8 _ data_serial_paraleloRX [7:0] $end
$var wire 1 P data_in $end
$var wire 1 ` active_serial_paraleloRX $end
$scope module Paralelo $end
$var wire 1 2 clk_32f $end
$var wire 1 1 clk_4f $end
$var wire 1 ` active $end
$var reg 1 Q out_serial2_conductual $end
$var reg 3 a selector [2:0] $end
$var reg 3 b selector_2 [2:0] $end
$upscope $end
$scope module demuxes $end
$var wire 1 3 clk_2f $end
$var wire 1 2 clk_32f $end
$var wire 1 1 clk_4f $end
$var wire 1 0 clk_f $end
$var wire 1 + reset $end
$var wire 1 L validsalida3 $end
$var wire 1 M validsalida2 $end
$var wire 1 c validsalida1L1 $end
$var wire 1 N validsalida1 $end
$var wire 1 d validsalida0L1 $end
$var wire 1 O validsalida0 $end
$var wire 1 Z validEntrada $end
$var wire 8 e Salida3 [7:0] $end
$var wire 8 f Salida2 [7:0] $end
$var wire 8 g Salida1 [7:0] $end
$var wire 8 h Salida0 [7:0] $end
$var wire 8 i Entrada1 [7:0] $end
$var wire 8 j Entrada0 [7:0] $end
$var wire 8 k Entrada [7:0] $end
$scope module demuxitl1 $end
$var wire 1 3 clk_f $end
$var wire 1 + reset $end
$var wire 1 L validsalida3 $end
$var wire 1 M validsalida2 $end
$var wire 1 N validsalida1 $end
$var wire 1 O validsalida0 $end
$var wire 1 c validEntrada1 $end
$var wire 1 d validEntrada0 $end
$var wire 8 l Salida3 [7:0] $end
$var wire 8 m Salida2 [7:0] $end
$var wire 8 n Salida1 [7:0] $end
$var wire 8 o Salida0 [7:0] $end
$var wire 8 p Entrada1 [7:0] $end
$var wire 8 q Entrada0 [7:0] $end
$scope module demuxL11 $end
$var wire 1 3 clk $end
$var wire 1 r clk_2f $end
$var wire 1 + reset $end
$var wire 1 d validEntrada $end
$var wire 8 s Entrada [7:0] $end
$var reg 8 t Salida_conductual0 [7:0] $end
$var reg 8 u Salida_conductual1 [7:0] $end
$var reg 1 v selector $end
$var reg 1 O validsalida0 $end
$var reg 1 N validsalida1 $end
$upscope $end
$scope module demuxL12 $end
$var wire 1 3 clk $end
$var wire 1 w clk_2f $end
$var wire 1 + reset $end
$var wire 1 c validEntrada $end
$var wire 8 x Entrada [7:0] $end
$var reg 8 y Salida_conductual0 [7:0] $end
$var reg 8 z Salida_conductual1 [7:0] $end
$var reg 1 { selector $end
$var reg 1 M validsalida0 $end
$var reg 1 L validsalida1 $end
$upscope $end
$upscope $end
$scope module demuxitoL2 $end
$var wire 1 3 clk_2f $end
$var wire 1 2 clk_32f $end
$var wire 1 1 clk_4f $end
$var wire 1 + reset $end
$var wire 1 c validsalida1 $end
$var wire 1 d validsalida0 $end
$var wire 1 Z validEntrada $end
$var wire 8 | Salida_conductual1 [7:0] $end
$var wire 8 } Salida_conductual0 [7:0] $end
$var wire 8 ~ Entrada [7:0] $end
$scope module demux1 $end
$var wire 1 1 clk $end
$var wire 1 !" clk_2f $end
$var wire 1 + reset $end
$var wire 1 Z validEntrada $end
$var wire 8 "" Entrada [7:0] $end
$var reg 8 #" Salida_conductual0 [7:0] $end
$var reg 8 $" Salida_conductual1 [7:0] $end
$var reg 1 %" selector $end
$var reg 1 d validsalida0 $end
$var reg 1 c validsalida1 $end
$upscope $end
$upscope $end
$upscope $end
$scope module serialparalelo $end
$var wire 1 2 clk_32f $end
$var wire 1 1 clk_4f $end
$var wire 1 + reset $end
$var wire 1 P data_in $end
$var reg 1 ` active_serial_paraleloRX $end
$var reg 8 &" buffer [7:0] $end
$var reg 8 '" buffer_pasado [7:0] $end
$var reg 8 (" data_serial_paraleloRX [7:0] $end
$var reg 1 Z valid_serial_paraleloRX $end
$var integer 32 )" contador [31:0] $end
$var integer 32 *" contador_BC [31:0] $end
$upscope $end
$upscope $end
$scope module transmisor $end
$var wire 1 3 clk_2f $end
$var wire 1 2 clk_32f $end
$var wire 1 1 clk_4f $end
$var wire 1 0 clk_f $end
$var wire 8 +" data_in0 [7:0] $end
$var wire 8 ," data_in1 [7:0] $end
$var wire 8 -" data_in2 [7:0] $end
$var wire 8 ." data_in3 [7:0] $end
$var wire 1 Q in_from_rx $end
$var wire 1 + reset $end
$var wire 1 * valid0 $end
$var wire 1 ) valid1 $end
$var wire 1 ( valid2 $end
$var wire 1 ' valid3 $end
$var wire 1 /" validsalida $end
$var wire 1 0" valid_out_recirculador3 $end
$var wire 1 1" valid_out_recirculador2 $end
$var wire 1 2" valid_out_recirculador1 $end
$var wire 1 3" valid_out_recirculador0 $end
$var wire 8 4" recirculador_desactivado3 [7:0] $end
$var wire 8 5" recirculador_desactivado2 [7:0] $end
$var wire 8 6" recirculador_desactivado1 [7:0] $end
$var wire 8 7" recirculador_desactivado0 [7:0] $end
$var wire 1 P out_to_rx $end
$var wire 8 8" data_serial_paraleloRX [7:0] $end
$var wire 1 9" active $end
$var wire 8 :" Salida_conductual [7:0] $end
$var wire 1 ;" IDLEOut $end
$var wire 8 <" Entrada3 [7:0] $end
$var wire 8 =" Entrada2 [7:0] $end
$var wire 8 >" Entrada1 [7:0] $end
$var wire 8 ?" Entrada0 [7:0] $end
$scope module muxess $end
$var wire 1 3 clk_2f $end
$var wire 1 1 clk_4f $end
$var wire 1 0 clk_f $end
$var wire 1 + reset $end
$var wire 1 @" validsalida1 $end
$var wire 1 A" validsalida0 $end
$var wire 1 /" validsalida $end
$var wire 1 0" validEntrada3 $end
$var wire 1 1" validEntrada2 $end
$var wire 1 2" validEntrada1 $end
$var wire 1 3" validEntrada0 $end
$var wire 8 B" Salida_conductual [7:0] $end
$var wire 8 C" Salida1 [7:0] $end
$var wire 8 D" Salida0 [7:0] $end
$var wire 8 E" Entrada3 [7:0] $end
$var wire 8 F" Entrada2 [7:0] $end
$var wire 8 G" Entrada1 [7:0] $end
$var wire 8 H" Entrada0 [7:0] $end
$scope module muxitol2 $end
$var wire 1 1 clk_4f $end
$var wire 1 + reset $end
$var wire 1 /" validsalida $end
$var wire 1 @" validEntrada1 $end
$var wire 1 A" validEntrada0 $end
$var wire 8 I" Salida_conductual [7:0] $end
$var wire 8 J" Entrada1 [7:0] $end
$var wire 8 K" Entrada0 [7:0] $end
$scope module mux1 $end
$var wire 1 1 clk $end
$var wire 1 + reset $end
$var wire 1 @" validEntrada1 $end
$var wire 1 A" validEntrada0 $end
$var wire 8 L" Entrada1 [7:0] $end
$var wire 8 M" Entrada0 [7:0] $end
$var reg 8 N" Salida_conductual [7:0] $end
$var reg 1 O" selector $end
$var reg 1 /" validsalida $end
$upscope $end
$upscope $end
$scope module muxl1 $end
$var wire 1 3 clk_2f $end
$var wire 1 + reset $end
$var wire 1 @" validsalida1 $end
$var wire 1 A" validsalida0 $end
$var wire 1 0" validEntrada3 $end
$var wire 1 1" validEntrada2 $end
$var wire 1 2" validEntrada1 $end
$var wire 1 3" validEntrada0 $end
$var wire 8 P" Salida1 [7:0] $end
$var wire 8 Q" Salida0 [7:0] $end
$var wire 8 R" Entrada3 [7:0] $end
$var wire 8 S" Entrada2 [7:0] $end
$var wire 8 T" Entrada1 [7:0] $end
$var wire 8 U" Entrada0 [7:0] $end
$scope module mux1 $end
$var wire 1 3 clk $end
$var wire 1 + reset $end
$var wire 1 2" validEntrada1 $end
$var wire 1 3" validEntrada0 $end
$var wire 8 V" Entrada1 [7:0] $end
$var wire 8 W" Entrada0 [7:0] $end
$var reg 8 X" Salida_conductual [7:0] $end
$var reg 1 Y" selector $end
$var reg 1 A" validsalida $end
$upscope $end
$scope module mux2 $end
$var wire 1 3 clk $end
$var wire 1 + reset $end
$var wire 1 0" validEntrada1 $end
$var wire 1 1" validEntrada0 $end
$var wire 8 Z" Entrada1 [7:0] $end
$var wire 8 [" Entrada0 [7:0] $end
$var reg 8 \" Salida_conductual [7:0] $end
$var reg 1 ]" selector $end
$var reg 1 @" validsalida $end
$upscope $end
$upscope $end
$upscope $end
$scope module p2s $end
$var wire 1 2 clk_32f $end
$var wire 1 1 clk_4f $end
$var wire 8 ^" in_serial [7:0] $end
$var wire 1 + reset $end
$var wire 1 /" valid_in $end
$var reg 1 P out_serial_conductual $end
$var reg 3 _" selector [2:0] $end
$var reg 3 `" selector_2 [2:0] $end
$upscope $end
$scope module recirculadorphy $end
$var wire 1 0 clk $end
$var wire 8 a" data_in0 [7:0] $end
$var wire 8 b" data_in1 [7:0] $end
$var wire 8 c" data_in2 [7:0] $end
$var wire 8 d" data_in3 [7:0] $end
$var wire 1 + reset $end
$var wire 1 * valid0 $end
$var wire 1 ) valid1 $end
$var wire 1 ( valid2 $end
$var wire 1 ' valid3 $end
$var wire 1 9" active $end
$var reg 8 e" recirculador_activo0 [7:0] $end
$var reg 8 f" recirculador_activo1 [7:0] $end
$var reg 8 g" recirculador_activo2 [7:0] $end
$var reg 8 h" recirculador_activo3 [7:0] $end
$var reg 8 i" recirculador_desactivado0 [7:0] $end
$var reg 8 j" recirculador_desactivado1 [7:0] $end
$var reg 8 k" recirculador_desactivado2 [7:0] $end
$var reg 8 l" recirculador_desactivado3 [7:0] $end
$var reg 1 3" valid_out_recirculador0 $end
$var reg 1 2" valid_out_recirculador1 $end
$var reg 1 1" valid_out_recirculador2 $end
$var reg 1 0" valid_out_recirculador3 $end
$upscope $end
$scope module s2p $end
$var wire 1 Q IDLin $end
$var wire 1 2 clk_32f $end
$var wire 1 1 clk_4f $end
$var wire 1 + reset $end
$var reg 1 ;" IDLEOut $end
$var reg 1 9" active_serial_paraleloTX $end
$var reg 8 m" buffer [7:0] $end
$var reg 8 n" buffer_pasado [7:0] $end
$var reg 8 o" data_serial_paraleloTX [7:0] $end
$var integer 32 p" contador [31:0] $end
$var integer 32 q" contador_BC [31:0] $end
$upscope $end
$upscope $end
$upscope $end
$upscope $end
$scope module DFF $end
$var wire 1 r" C $end
$var wire 1 s" D $end
$var reg 1 t" Q $end
$upscope $end
$scope module DFFSR $end
$var wire 1 u" C $end
$var wire 1 v" D $end
$var wire 1 w" R $end
$var wire 1 x" S $end
$var reg 1 y" Q $end
$upscope $end
$scope module NAND $end
$var wire 1 z" A $end
$var wire 1 {" B $end
$var wire 1 |" Y $end
$upscope $end
$scope module NOR $end
$var wire 1 }" A $end
$var wire 1 ~" B $end
$var wire 1 !# Y $end
$upscope $end
$scope module NOT $end
$var wire 1 "# A $end
$var wire 1 ## Y $end
$upscope $end
$enddefinitions $end
#0
$dumpvars
x##
z"#
x!#
z~"
z}"
x|"
z{"
zz"
xy"
zx"
zw"
zv"
zu"
xt"
zs"
zr"
b0 q"
b0 p"
bx0000000 o"
bx n"
b0 m"
b0 l"
b0 k"
b0 j"
b0 i"
b0 h"
b0 g"
b0 f"
b0 e"
b0 d"
b0 c"
b0 b"
b0 a"
b0 `"
b0 _"
b0 ^"
x]"
b0 \"
b0 ["
b0 Z"
xY"
b0 X"
b0 W"
b0 V"
b0 U"
b0 T"
b0 S"
b0 R"
b0 Q"
b0 P"
xO"
b0 N"
b0 M"
b0 L"
b0 K"
b0 J"
b0 I"
b0 H"
b0 G"
b0 F"
b0 E"
b0 D"
b0 C"
b0 B"
xA"
x@"
b0 ?"
b0 >"
b0 ="
b0 <"
0;"
b0 :"
09"
bx0000000 8"
b0 7"
b0 6"
b0 5"
b0 4"
03"
02"
01"
00"
x/"
b0 ."
b0 -"
b0 ,"
b0 +"
b0 *"
b0 )"
b0 ("
bx '"
b0 &"
0%"
b0 $"
b0 #"
b0 ""
z!"
b0 ~
b0 }
b0 |
0{
b0 z
b0 y
b0 x
zw
0v
b0 u
b0 t
b0 s
zr
b0 q
b0 p
b0 o
b0 n
b0 m
b0 l
b0 k
b0 j
b0 i
b0 h
b0 g
b0 f
b0 e
xd
xc
b0 b
bx a
0`
b0 _
b0 ^
b0 ]
b0 \
b0 [
0Z
b0 Y
b0 X
b0 W
b0 V
b0 U
b0 T
b0 S
b0 R
xQ
0P
xO
xN
xM
xL
zK
zJ
zI
zH
b0 G
b0 F
b0 E
b0 D
b0 C
b0 B
b0 A
b0 @
b0 ?
b0 >
b0 =
b0 <
bz ;
bz :
bz 9
bz 8
b0 7
b0 6
b0 5
b0 4
13
12
11
10
b0 /
b0 .
b0 -
b0 ,
0+
0*
0)
0(
0'
bz &
bz %
bz $
bz #
z"
z!
$end
#10000000
02
#20000000
b1 b
0Q
b0 a
12
0O"
0Y"
0]"
#30000000
02
#40000000
b10 b
1Q
12
#50000000
02
#60000000
b11 b
12
#70000000
02
#80000000
b100 b
12
01
#90000000
02
#100000000
b101 b
12
#110000000
02
#120000000
b110 b
12
#130000000
02
#140000000
b111 b
0Q
12
#150000000
02
#160000000
b0 b
12
11
03
#170000000
02
#180000000
b1 b
12
#190000000
02
#200000000
b10 b
1Q
12
#210000000
02
#220000000
b11 b
12
#230000000
02
#240000000
b100 b
12
01
#250000000
02
#260000000
b101 b
12
#270000000
02
#280000000
b110 b
12
#290000000
02
#300000000
b111 b
0Q
12
#310000000
02
#320000000
b0 b
12
11
13
00
#330000000
02
#340000000
b1 b
12
#350000000
02
#360000000
b10 b
1Q
12
#370000000
02
#380000000
b11 b
12
#390000000
02
#400000000
b100 b
12
01
#410000000
02
#420000000
b101 b
12
#430000000
02
#440000000
b110 b
12
#450000000
02
#460000000
b111 b
0Q
12
#470000000
02
#480000000
b0 b
12
11
03
#490000000
02
#500000000
b1 b
12
#510000000
02
#520000000
b10 b
1Q
12
#530000000
02
#540000000
b11 b
12
#550000000
02
#560000000
b100 b
12
01
#570000000
02
#580000000
b101 b
12
#590000000
02
#600000000
b110 b
12
#610000000
02
#620000000
b111 b
0Q
12
#630000000
02
#640000000
b0 b
b11111101 4
b11111101 C
b11111101 G
b11111101 ."
b11111101 d"
b11111111 5
b11111111 B
b11111111 F
b11111111 -"
b11111111 c"
b1 6
b1 A
b1 E
b1 ,"
b1 b"
b11101110 7
b11101110 @
b11101110 D
b11101110 +"
b11101110 a"
1'
1(
1)
1*
1+
12
11
13
10
#650000000
02
#660000000
b1 b
b1 )"
b1 p"
b1 _"
1P
12
#670000000
02
#680000000
b10 _"
0P
b10 p"
b0 n"
b10 )"
b0 '"
b1 &"
b10 b
1Q
12
#690000000
02
#700000000
b11 b
b11 )"
b10 &"
b11 p"
b1 m"
b11 _"
1P
12
#710000000
02
#720000000
b100 _"
b100 p"
b11 m"
b100 )"
b101 &"
b100 b
12
01
#730000000
02
#740000000
b101 b
b101 )"
b1011 &"
b101 p"
b111 m"
b101 _"
12
#750000000
02
#760000000
b110 _"
b110 p"
b1111 m"
b110 )"
b10111 &"
b110 b
12
#770000000
02
#780000000
b111 b
0Q
b111 )"
b101111 &"
b111 p"
b11111 m"
b111 _"
0P
12
#790000000
02
#800000000
b0 _"
b0 p"
b111110 m"
b0 )"
b1011110 &"
b0 b
1%"
1O"
0/"
12
11
03
#810000000
02
#820000000
b1 b
b1 )"
b10111100 &"
b1 p"
b1111100 m"
b1 _"
1P
12
#830000000
02
#840000000
b10 _"
0P
b10 p"
b1111100 n"
b11111000 m"
b10 )"
b10111100 '"
b1 *"
b1111001 &"
b10 b
1Q
12
#850000000
02
#860000000
b11 b
b11 )"
b11110010 &"
b11 p"
b11110001 m"
b11 _"
1P
12
#870000000
02
#880000000
b100 _"
b100 p"
b11100011 m"
b100 )"
b11100101 &"
b100 b
12
01
#890000000
02
#900000000
b101 b
b101 )"
b11001011 &"
b101 p"
b11000111 m"
b101 _"
12
#910000000
02
#920000000
b110 _"
b110 p"
b10001111 m"
b110 )"
b10010111 &"
b110 b
12
#930000000
02
#940000000
b111 b
0Q
b111 )"
b101111 &"
b111 p"
b11111 m"
b111 _"
0P
12
#950000000
02
#960000000
b0 _"
b0 p"
b111110 m"
b0 )"
b1011110 &"
b0 b
0O"
0%"
1{
1v
1]"
0@"
1Y"
0A"
12
11
13
00
#970000000
02
#980000000
b1 b
b1 )"
b10111100 &"
b1 p"
b1111100 m"
b1 _"
1P
12
#990000000
02
#1000000000
b10 _"
0P
b10 p"
b11111000 m"
b10 )"
b10 *"
b1111001 &"
b10 b
1Q
12
#1010000000
02
#1020000000
b11 b
b11 )"
b11110010 &"
b11 p"
b11110001 m"
b11 _"
1P
12
#1030000000
02
#1040000000
b100 _"
b100 p"
b11100011 m"
b100 )"
b11100101 &"
b100 b
12
01
#1050000000
02
#1060000000
b101 b
b101 )"
b11001011 &"
b101 p"
b11000111 m"
b101 _"
12
#1070000000
02
#1080000000
b110 _"
b110 p"
b10001111 m"
b110 )"
b10010111 &"
b110 b
12
#1090000000
02
#1100000000
b111 b
0Q
b111 )"
b101111 &"
b111 p"
b11111 m"
b111 _"
0P
12
#1110000000
02
#1120000000
b0 _"
b0 p"
b111110 m"
b0 )"
b1011110 &"
b0 b
1%"
1O"
12
11
03
#1130000000
02
#1140000000
b1 b
b1 )"
b10111100 &"
b1 p"
b1111100 m"
b1 _"
1P
12
#1150000000
02
#1160000000
b10 _"
0P
b10 p"
b11111000 m"
b10 )"
b11 *"
b1111001 &"
b10 b
1Q
12
#1170000000
02
#1180000000
b11 b
b11 )"
b11110010 &"
b11 p"
b11110001 m"
b11 _"
1P
12
#1190000000
02
#1200000000
b100 _"
b100 p"
b11100011 m"
b100 )"
b11100101 &"
b100 b
12
01
#1210000000
02
#1220000000
b101 b
b101 )"
b11001011 &"
b101 p"
b11000111 m"
b101 _"
12
#1230000000
02
#1240000000
b110 _"
b110 p"
b10001111 m"
b110 )"
b10010111 &"
b110 b
12
#1250000000
02
#1260000000
b111 b
0Q
b111 )"
b101111 &"
b111 p"
b11111 m"
b111 _"
0P
12
#1270000000
02
#1280000000
b0 _"
b0 p"
b111110 m"
b0 )"
b1011110 &"
b0 b
0O"
0%"
0Y"
0]"
0v
0{
b11111110 4
b11111110 C
b11111110 G
b11111110 ."
b11111110 d"
b0 5
b0 B
b0 F
b0 -"
b0 c"
b10 6
b10 A
b10 E
b10 ,"
b10 b"
b11101111 7
b11101111 @
b11101111 D
b11101111 +"
b11101111 a"
10"
11"
12"
13"
12
11
13
10
#1290000000
02
#1300000000
b1 b
b1 )"
b10111100 &"
b1 p"
b1111100 m"
b1 _"
1P
12
#1310000000
02
#1320000000
b10 _"
0P
b10 p"
b11111000 m"
b10 )"
b100 *"
b1111001 &"
b10 b
1Q
12
#1330000000
02
#1340000000
b11 b
b11 )"
b11110010 &"
b11 p"
b11110001 m"
b11 _"
1P
12
#1350000000
02
#1360000000
b100 _"
b100 p"
b11100011 m"
b100 )"
b11100101 &"
b100 b
12
01
#1370000000
02
#1380000000
b101 b
b101 )"
b11001011 &"
b101 p"
b11000111 m"
b101 _"
12
#1390000000
02
#1400000000
b110 _"
b110 p"
b10001111 m"
b110 )"
b10010111 &"
b110 b
12
#1410000000
02
#1420000000
b111 b
0Q
b111 )"
b101111 &"
b111 p"
b11111 m"
b111 _"
0P
12
#1430000000
02
#1440000000
b0 _"
b0 p"
b111110 m"
b0 )"
b1011110 &"
b0 b
1%"
1O"
12
11
03
#1450000000
02
#1460000000
b1 b
b1 )"
b10111100 &"
b1 p"
b1111100 m"
b1 _"
1P
12
#1470000000
02
#1480000000
b10 _"
0P
b10 p"
b11111000 m"
b10 )"
1`
b1111001 &"
b10 b
1Q
12
#1490000000
02
#1500000000
b1 a
b0 b
b11 )"
b11110010 &"
b11 p"
b11110001 m"
b11 _"
1P
12
#1510000000
02
#1520000000
b100 _"
b100 p"
b11100011 m"
b100 )"
b11100101 &"
b10 a
0Q
12
01
#1530000000
02
#1540000000
b11 a
1Q
b101 )"
b11001011 &"
b101 p"
b11000110 m"
b101 _"
12
#1550000000
02
#1560000000
b110 _"
b110 p"
b10001101 m"
b110 )"
b10010111 &"
b100 a
12
#1570000000
02
#1580000000
b101 a
b111 )"
b101111 &"
b111 p"
b11011 m"
b111 _"
0P
12
#1590000000
02
#1600000000
b0 _"
b0 p"
b110111 m"
b0 )"
b1011110 &"
b110 a
0O"
0%"
1{
1v
1]"
1@"
1Y"
1A"
12
11
13
00
#1610000000
02
#1620000000
b111 a
0Q
b1 )"
b10111100 &"
b1 p"
b1101111 m"
b1 _"
1P
12
#1630000000
02
#1640000000
b10 _"
0P
b10 p"
b1101111 n"
b11011110 m"
b10 )"
b1111001 &"
b0 a
12
#1650000000
02
#1660000000
b1 a
1Q
b11 )"
b11110010 &"
b11 p"
b10111100 m"
b11 _"
1P
12
#1670000000
02
#1680000000
b100 _"
b100 p"
b1 q"
b0 8"
b0 o"
b1111001 m"
b100 )"
b11100101 &"
b10 a
0Q
12
01
#1690000000
02
#1700000000
b11 a
1Q
b101 )"
b11001011 &"
b101 p"
b11110010 m"
b101 _"
12
#1710000000
02
#1720000000
b110 _"
b110 p"
b11100101 m"
b110 )"
b10010111 &"
b100 a
12
#1730000000
02
#1740000000
b101 a
b111 )"
b101111 &"
b111 p"
b11001011 m"
b111 _"
0P
12
#1750000000
02
#1760000000
b0 _"
b0 p"
b10010111 m"
b0 )"
b1011110 &"
b110 a
1%"
1O"
1/"
12
11
03
#1770000000
02
#1780000000
b111 a
0Q
b1 )"
b10111100 &"
b1 p"
b101111 m"
b1 `"
12
#1790000000
02
#1800000000
b10 `"
b10 p"
b101111 n"
b1011110 m"
b10 )"
b1111000 &"
b0 a
12
#1810000000
02
#1820000000
b1 a
1Q
b11 )"
b11110000 &"
b11 p"
b10111100 m"
b11 `"
12
#1830000000
02
#1840000000
b100 `"
b100 p"
b10 q"
b1111001 m"
b100 )"
b11100000 &"
b10 a
0Q
12
01
#1850000000
02
#1860000000
b11 a
1Q
b101 )"
b11000000 &"
b101 p"
b11110010 m"
b101 `"
12
#1870000000
02
#1880000000
b110 `"
b110 p"
b11100101 m"
b110 )"
b10000000 &"
b100 a
12
#1890000000
02
#1900000000
b101 a
b111 )"
b0 &"
b111 p"
b11001011 m"
b111 `"
12
#1910000000
02
#1920000000
b0 `"
b0 p"
b10010111 m"
b0 )"
b110 a
0O"
0%"
0Y"
0]"
0v
0{
b11111111 4
b11111111 C
b11111111 G
b11111111 ."
b11111111 d"
b1 5
b1 B
b1 F
b1 -"
b1 c"
b11 6
b11 A
b11 E
b11 ,"
b11 b"
b11110000 7
b11110000 @
b11110000 D
b11110000 +"
b11110000 a"
12
11
13
10
#1930000000
02
#1940000000
b111 a
0Q
b1 )"
b1 p"
b101111 m"
b1 `"
12
#1950000000
02
#1960000000
b10 `"
b10 p"
b1011110 m"
b10 )"
b0 '"
1Z
b0 a
12
#1970000000
02
#1980000000
b1 a
1Q
b11 )"
b11 p"
b10111100 m"
b11 `"
12
#1990000000
02
#2000000000
b100 `"
b100 p"
b11 q"
b1111001 m"
b100 )"
b10 a
0Q
12
01
#2010000000
02
#2020000000
b11 a
1Q
b101 )"
b101 p"
b11110010 m"
b101 `"
12
#2030000000
02
#2040000000
b110 `"
b110 p"
b11100101 m"
b110 )"
b100 a
12
#2050000000
02
#2060000000
b101 a
b111 )"
b111 p"
b11001011 m"
b111 `"
12
#2070000000
02
#2080000000
b0 `"
b0 p"
b10010111 m"
b0 )"
b110 a
1d
1%"
1O"
12
11
03
#2090000000
02
#2100000000
b111 a
0Q
b1 )"
b1 p"
b101111 m"
b1 `"
12
#2110000000
02
#2120000000
b10 `"
b10 p"
b1011110 m"
b10 )"
b0 a
12
#2130000000
02
#2140000000
b1 a
1Q
b11 )"
b11 p"
b10111100 m"
b11 `"
12
#2150000000
02
#2160000000
b100 `"
b100 p"
b100 q"
b1111001 m"
b100 )"
b10 a
0Q
12
01
#2170000000
02
#2180000000
b11 a
1Q
b101 )"
b101 p"
b11110010 m"
b101 `"
12
#2190000000
02
#2200000000
b110 `"
b110 p"
b11100101 m"
b110 )"
b100 a
12
#2210000000
02
#2220000000
b101 a
b111 )"
b111 p"
b11001011 m"
b111 `"
12
#2230000000
02
#2240000000
b0 `"
b0 p"
b10010111 m"
b0 )"
b110 a
0O"
1c
0%"
1{
1O
1v
1]"
1Y"
12
11
13
00
#2250000000
02
#2260000000
b111 a
0Q
b1 )"
b1 p"
b101111 m"
b1 `"
12
#2270000000
02
#2280000000
b10 `"
b10 p"
b101111 8"
b101111 o"
1;"
19"
b1011110 m"
b10 )"
b0 a
12
#2290000000
02
#2300000000
b1 a
1Q
b11 )"
b11 p"
b10111100 m"
b11 `"
12
#2310000000
02
#2320000000
b100 `"
b100 p"
b1111001 m"
b100 )"
b10 a
0Q
12
01
#2330000000
02
#2340000000
b11 a
1Q
b101 )"
b101 p"
b11110010 m"
b101 `"
12
#2350000000
02
#2360000000
b110 `"
b110 p"
b11100101 m"
b110 )"
b100 a
12
#2370000000
02
#2380000000
b101 a
b111 )"
b111 p"
b11001011 m"
b111 `"
12
#2390000000
02
#2400000000
b0 `"
b0 p"
b10010111 m"
b0 )"
b110 a
1%"
1O"
12
11
03
#2410000000
02
#2420000000
b111 a
0Q
b1 )"
b1 p"
b101111 m"
b1 `"
12
#2430000000
02
#2440000000
b10 `"
b10 p"
b1011110 m"
b10 )"
b0 a
12
#2450000000
02
#2460000000
b1 a
1Q
b11 )"
b11 p"
b10111100 m"
b11 `"
12
#2470000000
02
#2480000000
b100 `"
b100 p"
b1111001 m"
b100 )"
b10 a
0Q
12
01
#2490000000
02
#2500000000
b11 a
1Q
b101 )"
b101 p"
b11110010 m"
b101 `"
12
#2510000000
02
#2520000000
b110 `"
b110 p"
b11100101 m"
b110 )"
b100 a
12
#2530000000
02
#2540000000
b101 a
b111 )"
b111 p"
b11001011 m"
b111 `"
12
#2550000000
02
#2560000000
b0 `"
b0 p"
b10010111 m"
b0 )"
b110 a
0O"
0%"
0Y"
0]"
1N
0v
1L
0{
b0 4
b0 C
b0 G
b0 ."
b0 d"
b10 5
b10 B
b10 F
b10 -"
b10 c"
b100 6
b100 A
b100 E
b100 ,"
b100 b"
b11110001 7
b11110001 @
b11110001 D
b11110001 +"
b11110001 a"
b11111111 <"
b11111111 E"
b11111111 R"
b11111111 Z"
b11111111 h"
b1 ="
b1 F"
b1 S"
b1 ["
b1 g"
b11 >"
b11 G"
b11 T"
b11 V"
b11 f"
b11110000 ?"
b11110000 H"
b11110000 U"
b11110000 W"
b11110000 e"
12
11
13
10
#2570000000
02
