paralelo/paraleloserial.vcd
$date
	Mon Jun  7 14:23:55 2021
$end
$version
	Icarus Verilog
$end
$timescale
	100ps
$end
$scope module banco_paralelo_serial $end
$var wire 1 ! valid_in $end
$var wire 1 " reset $end
$var wire 1 # out_serial_estructural $end
$var wire 1 $ out_serial_conductual $end
$var wire 8 % in_serial [7:0] $end
$var wire 1 & clk_4f $end
$var wire 1 ' clk_32f $end
$scope module estructural $end
$var wire 1 ( _005_ $end
$var wire 1 ) _006_ $end
$var wire 1 * _007_ $end
$var wire 1 + _008_ $end
$var wire 1 , _009_ $end
$var wire 1 - _010_ $end
$var wire 1 . _011_ $end
$var wire 1 / _012_ $end
$var wire 1 0 _013_ $end
$var wire 1 1 _014_ $end
$var wire 1 2 _016_ $end
$var wire 1 3 _021_ $end
$var wire 1 4 _022_ $end
$var wire 1 5 _023_ $end
$var wire 1 6 _026_ $end
$var wire 1 7 _027_ $end
$var wire 1 8 _028_ $end
$var wire 1 9 _029_ $end
$var wire 1 : _030_ $end
$var wire 1 ; _031_ $end
$var wire 1 < _032_ $end
$var wire 1 = _033_ $end
$var wire 1 > _034_ $end
$var wire 1 ? _035_ $end
$var wire 1 @ _036_ $end
$var wire 1 A _037_ $end
$var wire 1 B _038_ $end
$var wire 1 C _039_ $end
$var wire 1 D _041_ $end
$var wire 1 E _042_ $end
$var wire 1 F _043_ $end
$var wire 1 G _044_ $end
$var wire 1 H _045_ $end
$var wire 1 I _046_ $end
$var wire 1 J _047_ $end
$var wire 1 K _048_ $end
$var wire 1 L _050_ $end
$var wire 1 M _052_ $end
$var wire 1 N _053_ $end
$var wire 1 O _054_ $end
$var wire 1 P _055_ $end
$var wire 1 Q _056_ $end
$var wire 1 R _057_ $end
$var wire 1 S _058_ $end
$var wire 1 T _059_ $end
$var wire 1 U _065_ $end
$var wire 1 V _066_ $end
$var wire 1 ! valid_in $end
$var wire 1 " reset $end
$var wire 8 W in_serial [7:0] $end
$var wire 1 & clk_4f $end
$var wire 1 ' clk_32f $end
$var wire 32 X _064_ [31:0] $end
$var wire 32 Y _063_ [31:0] $end
$var wire 3 Z _062_ [2:0] $end
$var wire 3 [ _061_ [2:0] $end
$var wire 1 \ _060_ $end
$var wire 1 ] _051_ $end
$var wire 8 ^ _049_ [7:0] $end
$var wire 1 _ _040_ $end
$var wire 3 ` _025_ [2:0] $end
$var wire 3 a _024_ [2:0] $end
$var wire 2 b _020_ [1:0] $end
$var wire 4 c _019_ [3:0] $end
$var wire 2 d _018_ [1:0] $end
$var wire 4 e _017_ [3:0] $end
$var wire 2 f _015_ [1:0] $end
$var wire 32 g _004_ [31:0] $end
$var wire 32 h _003_ [31:0] $end
$var wire 3 i _002_ [2:0] $end
$var wire 3 j _001_ [2:0] $end
$var wire 1 k _000_ $end
$var reg 1 # out_serial_estructural $end
$var reg 3 l selector [2:0] $end
$var reg 3 m selector_2 [2:0] $end
$upscope $end
$scope module p_s $end
$var wire 1 ! valid_in $end
$var wire 1 " reset $end
$var wire 8 n in_serial [7:0] $end
$var wire 1 & clk_4f $end
$var wire 1 ' clk_32f $end
$var reg 1 $ out_serial_conductual $end
$var reg 3 o selector [2:0] $end
$var reg 3 p selector_2 [2:0] $end
$upscope $end
$scope module prob_paralelo_serial $end
$var wire 1 $ out_serial_conductual $end
$var wire 1 # out_serial_estructural $end
$var reg 1 ' clk_32f $end
$var reg 1 & clk_4f $end
$var reg 8 q in_serial [7:0] $end
$var reg 1 " reset $end
$var reg 1 ! valid_in $end
$upscope $end
$upscope $end
$enddefinitions $end
#0
$dumpvars
b0 q
b0 p
b0 o
b0 n
b0 m
b0 l
0k
b0 j
b0 i
b0z001 h
b0z001 g
b1 f
b0 e
b0 d
b1000 c
b10 b
b111 a
b111 `
1_
b0 ^
0]
1\
b0 [
b1 Z
b0z00 Y
b0z00 X
b0 W
1V
1U
1T
0S
0R
0Q
0P
0O
0N
0M
0L
1K
0J
0I
0H
0G
0F
0E
0D
1C
1B
1A
1@
1?
1>
1=
1<
1;
1:
19
18
17
16
05
04
03
12
01
10
1/
1.
0-
1,
1+
1*
1)
0(
1'
1&
b0 %
0$
0#
0"
0!
$end
#10000000
0'
#20000000
1'
#30000000
0'
#40000000
1'
#50000000
0'
#60000000
1'
#70000000
0'
#80000000
1'
0&
#90000000
0'
#100000000
1'
#110000000
0'
#120000000
1'
#130000000
0'
#140000000
1'
#150000000
0'
#160000000
1]
1L
b10 d
b1000 e
b10000000 ^
1k
b1 j
1"
b11001100 %
b11001100 W
b11001100 n
b11001100 q
1'
1&
#170000000
0'
#180000000
0k
0\
0_
0)
1(
02
13
1J
b10 j
b0 f
0<
0K
0,
b10 Z
14
b110 a
1-
b0z010 g
b0z01 X
1#
b1 l
b1 o
1$
1'
#190000000
0'
#200000000
1k
1)
1\
12
1_
1U
b1 f
b11 j
0(
1I
03
0;
b11 Z
0J
0+
1<
b0z011 g
b0z00 X
1,
b101 a
b10 o
0$
b10 l
0#
1'
#210000000
0'
#220000000
1k
1\
1U
1_
1)
12
1H
b100 j
b10 f
0:
0I
0*
b100 Z
1;
b100 a
1+
b0z100 g
b0z11 X
1#
b11 l
b11 o
1$
1'
#230000000
0'
#240000000
1k
1\
1_
1)
12
0(
b101 j
03
0D
0E
0F
1G
1*
b10 f
16
b101 Z
17
18
09
0H
1+
1,
0-
b0z00 X
1:
b11 a
b0z101 g
b100 o
b100 l
1'
0&
#250000000
0'
#260000000
02
1F
b110 j
b0 f
08
0G
0,
b110 Z
19
b10 a
1-
b0z110 g
b0z01 X
b101 l
b101 o
1'
#270000000
0'
#280000000
0k
1(
0\
13
b111 j
1U
0_
1E
0)
07
b111 Z
0F
0+
18
b0z111 g
b0z00 X
1,
b1 a
b110 o
b110 l
1'
#290000000
0'
#300000000
1D
b0 j
03
06
0E
0*
b0 Z
17
b0 a
1+
b0z000 g
b0z11 X
0#
b111 l
b111 o
0$
1'
#310000000
0'
#320000000
0(
1_
1)
12
03
0D
0I
0J
1K
1*
b1 f
16
1;
1<
04
0H
b1 i
1+
1,
0-
b0z00 X
1:
b111 a
b0z001 g
1k
b1 [
1\
b0 o
b0 l
b10101011 %
b10101011 W
b10101011 n
b10101011 q
1!
1'
1&
#330000000
0'
#340000000
0k
0L
0\
0]
b0 d
1V
b0 e
b10 b
1S
b10 i
b0 ^
b1000 c
0C
0T
00
b10 [
15
b110 `
11
b0z010 h
b0z01 Y
1#
b1 m
b1 p
1$
1'
#350000000
0'
#360000000
1L
1k
1\
b10 d
1]
1V
b100 e
b10 b
b100000 ^
b11 i
1R
b100 c
0B
b11 [
0S
0/
1C
b0z011 h
b0z00 Y
10
b101 `
b10 p
0$
b10 m
0#
1'
#370000000
0'
#380000000
0k
0L
0\
0]
b0 d
1V
b0 e
b10 b
1Q
b100 i
b0 ^
b100 c
0A
0R
0.
b100 [
1B
b100 `
1/
b0z100 h
b0z11 Y
1#
b11 m
b11 p
1$
1'
#390000000
0'
#400000000
1L
1k
1\
b1 d
1]
1V
b10 e
b1 b
b101 i
b1000 ^
0M
0N
0O
1P
1.
b10 c
1=
b101 [
1>
1?
0@
0Q
1/
10
01
b0z00 Y
1A
b11 `
b0z101 h
b100 p
0$
b100 m
0#
1'
0&
#410000000
0'
#420000000
0k
0L
0\
0]
b0 d
1V
b0 e
b1 b
1O
b110 i
b0 ^
b10 c
0?
0P
00
b110 [
1@
b10 `
11
b0z110 h
b0z01 Y
1#
b101 m
b101 p
1$
1'
#430000000
0'
#440000000
1L
1k
1\
b1 d
1]
1V
b1 e
b1 b
b10 ^
b111 i
1N
b1 c
0>
b111 [
0O
0/
1?
b0z111 h
b0z00 Y
10
b1 `
b110 p
0$
b110 m
0#
1'
#450000000
0'
#460000000
1k
1L
1\
1]
b1 d
1V
b1 e
b1 b
1M
b0 i
b1 ^
b1 c
0=
0N
0.
b0 [
1>
b0 `
1/
b0z000 h
b0z11 Y
1#
b111 m
b111 p
1$
1'
#470000000
0'
#480000000
1k
1\
1]
1L
b10 b
b1 i
b10 d
0M
0R
0S
1T
1.
b1000 c
1=
b1 [
b1000 e
1B
1C
05
0Q
1/
10
01
b0z00 Y
1A
b111 `
b0z001 h
b10000000 ^
b0 p
b0 m
b11001010 %
b11001010 W
b11001010 n
b11001010 q
1'
1&
#490000000
0'
#500000000
1k
1L
1\
1]
b10 d
1V
b1000 e
b10 b
1S
b10 i
b1000000 ^
b1000 c
0C
0T
00
b10 [
15
b110 `
11
b0z010 h
b0z01 Y
b1 m
b1 p
1'
#510000000
0'
#520000000
0k
0L
0\
0]
b0 d
1V
b0 e
b10 b
b11 i
1R
b0 ^
b100 c
0B
b11 [
0S
0/
1C
b0z011 h
b0z00 Y
10
b101 `
b10 p
b10 m
1'
#530000000
0'
#540000000
0k
0\
0]
1V
b10 b
1Q
b100 i
b100 c
0A
0R
0.
b100 [
1B
b100 `
1/
b0z100 h
b0z11 Y
0#
b11 m
b11 p
0$
1'
#550000000
0'
#560000000
1L
1k
1\
b1 d
1]
1V
b10 e
b1 b
b101 i
b1000 ^
0M
0N
0O
1P
1.
b10 c
1=
b101 [
1>
1?
0@
0Q
1/
10
01
b0z00 Y
1A
b11 `
b0z101 h
b100 p
b100 m
1'
0&
#570000000
0'
#580000000
0k
0L
0\
0]
b0 d
1V
b0 e
b1 b
1O
b110 i
b0 ^
b10 c
0?
0P
00
b110 [
1@
b10 `
11
b0z110 h
b0z01 Y
1#
b101 m
b101 p
1$
1'
#590000000
0'
#600000000
1L
1k
1\
b1 d
1]
1V
b1 e
b1 b
b10 ^
b111 i
1N
b1 c
0>
b111 [
0O
0/
1?
b0z111 h
b0z00 Y
10
b1 `
b110 p
0$
b110 m
0#
1'
#610000000
0'
#620000000
0k
0L
0\
0]
b0 d
1V
b0 e
b1 b
1M
b0 i
b0 ^
b1 c
0=
0N
0.
b0 [
1>
b0 `
1/
b0z000 h
b0z11 Y
1#
b111 m
b111 p
1$
1'
#630000000
0'
#640000000
0k
0\
0]
0L
b0 d
b0 e
b10 b
b1 i
0M
0R
0S
1T
1.
b0 ^
b1000 c
1=
b1 [
1B
1C
05
0Q
1/
10
01
b0z00 Y
1A
b111 `
b0z001 h
b0 p
0$
b0 m
0#
b10010 %
b10010 W
b10010 n
b10010 q
1'
1&
#650000000
0'
#660000000
0k
0\
0]
1V
b10 b
1S
b10 i
b1000 c
0C
0T
00
b10 [
15
b110 `
11
b0z010 h
b0z01 Y
b1 m
b1 p
1'
#670000000
0'
#680000000
0k
0\
0]
1V
b10 b
b11 i
1R
b100 c
0B
b11 [
0S
0/
1C
b0z011 h
b0z00 Y
10
b101 `
b10 p
b10 m
1'
#690000000
0'
#700000000
1L
1k
1\
b10 d
1]
1V
b100 e
b10 b
b10000 ^
1Q
b100 i
b100 c
0A
0R
0.
b100 [
1B
b100 `
1/
b0z100 h
b0z11 Y
b11 m
b11 p
1'
#710000000
0'
#720000000
0k
0L
0\
0]
b0 d
1V
b0 e
b1 b
b101 i
0M
0N
0O
1P
1.
b0 ^
b10 c
1=
b101 [
1>
1?
0@
0Q
1/
10
01
b0z00 Y
1A
b11 `
b0z101 h
b100 p
1$
b100 m
1#
1'
0&
#730000000
0'
#740000000
0k
0\
0]
1V
b1 b
1O
b110 i
b10 c
0?
0P
00
b110 [
1@
b10 `
11
b0z110 h
b0z01 Y
0#
b101 m
b101 p
0$
1'
#750000000
0'
#760000000
1L
1k
1\
b1 d
1]
1V
b1 e
b1 b
b10 ^
b111 i
1N
b1 c
0>
b111 [
0O
0/
1?
b0z111 h
b0z00 Y
10
b1 `
b110 p
b110 m
1'
#770000000
0'
#780000000
0k
0L
0\
0]
b0 d
1V
b0 e
b1 b
1M
b0 i
b0 ^
b1 c
0=
0N
0.
b0 [
1>
b0 `
1/
b0z000 h
b0z11 Y
1#
b111 m
b111 p
1$
1'
#790000000
0'
#800000000
1]
1L
b10 d
b1000 e
b10 b
0M
0R
0S
1T
1.
b10000000 ^
b1000 c
1=
1B
1C
05
0Q
b1 j
1/
10
01
b0z00 Y
1A
b111 `
b0z001 h
1k
b1 Z
1\
b0 p
0$
b0 m
0#
b11011100 %
b11011100 W
b11011100 n
b11011100 q
0!
1'
1&
#810000000
0'
#820000000
0k
0\
0_
0)
1(
02
13
1J
b10 j
b0 f
0<
0K
0,
b10 Z
14
b110 a
1-
b0z010 g
b0z01 X
1#
b1 l
b1 o
1$
1'
#830000000
0'
#840000000
1k
1)
1\
12
1_
1U
b1 f
b11 j
0(
1I
03
0;
b11 Z
0J
0+
1<
b0z011 g
b0z00 X
1,
b101 a
b10 o
0$
b10 l
0#
1'
#850000000
0'
#860000000
1k
1\
1U
1_
1)
12
1H
b100 j
b10 f
0:
0I
0*
b100 Z
1;
b100 a
1+
b0z100 g
b0z11 X
1#
b11 l
b11 o
1$
1'
#870000000
0'
#880000000
1k
1\
1_
1)
12
0(
b101 j
03
0D
0E
0F
1G
1*
b10 f
16
b101 Z
17
18
09
0H
1+
1,
0-
b0z00 X
1:
b11 a
b0z101 g
b100 o
b100 l
1'
0&
#890000000
0'
#900000000
02
1F
b110 j
b0 f
08
0G
0,
b110 Z
19
b10 a
1-
b0z110 g
b0z01 X
b101 l
b101 o
1'
#910000000
0'
#920000000
0k
1(
0\
13
b111 j
1U
0_
1E
0)
07
b111 Z
0F
0+
18
b0z111 g
b0z00 X
1,
b1 a
b110 o
b110 l
1'
#930000000
0'
#940000000
1D
b0 j
03
06
0E
0*
b0 Z
17
b0 a
1+
b0z000 g
b0z11 X
0#
b111 l
b111 o
0$
1'
#950000000
0'
#960000000
0(
1_
1)
12
03
0D
0I
0J
1K
1*
b1 f
16
1;
1<
04
0H
b1 i
1+
1,
0-
b0z00 X
1:
b111 a
b0z001 g
1k
b1 [
1\
b0 o
b0 l
b11111010 %
b11111010 W
b11111010 n
b11111010 q
1!
1'
1&
#970000000
0'
#980000000
1k
1L
1\
1]
b10 d
1V
b1000 e
b10 b
1S
b10 i
b1000000 ^
b1000 c
0C
0T
00
b10 [
15
b110 `
11
b0z010 h
b0z01 Y
1#
b1 m
b1 p
1$
1'
#990000000
0'
#1000000000
1k
1L
1\
1]
b10 d
1V
b100 e
b10 b
b11 i
1R
b100000 ^
b100 c
0B
b11 [
0S
0/
1C
b0z011 h
b0z00 Y
10
b101 `
b10 p
b10 m
1'
#1010000000
0'
#1020000000
1k
1L
1\
1]
b10 d
1V
b100 e
b10 b
1Q
b100 i
b10000 ^
b100 c
0A
0R
0.
b100 [
1B
b100 `
1/
b0z100 h
b0z11 Y
b11 m
b11 p
1'
#1030000000
0'
#1040000000
1k
1L
1\
1]
b1 d
1V
b10 e
b1 b
b101 i
0M
0N
0O
1P
1.
b1000 ^
b10 c
1=
b101 [
1>
1?
0@
0Q
1/
10
01
b0z00 Y
1A
b11 `
b0z101 h
b100 p
b100 m
1'
0&
#1050000000
0'
#1060000000
0k
0L
0\
0]
b0 d
1V
b0 e
b1 b
1O
b110 i
b0 ^
b10 c
0?
0P
00
b110 [
1@
b10 `
11
b0z110 h
b0z01 Y
b101 m
b101 p
1'
#1070000000
0'
#1080000000
1L
1k
1\
b1 d
1]
1V
b1 e
b1 b
b10 ^
b111 i
1N
b1 c
0>
b111 [
0O
0/
1?
b0z111 h
b0z00 Y
10
b1 `
b110 p
0$
b110 m
0#
1'
#1090000000
0'
#1100000000
0k
0L
0\
0]
b0 d
1V
b0 e
b1 b
1M
b0 i
b0 ^
b1 c
0=
0N
0.
b0 [
1>
b0 `
1/
b0z000 h
b0z11 Y
1#
b111 m
b111 p
1$
1'
#1110000000
0'
#1120000000
0k
0\
0]
0L
b10 b
b1 i
b0 d
0M
0R
0S
1T
1.
b1000 c
1=
b1 [
b0 e
1B
1C
05
0Q
1/
10
01
b0z00 Y
1A
b111 `
b0z001 h
b0 ^
b0 p
0$
b0 m
0#
b110011 %
b110011 W
b110011 n
b110011 q
1'
1&
#1130000000
0'
#1140000000
0k
0\
0]
1V
b10 b
1S
b10 i
b1000 c
0C
0T
00
b10 [
15
b110 `
11
b0z010 h
b0z01 Y
b1 m
b1 p
1'
#1150000000
0'
#1160000000
1L
1k
1\
b10 d
1]
1V
b100 e
b10 b
b100000 ^
b11 i
1R
b100 c
0B
b11 [
0S
0/
1C
b0z011 h
b0z00 Y
10
b101 `
b10 p
b10 m
1'
#1170000000
0'
#1180000000
1k
1L
1\
1]
b10 d
1V
b100 e
b10 b
1Q
b100 i
b10000 ^
b100 c
0A
0R
0.
b100 [
1B
b100 `
1/
b0z100 h
b0z11 Y
1#
b11 m
b11 p
1$
1'
#1190000000
0'
#1200000000
0k
0L
0\
0]
b0 d
1V
b0 e
b1 b
b101 i
0M
0N
0O
1P
1.
b0 ^
b10 c
1=
b101 [
1>
1?
0@
0Q
1/
10
01
b0z00 Y
1A
b11 `
b0z101 h
b100 p
b100 m
1'
0&
#1210000000
0'
#1220000000
0k
0\
0]
1V
b1 b
1O
b110 i
b10 c
0?
0P
00
b110 [
1@
b10 `
11
b0z110 h
b0z01 Y
0#
b101 m
b101 p
0$
1'
#1230000000
0'
#1240000000
1L
1k
1\
b1 d
1]
1V
b1 e
b1 b
b10 ^
b111 i
1N
b1 c
0>
b111 [
0O
0/
1?
b0z111 h
b0z00 Y
10
b1 `
b110 p
b110 m
1'
#1250000000
0'
#1260000000
1k
1L
1\
1]
b1 d
1V
b1 e
b1 b
1M
b0 i
b1 ^
b1 c
0=
0N
0.
b0 [
1>
b0 `
1/
b0z000 h
b0z11 Y
1#
b111 m
b111 p
1$
1'
#1270000000
0'
#1280000000
0k
0\
0]
0L
b0 d
b0 e
b10 b
b1 i
0M
0R
0S
1T
1.
b0 ^
b1000 c
1=
b1 [
1B
1C
05
0Q
1/
10
01
b0z00 Y
1A
b111 `
b0z001 h
b0 p
b0 m
1'
1&
