phy/phy_conductual/PHY.vcd
$date
	Sat Jun 12 15:23:15 2021
$end
$version
	Icarus Verilog
$end
$timescale
	100ps
$end
$scope module BancoPruebas $end
$var wire 1 ! validIn_3 $end
$var wire 1 " validIn_2 $end
$var wire 1 # validIn_1 $end
$var wire 1 $ validIn_0 $end
$var wire 1 % reset $end
$var wire 8 & out3_rx [7:0] $end
$var wire 8 ' out2_rx [7:0] $end
$var wire 8 ( out1_rx [7:0] $end
$var wire 8 ) out0_rx [7:0] $end
$var wire 1 * clk_f $end
$var wire 1 + clk_4f $end
$var wire 1 , clk_32f $end
$var wire 1 - clk_2f $end
$var wire 8 . In_3 [7:0] $end
$var wire 8 / In_2 [7:0] $end
$var wire 8 0 In_1 [7:0] $end
$var wire 8 1 In_0 [7:0] $end
$scope module Probador $end
$var wire 8 2 out3_rx [7:0] $end
$var wire 8 3 out2_rx [7:0] $end
$var wire 8 4 out1_rx [7:0] $end
$var wire 8 5 out0_rx [7:0] $end
$var reg 1 - clk_2f $end
$var reg 1 , clk_32f $end
$var reg 1 + clk_4f $end
$var reg 1 * clk_f $end
$var reg 8 6 data_in0 [7:0] $end
$var reg 8 7 data_in1 [7:0] $end
$var reg 8 8 data_in2 [7:0] $end
$var reg 8 9 data_in3 [7:0] $end
$var reg 1 % reset $end
$var reg 1 $ valid0 $end
$var reg 1 # valid1 $end
$var reg 1 " valid2 $end
$var reg 1 ! valid3 $end
$upscope $end
$scope module phy_general $end
$var wire 1 - clk_2f $end
$var wire 1 , clk_32f $end
$var wire 1 + clk_4f $end
$var wire 1 * clk_f $end
$var wire 8 : in0_tx [7:0] $end
$var wire 8 ; in1_tx [7:0] $end
$var wire 8 < in2_tx [7:0] $end
$var wire 8 = in3_tx [7:0] $end
$var wire 1 % reset $end
$var wire 1 $ valid_in0_tx $end
$var wire 1 # valid_in1_tx $end
$var wire 1 " valid_in2_tx $end
$var wire 1 ! valid_in3_tx $end
$var wire 1 > valid_out0_tx $end
$var wire 1 ? valid_out1_tx $end
$var wire 1 @ valid_out2_tx $end
$var wire 1 A valid_out3_tx $end
$var wire 1 B valid_out3_rx $end
$var wire 1 C valid_out2_rx $end
$var wire 1 D valid_out1_rx $end
$var wire 1 E valid_out0_rx $end
$var wire 1 F out_tx $end
$var wire 1 G out_rx $end
$var wire 8 H out3_tx [7:0] $end
$var wire 8 I out3_rx [7:0] $end
$var wire 8 J out2_tx [7:0] $end
$var wire 8 K out2_rx [7:0] $end
$var wire 8 L out1_tx [7:0] $end
$var wire 8 M out1_rx [7:0] $end
$var wire 8 N out0_tx [7:0] $end
$var wire 8 O out0_rx [7:0] $end
$scope module receptor $end
$var wire 1 - clk_2f $end
$var wire 1 , clk_32f $end
$var wire 1 + clk_4f $end
$var wire 1 * clk_f $end
$var wire 1 % reset $end
$var wire 1 P valid_serial_paraleloRX $end
$var wire 1 B valid_datademuxL23 $end
$var wire 1 C valid_datademuxL22 $end
$var wire 1 D valid_datademuxL21 $end
$var wire 1 E valid_datademuxL20 $end
$var wire 1 G out_serial2_conductual $end
$var wire 8 Q out3 [7:0] $end
$var wire 8 R out2 [7:0] $end
$var wire 8 S out1 [7:0] $end
$var wire 8 T out0 [7:0] $end
$var wire 8 U data_serial_paraleloRX [7:0] $end
$var wire 1 F data_in $end
$var wire 1 V active_serial_paraleloRX $end
$scope module Paralelo $end
$var wire 1 , clk_32f $end
$var wire 1 + clk_4f $end
$var wire 1 V active $end
$var reg 1 G out_serial2_conductual $end
$var reg 3 W selector [2:0] $end
$var reg 3 X selector_2 [2:0] $end
$upscope $end
$scope module demuxes $end
$var wire 1 - clk_2f $end
$var wire 1 , clk_32f $end
$var wire 1 + clk_4f $end
$var wire 1 * clk_f $end
$var wire 1 % reset $end
$var wire 1 B validsalida3 $end
$var wire 1 C validsalida2 $end
$var wire 1 Y validsalida1L1 $end
$var wire 1 D validsalida1 $end
$var wire 1 Z validsalida0L1 $end
$var wire 1 E validsalida0 $end
$var wire 1 P validEntrada $end
$var wire 8 [ Salida3 [7:0] $end
$var wire 8 \ Salida2 [7:0] $end
$var wire 8 ] Salida1 [7:0] $end
$var wire 8 ^ Salida0 [7:0] $end
$var wire 8 _ Entrada1 [7:0] $end
$var wire 8 ` Entrada0 [7:0] $end
$var wire 8 a Entrada [7:0] $end
$scope module demuxitl1 $end
$var wire 1 - clk_f $end
$var wire 1 % reset $end
$var wire 1 B validsalida3 $end
$var wire 1 C validsalida2 $end
$var wire 1 D validsalida1 $end
$var wire 1 E validsalida0 $end
$var wire 1 Y validEntrada1 $end
$var wire 1 Z validEntrada0 $end
$var wire 8 b Salida3 [7:0] $end
$var wire 8 c Salida2 [7:0] $end
$var wire 8 d Salida1 [7:0] $end
$var wire 8 e Salida0 [7:0] $end
$var wire 8 f Entrada1 [7:0] $end
$var wire 8 g Entrada0 [7:0] $end
$scope module demuxL11 $end
$var wire 1 - clk $end
$var wire 1 h clk_2f $end
$var wire 1 % reset $end
$var wire 1 Z validEntrada $end
$var wire 8 i Entrada [7:0] $end
$var reg 8 j Salida_conductual0 [7:0] $end
$var reg 8 k Salida_conductual1 [7:0] $end
$var reg 1 l selector $end
$var reg 1 E validsalida0 $end
$var reg 1 D validsalida1 $end
$upscope $end
$scope module demuxL12 $end
$var wire 1 - clk $end
$var wire 1 m clk_2f $end
$var wire 1 % reset $end
$var wire 1 Y validEntrada $end
$var wire 8 n Entrada [7:0] $end
$var reg 8 o Salida_conductual0 [7:0] $end
$var reg 8 p Salida_conductual1 [7:0] $end
$var reg 1 q selector $end
$var reg 1 C validsalida0 $end
$var reg 1 B validsalida1 $end
$upscope $end
$upscope $end
$scope module demuxitoL2 $end
$var wire 1 - clk_2f $end
$var wire 1 , clk_32f $end
$var wire 1 + clk_4f $end
$var wire 1 % reset $end
$var wire 1 Y validsalida1 $end
$var wire 1 Z validsalida0 $end
$var wire 1 P validEntrada $end
$var wire 8 r Salida_conductual1 [7:0] $end
$var wire 8 s Salida_conductual0 [7:0] $end
$var wire 8 t Entrada [7:0] $end
$scope module demux1 $end
$var wire 1 + clk $end
$var wire 1 u clk_2f $end
$var wire 1 % reset $end
$var wire 1 P validEntrada $end
$var wire 8 v Entrada [7:0] $end
$var reg 8 w Salida_conductual0 [7:0] $end
$var reg 8 x Salida_conductual1 [7:0] $end
$var reg 1 y selector $end
$var reg 1 Z validsalida0 $end
$var reg 1 Y validsalida1 $end
$upscope $end
$upscope $end
$upscope $end
$scope module serialparalelo $end
$var wire 1 , clk_32f $end
$var wire 1 + clk_4f $end
$var wire 1 % reset $end
$var wire 1 F data_in $end
$var reg 1 V active_serial_paraleloRX $end
$var reg 8 z buffer [7:0] $end
$var reg 8 { buffer_pasado [7:0] $end
$var reg 8 | data_serial_paraleloRX [7:0] $end
$var reg 1 P valid_serial_paraleloRX $end
$var integer 32 } contador [31:0] $end
$var integer 32 ~ contador_BC [31:0] $end
$upscope $end
$upscope $end
$scope module transmisor $end
$var wire 1 - clk_2f $end
$var wire 1 , clk_32f $end
$var wire 1 + clk_4f $end
$var wire 1 * clk_f $end
$var wire 8 !" data_in0 [7:0] $end
$var wire 8 "" data_in1 [7:0] $end
$var wire 8 #" data_in2 [7:0] $end
$var wire 8 $" data_in3 [7:0] $end
$var wire 1 G in_from_rx $end
$var wire 1 % reset $end
$var wire 1 $ valid0 $end
$var wire 1 # valid1 $end
$var wire 1 " valid2 $end
$var wire 1 ! valid3 $end
$var wire 1 %" validsalida $end
$var wire 1 &" valid_out_recirculador3 $end
$var wire 1 '" valid_out_recirculador2 $end
$var wire 1 (" valid_out_recirculador1 $end
$var wire 1 )" valid_out_recirculador0 $end
$var wire 8 *" recirculador_desactivado3 [7:0] $end
$var wire 8 +" recirculador_desactivado2 [7:0] $end
$var wire 8 ," recirculador_desactivado1 [7:0] $end
$var wire 8 -" recirculador_desactivado0 [7:0] $end
$var wire 1 F out_to_rx $end
$var wire 8 ." data_serial_paraleloRX [7:0] $end
$var wire 1 /" active $end
$var wire 8 0" Salida_conductual [7:0] $end
$var wire 1 1" IDLEOut $end
$var wire 8 2" Entrada3 [7:0] $end
$var wire 8 3" Entrada2 [7:0] $end
$var wire 8 4" Entrada1 [7:0] $end
$var wire 8 5" Entrada0 [7:0] $end
$scope module muxess $end
$var wire 1 - clk_2f $end
$var wire 1 + clk_4f $end
$var wire 1 * clk_f $end
$var wire 1 % reset $end
$var wire 1 6" validsalida1 $end
$var wire 1 7" validsalida0 $end
$var wire 1 %" validsalida $end
$var wire 1 &" validEntrada3 $end
$var wire 1 '" validEntrada2 $end
$var wire 1 (" validEntrada1 $end
$var wire 1 )" validEntrada0 $end
$var wire 8 8" Salida_conductual [7:0] $end
$var wire 8 9" Salida1 [7:0] $end
$var wire 8 :" Salida0 [7:0] $end
$var wire 8 ;" Entrada3 [7:0] $end
$var wire 8 <" Entrada2 [7:0] $end
$var wire 8 =" Entrada1 [7:0] $end
$var wire 8 >" Entrada0 [7:0] $end
$scope module muxitol2 $end
$var wire 1 + clk_4f $end
$var wire 1 % reset $end
$var wire 1 %" validsalida $end
$var wire 1 6" validEntrada1 $end
$var wire 1 7" validEntrada0 $end
$var wire 8 ?" Salida_conductual [7:0] $end
$var wire 8 @" Entrada1 [7:0] $end
$var wire 8 A" Entrada0 [7:0] $end
$scope module mux1 $end
$var wire 1 + clk $end
$var wire 1 % reset $end
$var wire 1 6" validEntrada1 $end
$var wire 1 7" validEntrada0 $end
$var wire 8 B" Entrada1 [7:0] $end
$var wire 8 C" Entrada0 [7:0] $end
$var reg 8 D" Salida_conductual [7:0] $end
$var reg 1 E" selector $end
$var reg 1 %" validsalida $end
$upscope $end
$upscope $end
$scope module muxl1 $end
$var wire 1 - clk_2f $end
$var wire 1 % reset $end
$var wire 1 6" validsalida1 $end
$var wire 1 7" validsalida0 $end
$var wire 1 &" validEntrada3 $end
$var wire 1 '" validEntrada2 $end
$var wire 1 (" validEntrada1 $end
$var wire 1 )" validEntrada0 $end
$var wire 8 F" Salida1 [7:0] $end
$var wire 8 G" Salida0 [7:0] $end
$var wire 8 H" Entrada3 [7:0] $end
$var wire 8 I" Entrada2 [7:0] $end
$var wire 8 J" Entrada1 [7:0] $end
$var wire 8 K" Entrada0 [7:0] $end
$scope module mux1 $end
$var wire 1 - clk $end
$var wire 1 % reset $end
$var wire 1 (" validEntrada1 $end
$var wire 1 )" validEntrada0 $end
$var wire 8 L" Entrada1 [7:0] $end
$var wire 8 M" Entrada0 [7:0] $end
$var reg 8 N" Salida_conductual [7:0] $end
$var reg 1 O" selector $end
$var reg 1 7" validsalida $end
$upscope $end
$scope module mux2 $end
$var wire 1 - clk $end
$var wire 1 % reset $end
$var wire 1 &" validEntrada1 $end
$var wire 1 '" validEntrada0 $end
$var wire 8 P" Entrada1 [7:0] $end
$var wire 8 Q" Entrada0 [7:0] $end
$var reg 8 R" Salida_conductual [7:0] $end
$var reg 1 S" selector $end
$var reg 1 6" validsalida $end
$upscope $end
$upscope $end
$upscope $end
$scope module p2s $end
$var wire 1 , clk_32f $end
$var wire 1 + clk_4f $end
$var wire 8 T" in_serial [7:0] $end
$var wire 1 % reset $end
$var wire 1 %" valid_in $end
$var reg 1 F out_serial_conductual $end
$var reg 3 U" selector [2:0] $end
$var reg 3 V" selector_2 [2:0] $end
$upscope $end
$scope module recirculadorphy $end
$var wire 1 * clk $end
$var wire 8 W" data_in0 [7:0] $end
$var wire 8 X" data_in1 [7:0] $end
$var wire 8 Y" data_in2 [7:0] $end
$var wire 8 Z" data_in3 [7:0] $end
$var wire 1 % reset $end
$var wire 1 $ valid0 $end
$var wire 1 # valid1 $end
$var wire 1 " valid2 $end
$var wire 1 ! valid3 $end
$var wire 1 /" active $end
$var reg 8 [" recirculador_activo0 [7:0] $end
$var reg 8 \" recirculador_activo1 [7:0] $end
$var reg 8 ]" recirculador_activo2 [7:0] $end
$var reg 8 ^" recirculador_activo3 [7:0] $end
$var reg 8 _" recirculador_desactivado0 [7:0] $end
$var reg 8 `" recirculador_desactivado1 [7:0] $end
$var reg 8 a" recirculador_desactivado2 [7:0] $end
$var reg 8 b" recirculador_desactivado3 [7:0] $end
$var reg 1 )" valid_out_recirculador0 $end
$var reg 1 (" valid_out_recirculador1 $end
$var reg 1 '" valid_out_recirculador2 $end
$var reg 1 &" valid_out_recirculador3 $end
$upscope $end
$scope module s2p $end
$var wire 1 G IDLin $end
$var wire 1 , clk_32f $end
$var wire 1 + clk_4f $end
$var wire 1 % reset $end
$var reg 1 1" IDLEOut $end
$var reg 1 /" active_serial_paraleloTX $end
$var reg 8 c" buffer [7:0] $end
$var reg 8 d" buffer_pasado [7:0] $end
$var reg 8 e" data_serial_paraleloTX [7:0] $end
$var integer 32 f" contador [31:0] $end
$var integer 32 g" contador_BC [31:0] $end
$upscope $end
$upscope $end
$upscope $end
$upscope $end
$enddefinitions $end
#0
$dumpvars
b0 g"
b0 f"
bx0000000 e"
bx d"
b0 c"
b0 b"
b0 a"
b0 `"
b0 _"
b0 ^"
b0 ]"
b0 \"
b0 ["
b0 Z"
b0 Y"
b0 X"
b0 W"
b0 V"
b0 U"
b0 T"
xS"
b0 R"
b0 Q"
b0 P"
xO"
b0 N"
b0 M"
b0 L"
b0 K"
b0 J"
b0 I"
b0 H"
b0 G"
b0 F"
xE"
b0 D"
b0 C"
b0 B"
b0 A"
b0 @"
b0 ?"
b0 >"
b0 ="
b0 <"
b0 ;"
b0 :"
b0 9"
b0 8"
x7"
x6"
b0 5"
b0 4"
b0 3"
b0 2"
01"
b0 0"
0/"
bx0000000 ."
b0 -"
b0 ,"
b0 +"
b0 *"
0)"
0("
0'"
0&"
x%"
b0 $"
b0 #"
b0 ""
b0 !"
b0 ~
b0 }
b0 |
bx {
b0 z
0y
b0 x
b0 w
b0 v
zu
b0 t
b0 s
b0 r
0q
b0 p
b0 o
b0 n
zm
0l
b0 k
b0 j
b0 i
zh
b0 g
b0 f
b0 e
b0 d
b0 c
b0 b
b0 a
b0 `
b0 _
b0 ^
b0 ]
b0 \
b0 [
xZ
xY
b0 X
bx W
0V
b0 U
b0 T
b0 S
b0 R
b0 Q
0P
b0 O
b0 N
b0 M
b0 L
b0 K
b0 J
b0 I
b0 H
xG
0F
xE
xD
xC
xB
zA
z@
z?
z>
b0 =
b0 <
b0 ;
b0 :
b0 9
b0 8
b0 7
b0 6
b0 5
b0 4
b0 3
b0 2
b0 1
b0 0
b0 /
b0 .
1-
1,
1+
1*
b0 )
b0 (
b0 '
b0 &
0%
0$
0#
0"
0!
$end
#10000000
0,
#20000000
b1 X
0G
b0 W
1,
0E"
0O"
0S"
#30000000
0,
#40000000
b10 X
1G
1,
#50000000
0,
#60000000
b11 X
1,
#70000000
0,
#80000000
b100 X
1,
0+
#90000000
0,
#100000000
b101 X
1,
#110000000
0,
#120000000
b110 X
1,
#130000000
0,
#140000000
b111 X
0G
1,
#150000000
0,
#160000000
b0 X
1,
1+
0-
#170000000
0,
#180000000
b1 X
1,
#190000000
0,
#200000000
b10 X
1G
1,
#210000000
0,
#220000000
b11 X
1,
#230000000
0,
#240000000
b100 X
1,
0+
#250000000
0,
#260000000
b101 X
1,
#270000000
0,
#280000000
b110 X
1,
#290000000
0,
#300000000
b111 X
0G
1,
#310000000
0,
#320000000
b0 X
1,
1+
1-
0*
#330000000
0,
#340000000
b1 X
1,
#350000000
0,
#360000000
b10 X
1G
1,
#370000000
0,
#380000000
b11 X
1,
#390000000
0,
#400000000
b100 X
1,
0+
#410000000
0,
#420000000
b101 X
1,
#430000000
0,
#440000000
b110 X
1,
#450000000
0,
#460000000
b111 X
0G
1,
#470000000
0,
#480000000
b0 X
1,
1+
0-
#490000000
0,
#500000000
b1 X
1,
#510000000
0,
#520000000
b10 X
1G
1,
#530000000
0,
#540000000
b11 X
1,
#550000000
0,
#560000000
b100 X
1,
0+
#570000000
0,
#580000000
b101 X
1,
#590000000
0,
#600000000
b110 X
1,
#610000000
0,
#620000000
b111 X
0G
1,
#630000000
0,
#640000000
b0 X
b11111101 .
b11111101 9
b11111101 =
b11111101 $"
b11111101 Z"
b11111111 /
b11111111 8
b11111111 <
b11111111 #"
b11111111 Y"
b1 0
b1 7
b1 ;
b1 ""
b1 X"
b11101110 1
b11101110 6
b11101110 :
b11101110 !"
b11101110 W"
1!
1"
1#
1$
1%
1,
1+
1-
1*
#650000000
0,
#660000000
b1 X
b1 }
b1 f"
b1 U"
1F
1,
#670000000
0,
#680000000
b10 U"
0F
b10 f"
b0 d"
b10 }
b0 {
b1 z
b10 X
1G
1,
#690000000
0,
#700000000
b11 X
b11 }
b10 z
b11 f"
b1 c"
b11 U"
1F
1,
#710000000
0,
#720000000
b100 U"
b100 f"
b11 c"
b100 }
b101 z
b100 X
1,
0+
#730000000
0,
#740000000
b101 X
b101 }
b1011 z
b101 f"
b111 c"
b101 U"
1,
#750000000
0,
#760000000
b110 U"
b110 f"
b1111 c"
b110 }
b10111 z
b110 X
1,
#770000000
0,
#780000000
b111 X
0G
b111 }
b101111 z
b111 f"
b11111 c"
b111 U"
0F
1,
#790000000
0,
#800000000
b0 U"
b0 f"
b111110 c"
b0 }
b1011110 z
b0 X
1y
1E"
0%"
1,
1+
0-
#810000000
0,
#820000000
b1 X
b1 }
b10111100 z
b1 f"
b1111100 c"
b1 U"
1F
1,
#830000000
0,
#840000000
b10 U"
0F
b10 f"
b1111100 d"
b11111000 c"
b10 }
b10111100 {
b1 ~
b1111001 z
b10 X
1G
1,
#850000000
0,
#860000000
b11 X
b11 }
b11110010 z
b11 f"
b11110001 c"
b11 U"
1F
1,
#870000000
0,
#880000000
b100 U"
b100 f"
b11100011 c"
b100 }
b11100101 z
b100 X
1,
0+
#890000000
0,
#900000000
b101 X
b101 }
b11001011 z
b101 f"
b11000111 c"
b101 U"
1,
#910000000
0,
#920000000
b110 U"
b110 f"
b10001111 c"
b110 }
b10010111 z
b110 X
1,
#930000000
0,
#940000000
b111 X
0G
b111 }
b101111 z
b111 f"
b11111 c"
b111 U"
0F
1,
#950000000
0,
#960000000
b0 U"
b0 f"
b111110 c"
b0 }
b1011110 z
b0 X
0E"
0y
1q
1l
1S"
06"
1O"
07"
1,
1+
1-
0*
#970000000
0,
#980000000
b1 X
b1 }
b10111100 z
b1 f"
b1111100 c"
b1 U"
1F
1,
#990000000
0,
#1000000000
b10 U"
0F
b10 f"
b11111000 c"
b10 }
b10 ~
b1111001 z
b10 X
1G
1,
#1010000000
0,
#1020000000
b11 X
b11 }
b11110010 z
b11 f"
b11110001 c"
b11 U"
1F
1,
#1030000000
0,
#1040000000
b100 U"
b100 f"
b11100011 c"
b100 }
b11100101 z
b100 X
1,
0+
#1050000000
0,
#1060000000
b101 X
b101 }
b11001011 z
b101 f"
b11000111 c"
b101 U"
1,
#1070000000
0,
#1080000000
b110 U"
b110 f"
b10001111 c"
b110 }
b10010111 z
b110 X
1,
#1090000000
0,
#1100000000
b111 X
0G
b111 }
b101111 z
b111 f"
b11111 c"
b111 U"
0F
1,
#1110000000
0,
#1120000000
b0 U"
b0 f"
b111110 c"
b0 }
b1011110 z
b0 X
1y
1E"
1,
1+
0-
#1130000000
0,
#1140000000
b1 X
b1 }
b10111100 z
b1 f"
b1111100 c"
b1 U"
1F
1,
#1150000000
0,
#1160000000
b10 U"
0F
b10 f"
b11111000 c"
b10 }
b11 ~
b1111001 z
b10 X
1G
1,
#1170000000
0,
#1180000000
b11 X
b11 }
b11110010 z
b11 f"
b11110001 c"
b11 U"
1F
1,
#1190000000
0,
#1200000000
b100 U"
b100 f"
b11100011 c"
b100 }
b11100101 z
b100 X
1,
0+
#1210000000
0,
#1220000000
b101 X
b101 }
b11001011 z
b101 f"
b11000111 c"
b101 U"
1,
#1230000000
0,
#1240000000
b110 U"
b110 f"
b10001111 c"
b110 }
b10010111 z
b110 X
1,
#1250000000
0,
#1260000000
b111 X
0G
b111 }
b101111 z
b111 f"
b11111 c"
b111 U"
0F
1,
#1270000000
0,
#1280000000
b0 U"
b0 f"
b111110 c"
b0 }
b1011110 z
b0 X
0E"
0y
0O"
0S"
0l
0q
b11111110 .
b11111110 9
b11111110 =
b11111110 $"
b11111110 Z"
b0 /
b0 8
b0 <
b0 #"
b0 Y"
b10 0
b10 7
b10 ;
b10 ""
b10 X"
b11101111 1
b11101111 6
b11101111 :
b11101111 !"
b11101111 W"
1&"
1'"
1("
1)"
1,
1+
1-
1*
#1290000000
0,
#1300000000
b1 X
b1 }
b10111100 z
b1 f"
b1111100 c"
b1 U"
1F
1,
#1310000000
0,
#1320000000
b10 U"
0F
b10 f"
b11111000 c"
b10 }
b100 ~
b1111001 z
b10 X
1G
1,
#1330000000
0,
#1340000000
b11 X
b11 }
b11110010 z
b11 f"
b11110001 c"
b11 U"
1F
1,
#1350000000
0,
#1360000000
b100 U"
b100 f"
b11100011 c"
b100 }
b11100101 z
b100 X
1,
0+
#1370000000
0,
#1380000000
b101 X
b101 }
b11001011 z
b101 f"
b11000111 c"
b101 U"
1,
#1390000000
0,
#1400000000
b110 U"
b110 f"
b10001111 c"
b110 }
b10010111 z
b110 X
1,
#1410000000
0,
#1420000000
b111 X
0G
b111 }
b101111 z
b111 f"
b11111 c"
b111 U"
0F
1,
#1430000000
0,
#1440000000
b0 U"
b0 f"
b111110 c"
b0 }
b1011110 z
b0 X
1y
1E"
1,
1+
0-
#1450000000
0,
#1460000000
b1 X
b1 }
b10111100 z
b1 f"
b1111100 c"
b1 U"
1F
1,
#1470000000
0,
#1480000000
b10 U"
0F
b10 f"
b11111000 c"
b10 }
1V
b1111001 z
b10 X
1G
1,
#1490000000
0,
#1500000000
b1 W
b0 X
b11 }
b11110010 z
b11 f"
b11110001 c"
b11 U"
1F
1,
#1510000000
0,
#1520000000
b100 U"
b100 f"
b11100011 c"
b100 }
b11100101 z
b10 W
0G
1,
0+
#1530000000
0,
#1540000000
b11 W
1G
b101 }
b11001011 z
b101 f"
b11000110 c"
b101 U"
1,
#1550000000
0,
#1560000000
b110 U"
b110 f"
b10001101 c"
b110 }
b10010111 z
b100 W
1,
#1570000000
0,
#1580000000
b101 W
b111 }
b101111 z
b111 f"
b11011 c"
b111 U"
0F
1,
#1590000000
0,
#1600000000
b0 U"
b0 f"
b110111 c"
b0 }
b1011110 z
b110 W
0E"
0y
1q
1l
1S"
16"
1O"
17"
1,
1+
1-
0*
#1610000000
0,
#1620000000
b111 W
0G
b1 }
b10111100 z
b1 f"
b1101111 c"
b1 U"
1F
1,
#1630000000
0,
#1640000000
b10 U"
0F
b10 f"
b1101111 d"
b11011110 c"
b10 }
b1111001 z
b0 W
1,
#1650000000
0,
#1660000000
b1 W
1G
b11 }
b11110010 z
b11 f"
b10111100 c"
b11 U"
1F
1,
#1670000000
0,
#1680000000
b100 U"
b100 f"
b1 g"
b0 ."
b0 e"
b1111001 c"
b100 }
b11100101 z
b10 W
0G
1,
0+
#1690000000
0,
#1700000000
b11 W
1G
b101 }
b11001011 z
b101 f"
b11110010 c"
b101 U"
1,
#1710000000
0,
#1720000000
b110 U"
b110 f"
b11100101 c"
b110 }
b10010111 z
b100 W
1,
#1730000000
0,
#1740000000
b101 W
b111 }
b101111 z
b111 f"
b11001011 c"
b111 U"
0F
1,
#1750000000
0,
#1760000000
b0 U"
b0 f"
b10010111 c"
b0 }
b1011110 z
b110 W
1y
1E"
1%"
1,
1+
0-
#1770000000
0,
#1780000000
b111 W
0G
b1 }
b10111100 z
b1 f"
b101111 c"
b1 V"
1,
#1790000000
0,
#1800000000
b10 V"
b10 f"
b101111 d"
b1011110 c"
b10 }
b1111000 z
b0 W
1,
#1810000000
0,
#1820000000
b1 W
1G
b11 }
b11110000 z
b11 f"
b10111100 c"
b11 V"
1,
#1830000000
0,
#1840000000
b100 V"
b100 f"
b10 g"
b1111001 c"
b100 }
b11100000 z
b10 W
0G
1,
0+
#1850000000
0,
#1860000000
b11 W
1G
b101 }
b11000000 z
b101 f"
b11110010 c"
b101 V"
1,
#1870000000
0,
#1880000000
b110 V"
b110 f"
b11100101 c"
b110 }
b10000000 z
b100 W
1,
#1890000000
0,
#1900000000
b101 W
b111 }
b0 z
b111 f"
b11001011 c"
b111 V"
1,
#1910000000
0,
#1920000000
b0 V"
b0 f"
b10010111 c"
b0 }
b110 W
0E"
0y
0O"
0S"
0l
0q
b11111111 .
b11111111 9
b11111111 =
b11111111 $"
b11111111 Z"
b1 /
b1 8
b1 <
b1 #"
b1 Y"
b11 0
b11 7
b11 ;
b11 ""
b11 X"
b11110000 1
b11110000 6
b11110000 :
b11110000 !"
b11110000 W"
1,
1+
1-
1*
#1930000000
0,
#1940000000
b111 W
0G
b1 }
b1 f"
b101111 c"
b1 V"
1,
#1950000000
0,
#1960000000
b10 V"
b10 f"
b1011110 c"
b10 }
b0 {
1P
b0 W
1,
#1970000000
0,
#1980000000
b1 W
1G
b11 }
b11 f"
b10111100 c"
b11 V"
1,
#1990000000
0,
#2000000000
b100 V"
b100 f"
b11 g"
b1111001 c"
b100 }
b10 W
0G
1,
0+
#2010000000
0,
#2020000000
b11 W
1G
b101 }
b101 f"
b11110010 c"
b101 V"
1,
#2030000000
0,
#2040000000
b110 V"
b110 f"
b11100101 c"
b110 }
b100 W
1,
#2050000000
0,
#2060000000
b101 W
b111 }
b111 f"
b11001011 c"
b111 V"
1,
#2070000000
0,
#2080000000
b0 V"
b0 f"
b10010111 c"
b0 }
b110 W
1Z
1y
1E"
1,
1+
0-
#2090000000
0,
#2100000000
b111 W
0G
b1 }
b1 f"
b101111 c"
b1 V"
1,
#2110000000
0,
#2120000000
b10 V"
b10 f"
b1011110 c"
b10 }
b0 W
1,
#2130000000
0,
#2140000000
b1 W
1G
b11 }
b11 f"
b10111100 c"
b11 V"
1,
#2150000000
0,
#2160000000
b100 V"
b100 f"
b100 g"
b1111001 c"
b100 }
b10 W
0G
1,
0+
#2170000000
0,
#2180000000
b11 W
1G
b101 }
b101 f"
b11110010 c"
b101 V"
1,
#2190000000
0,
#2200000000
b110 V"
b110 f"
b11100101 c"
b110 }
b100 W
1,
#2210000000
0,
#2220000000
b101 W
b111 }
b111 f"
b11001011 c"
b111 V"
1,
#2230000000
0,
#2240000000
b0 V"
b0 f"
b10010111 c"
b0 }
b110 W
0E"
1Y
0y
1q
1E
1l
1S"
1O"
1,
1+
1-
0*
#2250000000
0,
#2260000000
b111 W
0G
b1 }
b1 f"
b101111 c"
b1 V"
1,
#2270000000
0,
#2280000000
b10 V"
b10 f"
b101111 ."
b101111 e"
11"
1/"
b1011110 c"
b10 }
b0 W
1,
#2290000000
0,
#2300000000
b1 W
1G
b11 }
b11 f"
b10111100 c"
b11 V"
1,
#2310000000
0,
#2320000000
b100 V"
b100 f"
b1111001 c"
b100 }
b10 W
0G
1,
0+
#2330000000
0,
#2340000000
b11 W
1G
b101 }
b101 f"
b11110010 c"
b101 V"
1,
#2350000000
0,
#2360000000
b110 V"
b110 f"
b11100101 c"
b110 }
b100 W
1,
#2370000000
0,
#2380000000
b101 W
b111 }
b111 f"
b11001011 c"
b111 V"
1,
#2390000000
0,
#2400000000
b0 V"
b0 f"
b10010111 c"
b0 }
b110 W
1y
1E"
1,
1+
0-
#2410000000
0,
#2420000000
b111 W
0G
b1 }
b1 f"
b101111 c"
b1 V"
1,
#2430000000
0,
#2440000000
b10 V"
b10 f"
b1011110 c"
b10 }
b0 W
1,
#2450000000
0,
#2460000000
b1 W
1G
b11 }
b11 f"
b10111100 c"
b11 V"
1,
#2470000000
0,
#2480000000
b100 V"
b100 f"
b1111001 c"
b100 }
b10 W
0G
1,
0+
#2490000000
0,
#2500000000
b11 W
1G
b101 }
b101 f"
b11110010 c"
b101 V"
1,
#2510000000
0,
#2520000000
b110 V"
b110 f"
b11100101 c"
b110 }
b100 W
1,
#2530000000
0,
#2540000000
b101 W
b111 }
b111 f"
b11001011 c"
b111 V"
1,
#2550000000
0,
#2560000000
b0 V"
b0 f"
b10010111 c"
b0 }
b110 W
0E"
0y
0O"
0S"
1D
0l
1B
0q
b0 .
b0 9
b0 =
b0 $"
b0 Z"
b10 /
b10 8
b10 <
b10 #"
b10 Y"
b100 0
b100 7
b100 ;
b100 ""
b100 X"
b11110001 1
b11110001 6
b11110001 :
b11110001 !"
b11110001 W"
b11111111 2"
b11111111 ;"
b11111111 H"
b11111111 P"
b11111111 ^"
b1 3"
b1 <"
b1 I"
b1 Q"
b1 ]"
b11 4"
b11 ="
b11 J"
b11 L"
b11 \"
b11110000 5"
b11110000 >"
b11110000 K"
b11110000 M"
b11110000 ["
1,
1+
1-
1*
#2570000000
0,
#2580000000
b111 W
0G
b1 }
b1 f"
b101111 c"
b1 V"
1,
#2590000000
0,
#2600000000
b10 V"
b10 f"
b1011110 c"
b10 }
b0 W
1,
#2610000000
0,
#2620000000
b1 W
1G
b11 }
b11 f"
b10111100 c"
b11 V"
1,
#2630000000
0,
#2640000000
b100 V"
b100 f"
b1111001 c"
b100 }
b10 W
0G
1,
0+
#2650000000
0,
#2660000000
b11 W
1G
b101 }
b101 f"
b11110010 c"
b101 V"
1,
#2670000000
0,
#2680000000
b110 V"
b110 f"
b11100101 c"
b110 }
b100 W
1,
#2690000000
0,
#2700000000
b101 W
b111 }
b111 f"
b11001011 c"
b111 V"
1,
#2710000000
0,
#2720000000
b0 V"
b0 f"
b10010111 c"
b0 }
b110 W
1y
1E"
1,
1+
0-
#2730000000
0,
#2740000000
b111 W
0G
b1 }
b1 f"
b101111 c"
b1 V"
1,
#2750000000
0,
#2760000000
b10 V"
b10 f"
b1011110 c"
b10 }
b0 W
1,
#2770000000
0,
#2780000000
b1 W
1G
b11 }
b11 f"
b10111100 c"
b11 V"
1,
#2790000000
0,
