RXParte2/RX.vcd
$date
	Thu Jun 10 19:37:54 2021
$end
$version
	Icarus Verilog
$end
$timescale
	100ps
$end
$scope module BancoPruebas $end
$var wire 1 ! out_serial2_conductual $end
$var wire 1 " validSalida3 $end
$var wire 1 # validSalida2 $end
$var wire 1 $ validSalida1 $end
$var wire 1 % validSalida0 $end
$var wire 1 & reset $end
$var wire 8 ' data_serial_paraleloRX [7:0] $end
$var wire 1 ( data_in $end
$var wire 1 ) clk_f $end
$var wire 1 * clk_4f $end
$var wire 1 + clk_32f $end
$var wire 1 , clk_2f $end
$var wire 8 - Salida3 [7:0] $end
$var wire 8 . Salida2 [7:0] $end
$var wire 8 / Salida1 [7:0] $end
$var wire 8 0 Salida0 [7:0] $end
$scope module Probador $end
$var wire 8 1 Salida0s [7:0] $end
$var wire 8 2 Salida1s [7:0] $end
$var wire 8 3 Salida2s [7:0] $end
$var wire 8 4 Salida3s [7:0] $end
$var wire 1 ! out_serial2_conductual $end
$var wire 1 5 out_serial2_conductual_s $end
$var wire 1 6 validSalida0s $end
$var wire 1 7 validSalida1s $end
$var wire 1 8 validSalida2s $end
$var wire 1 9 validSalida3s $end
$var wire 1 " validSalida3 $end
$var wire 1 # validSalida2 $end
$var wire 1 $ validSalida1 $end
$var wire 1 % validSalida0 $end
$var wire 8 : Salida3 [7:0] $end
$var wire 8 ; Salida2 [7:0] $end
$var wire 8 < Salida1 [7:0] $end
$var wire 8 = Salida0 [7:0] $end
$var reg 1 , clk_2f $end
$var reg 1 + clk_32f $end
$var reg 1 * clk_4f $end
$var reg 1 ) clk_f $end
$var reg 1 ( data_in $end
$var reg 1 & reset $end
$upscope $end
$scope module RX $end
$var wire 1 , clk_2f $end
$var wire 1 + clk_32f $end
$var wire 1 * clk_4f $end
$var wire 1 ) clk_f $end
$var wire 1 ( data_in $end
$var wire 1 & reset $end
$var wire 1 > valid_serial_paraleloRX $end
$var wire 1 " valid_datademuxL23 $end
$var wire 1 # valid_datademuxL22 $end
$var wire 1 $ valid_datademuxL21 $end
$var wire 1 % valid_datademuxL20 $end
$var wire 1 ? out_serial2_conductual $end
$var wire 8 @ out3 [7:0] $end
$var wire 8 A out2 [7:0] $end
$var wire 8 B out1 [7:0] $end
$var wire 8 C out0 [7:0] $end
$var wire 8 D data_serial_paraleloRX [7:0] $end
$var wire 1 E active_serial_paraleloRX $end
$scope module Paralelo $end
$var wire 1 + clk_32f $end
$var wire 1 * clk_4f $end
$var wire 1 E active $end
$var reg 1 ? out_serial2_conductual $end
$var reg 3 F selector [2:0] $end
$var reg 3 G selector_2 [2:0] $end
$upscope $end
$scope module demuxes $end
$var wire 1 , clk_2f $end
$var wire 1 + clk_32f $end
$var wire 1 * clk_4f $end
$var wire 1 ) clk_f $end
$var wire 1 & reset $end
$var wire 1 " validsalida3 $end
$var wire 1 # validsalida2 $end
$var wire 1 H validsalida1L1 $end
$var wire 1 $ validsalida1 $end
$var wire 1 I validsalida0L1 $end
$var wire 1 % validsalida0 $end
$var wire 1 > validEntrada $end
$var wire 8 J Salida3 [7:0] $end
$var wire 8 K Salida2 [7:0] $end
$var wire 8 L Salida1 [7:0] $end
$var wire 8 M Salida0 [7:0] $end
$var wire 8 N Entrada1 [7:0] $end
$var wire 8 O Entrada0 [7:0] $end
$var wire 8 P Entrada [7:0] $end
$scope module demuxitl1 $end
$var wire 1 ) clk_f $end
$var wire 1 & reset $end
$var wire 1 " validsalida3 $end
$var wire 1 # validsalida2 $end
$var wire 1 $ validsalida1 $end
$var wire 1 % validsalida0 $end
$var wire 1 H validEntrada1 $end
$var wire 1 I validEntrada0 $end
$var wire 8 Q Salida3 [7:0] $end
$var wire 8 R Salida2 [7:0] $end
$var wire 8 S Salida1 [7:0] $end
$var wire 8 T Salida0 [7:0] $end
$var wire 8 U Entrada1 [7:0] $end
$var wire 8 V Entrada0 [7:0] $end
$scope module demuxL11 $end
$var wire 1 ) clk $end
$var wire 1 W clk_2f $end
$var wire 1 & reset $end
$var wire 1 I validEntrada $end
$var wire 8 X Entrada [7:0] $end
$var reg 8 Y Salida_conductual0 [7:0] $end
$var reg 8 Z Salida_conductual1 [7:0] $end
$var reg 1 [ selector $end
$var reg 1 % validsalida0 $end
$var reg 1 $ validsalida1 $end
$upscope $end
$scope module demuxL12 $end
$var wire 1 ) clk $end
$var wire 1 \ clk_2f $end
$var wire 1 & reset $end
$var wire 1 H validEntrada $end
$var wire 8 ] Entrada [7:0] $end
$var reg 8 ^ Salida_conductual0 [7:0] $end
$var reg 8 _ Salida_conductual1 [7:0] $end
$var reg 1 ` selector $end
$var reg 1 # validsalida0 $end
$var reg 1 " validsalida1 $end
$upscope $end
$upscope $end
$scope module demuxitoL2 $end
$var wire 1 , clk_2f $end
$var wire 1 + clk_32f $end
$var wire 1 * clk_4f $end
$var wire 1 & reset $end
$var wire 1 H validsalida1 $end
$var wire 1 I validsalida0 $end
$var wire 1 > validEntrada $end
$var wire 8 a Salida_conductual1 [7:0] $end
$var wire 8 b Salida_conductual0 [7:0] $end
$var wire 8 c Entrada [7:0] $end
$scope module demux1 $end
$var wire 1 , clk $end
$var wire 1 * clk_2f $end
$var wire 1 & reset $end
$var wire 1 > validEntrada $end
$var wire 8 d Entrada [7:0] $end
$var reg 8 e Salida_conductual0 [7:0] $end
$var reg 8 f Salida_conductual1 [7:0] $end
$var reg 1 g selector $end
$var reg 1 I validsalida0 $end
$var reg 1 H validsalida1 $end
$upscope $end
$upscope $end
$upscope $end
$scope module serialparalelo $end
$var wire 1 + clk_32f $end
$var wire 1 * clk_4f $end
$var wire 1 ( data_in $end
$var wire 1 & reset $end
$var reg 1 E active_serial_paraleloRX $end
$var reg 8 h buffer [7:0] $end
$var reg 8 i buffer_pasado [7:0] $end
$var reg 8 j data_serial_paraleloRX [7:0] $end
$var reg 1 > valid_serial_paraleloRX $end
$var integer 32 k contador [31:0] $end
$var integer 32 l contador_BC [31:0] $end
$upscope $end
$upscope $end
$upscope $end
$enddefinitions $end
#0
$dumpvars
bx l
bx k
bx j
bx i
bx h
0g
b0 f
b0 e
bx d
bx c
b0 b
b0 a
0`
b0 _
b0 ^
b0 ]
z\
0[
b0 Z
b0 Y
b0 X
zW
b0 V
b0 U
b0 T
b0 S
b0 R
b0 Q
bx P
b0 O
b0 N
b0 M
b0 L
b0 K
b0 J
xI
xH
b0 G
bx F
xE
bx D
b0 C
b0 B
b0 A
b0 @
x?
x>
b0 =
b0 <
b0 ;
b0 :
z9
z8
z7
z6
z5
bz 4
bz 3
bz 2
bz 1
b0 0
b0 /
b0 .
b0 -
1,
1+
1*
1)
x(
bx '
x&
x%
x$
x#
x"
z!
$end
#80000000
0*
#160000000
1*
0,
#240000000
0*
#320000000
1(
0&
1*
1,
0)
#400000000
0*
#480000000
0(
b0 l
b0 k
b0 h
0>
0E
b0 '
b0 D
b0 P
b0 c
b0 d
b0 j
1*
0,
#560000000
0*
#640000000
1(
1*
1,
1)
#720000000
0*
#800000000
1*
0,
#880000000
0*
#960000000
1*
1,
0)
#1040000000
0*
#1120000000
1*
0,
#1200000000
0*
#1280000000
0(
1*
1,
1)
#1360000000
0*
#1440000000
1*
0,
#1520000000
0*
#1600000000
1(
1*
1,
0)
#1680000000
0*
#1760000000
0(
1*
0,
#1840000000
0*
#1920000000
1(
1*
1,
1)
#2000000000
0*
#2080000000
1*
0,
#2160000000
0*
#2240000000
1*
1,
0)
#2320000000
0*
#2400000000
1*
0,
#2480000000
0*
#2560000000
0(
1*
1,
1)
#2640000000
0*
#2720000000
1*
0,
#2800000000
0*
#2880000000
1*
1,
0)
#2960000000
0*
#3040000000
1*
0,
#3120000000
0*
#3200000000
1(
1&
1*
1,
1)
#3280000000
0*
#3360000000
0(
b1 k
b1 h
1*
0,
#3440000000
0*
#3520000000
b10 k
b1 i
b10 h
1(
1*
1,
0)
#3550000000
1g
#3600000000
0*
#3680000000
b11 k
b101 h
1*
0,
#3760000000
0*
#3840000000
b100 k
b1011 h
0g
1*
1,
1)
#3870000000
1[
1`
#3920000000
0*
#4000000000
b101 k
b10111 h
1*
0,
#4080000000
0*
#4160000000
b110 k
b101111 h
0(
1*
1,
0)
#4190000000
1g
#4240000000
0*
#4320000000
b111 k
b1011110 h
1*
0,
#4400000000
0*
#4480000000
b0 k
b10111100 h
0g
1(
0`
0[
1*
1,
1)
#4560000000
0*
#4640000000
0(
b1 k
b1 l
b1111001 h
1*
0,
#4720000000
0*
#4800000000
b10 k
b1111001 i
b11110010 h
1(
1*
1,
0)
#4830000000
1g
#4880000000
0*
#4960000000
b11 k
b11100101 h
1*
0,
#5040000000
0*
#5120000000
b100 k
b11001011 h
0g
1*
1,
1)
#5150000000
1[
1`
#5200000000
0*
#5280000000
b101 k
b10010111 h
1*
0,
#5360000000
0*
#5440000000
b110 k
b101111 h
0(
1*
1,
0)
#5470000000
1g
#5520000000
0*
#5600000000
b111 k
b1011110 h
1*
0,
#5680000000
0*
#5760000000
b0 k
b10111100 h
0g
0`
0[
1*
1,
1)
#5840000000
0*
#5920000000
b1 k
b10 l
b1111000 h
1*
0,
#6000000000
0*
#6080000000
b10 k
b1111000 i
b11110000 h
1(
1*
1,
0)
#6110000000
1g
#6160000000
0*
#6240000000
0(
b11 k
b11100001 h
1*
0,
#6320000000
0*
#6400000000
b100 k
b11000010 h
1(
0g
1*
1,
1)
#6430000000
1[
1`
#6480000000
0*
#6560000000
b101 k
b10000101 h
1*
0,
#6640000000
0*
#6720000000
b110 k
b1011 h
1*
1,
0)
#6750000000
1g
#6800000000
0*
#6880000000
b111 k
b10111 h
1*
0,
#6960000000
0*
#7040000000
b0 k
b101111 h
0(
0g
0`
0[
1*
1,
1)
#7120000000
0*
#7200000000
b1 k
b1011110 h
1*
0,
#7280000000
0*
#7360000000
b10 k
b1011110 i
b10111100 h
1(
1*
1,
0)
#7390000000
1g
#7440000000
0*
#7520000000
0(
b11 k
b11 l
b1111001 h
1*
0,
#7600000000
0*
#7680000000
b100 k
b11110010 h
1(
0g
1*
1,
1)
#7710000000
1[
1`
#7760000000
0*
#7840000000
b101 k
b11100101 h
1*
0,
#7920000000
0*
#8000000000
b110 k
b11001011 h
1*
1,
0)
#8030000000
1g
#8080000000
0*
#8160000000
b111 k
b10010111 h
1*
0,
#8240000000
0*
#8320000000
b0 k
b101111 h
0(
0g
0`
0[
1*
1,
1)
#8400000000
0*
#8480000000
b1 k
b1011110 h
1*
0,
#8560000000
0*
#8640000000
b10 k
b10111100 h
1(
1*
1,
0)
#8670000000
1g
#8720000000
0*
#8800000000
0(
b11 k
b100 l
b1111001 h
1*
0,
#8880000000
0*
#8960000000
b100 k
b11110010 h
1(
0g
1*
1,
1)
#8990000000
1[
1`
#9040000000
0*
#9120000000
b101 k
b11100101 h
1*
0,
#9200000000
0*
#9280000000
b110 k
b11001011 h
1*
1,
0)
#9310000000
1g
#9360000000
0*
#9440000000
b111 k
b10010111 h
1*
0,
#9520000000
0*
#9600000000
b0 k
b101111 h
0(
0g
0`
0[
1*
1,
1)
#9680000000
0*
#9760000000
b1 k
b1011110 h
1*
0,
#9840000000
0*
#9920000000
b10 k
b1011110 '
b1011110 D
b1011110 P
b1011110 c
b1011110 d
b1011110 j
1>
1E
b10111100 h
1(
1*
1,
0)
#9950000000
1g
#10000000000
0*
#10080000000
0(
b11 k
b1111001 h
1*
0,
#10160000000
0*
#10240000000
b100 k
b11110010 h
1(
1H
b1011110 N
b1011110 U
b1011110 ]
b1011110 a
b1011110 f
0g
1*
1,
1)
#10270000000
1[
1`
#10320000000
0*
#10400000000
b101 k
b11100101 h
1*
0,
#10480000000
0*
#10560000000
b110 k
b11001011 h
1I
b1011110 O
b1011110 V
b1011110 X
b1011110 b
b1011110 e
1*
1,
0)
#10590000000
1g
#10640000000
0*
#10720000000
b111 k
b10010111 h
1*
0,
#10800000000
0*
#10880000000
b0 k
b101111 h
0(
0g
1"
b1011110 .
b1011110 ;
b1011110 A
b1011110 K
b1011110 Q
b1011110 _
0`
1$
b1011110 /
b1011110 <
b1011110 B
b1011110 L
b1011110 S
b1011110 Z
0[
1*
1,
1)
#10960000000
0*
#11040000000
b1 k
b1011110 h
1*
0,
#11120000000
0*
#11200000000
b10 k
b10111100 h
1(
1*
1,
0)
#11230000000
1g
#11280000000
0*
#11360000000
b11 k
b1111001 h
1*
0,
#11440000000
0*
#11520000000
b100 k
b11110011 h
0g
1%
b1011110 0
b1011110 =
b1011110 C
b1011110 M
b1011110 T
b1011110 Y
1#
b1011110 -
b1011110 :
b1011110 @
b1011110 J
b1011110 R
b1011110 ^
1*
1,
1)
#11550000000
1[
1`
#11600000000
0*
#11680000000
b101 k
b11100111 h
1*
0,
#11760000000
0*
#11840000000
b110 k
b11001111 h
1*
1,
0)
#11870000000
1g
#11920000000
0*
#12000000000
b111 k
b10011111 h
1*
0,
#12080000000
0*
#12160000000
b0 k
b111111 h
0(
0g
0`
0[
1*
1,
1)
#12240000000
0*
#12320000000
b1 k
b1111110 h
1*
0,
#12400000000
0*
#12480000000
b10 k
b1111110 i
b1111110 '
b1111110 D
b1111110 P
b1111110 c
b1111110 d
b1111110 j
b11111100 h
1(
1*
1,
0)
#12510000000
1g
#12560000000
0*
#12640000000
0(
b11 k
b11111001 h
1*
0,
#12720000000
0*
#12800000000
b100 k
b11110010 h
1(
b1111110 N
b1111110 U
b1111110 ]
b1111110 a
b1111110 f
0g
1*
1,
1)
#12830000000
1[
1`
#12880000000
0*
#12960000000
b101 k
b11100101 h
1*
0,
#13040000000
0*
#13120000000
b110 k
b11001011 h
b1111110 O
b1111110 V
b1111110 X
b1111110 b
b1111110 e
1*
1,
0)
#13150000000
1g
#13200000000
0*
#13280000000
0(
b111 k
b10010111 h
1*
0,
#13360000000
0*
#13440000000
b0 k
b101110 h
0g
b1111110 .
b1111110 ;
b1111110 A
b1111110 K
b1111110 Q
b1111110 _
0`
b1111110 /
b1111110 <
b1111110 B
b1111110 L
b1111110 S
b1111110 Z
0[
1*
1,
1)
#13520000000
0*
#13600000000
b1 k
b1011100 h
1*
0,
#13680000000
0*
#13760000000
b10 k
b1011100 i
b1011100 '
b1011100 D
b1011100 P
b1011100 c
b1011100 d
b1011100 j
b10111000 h
1(
1*
1,
0)
#13790000000
1g
#13840000000
0*
#13920000000
0(
b11 k
b1110001 h
1*
0,
#14000000000
0*
#14080000000
b100 k
b11100010 h
1(
b1011100 N
b1011100 U
b1011100 ]
b1011100 a
b1011100 f
0g
b1111110 0
b1111110 =
b1111110 C
b1111110 M
b1111110 T
b1111110 Y
b1111110 -
b1111110 :
b1111110 @
b1111110 J
b1111110 R
b1111110 ^
1*
1,
1)
#14110000000
1[
1`
#14160000000
0*
#14240000000
b101 k
b11000101 h
1*
0,
#14320000000
0*
#14400000000
b110 k
b10001011 h
b1011100 O
b1011100 V
b1011100 X
b1011100 b
b1011100 e
1*
1,
0)
#14430000000
1g
#14480000000
0*
#14560000000
0(
b111 k
b10111 h
1*
0,
#14640000000
0*
#14720000000
b0 k
b101110 h
0g
b1011100 .
b1011100 ;
b1011100 A
b1011100 K
b1011100 Q
b1011100 _
0`
b1011100 /
b1011100 <
b1011100 B
b1011100 L
b1011100 S
b1011100 Z
0[
1*
1,
1)
#14800000000
0*
#14880000000
b1 k
b1011100 h
1*
0,
#14960000000
0*
#15040000000
b10 k
b10111000 h
1(
1*
1,
0)
#15070000000
1g
#15120000000
0*
#15200000000
0(
b11 k
b1110001 h
1*
0,
#15280000000
0*
#15360000000
b100 k
b11100010 h
1(
0g
b1011100 0
b1011100 =
b1011100 C
b1011100 M
b1011100 T
b1011100 Y
b1011100 -
b1011100 :
b1011100 @
b1011100 J
b1011100 R
b1011100 ^
1*
1,
1)
#15390000000
1[
1`
#15440000000
0*
#15520000000
b101 k
b11000101 h
1*
0,
#15600000000
0*
#15680000000
b110 k
b10001011 h
1*
1,
0)
#15710000000
1g
#15760000000
0*
#15840000000
b111 k
b10111 h
1*
0,
#15920000000
0*
#16000000000
b0 k
b101111 h
0(
0g
0`
0[
1*
1,
1)
#16080000000
0*
#16160000000
b1 k
b1011110 h
1*
0,
#16240000000
0*
#16320000000
b10 k
b1011110 i
b1011110 '
b1011110 D
b1011110 P
b1011110 c
b1011110 d
b1011110 j
b10111100 h
1(
1*
1,
0)
#16350000000
1g
#16400000000
0*
#16480000000
0(
b11 k
b1111001 h
1*
0,
#16560000000
0*
#16640000000
b100 k
b11110010 h
1(
b1011110 N
b1011110 U
b1011110 ]
b1011110 a
b1011110 f
0g
1*
1,
1)
#16670000000
1[
1`
#16720000000
0*
#16800000000
b101 k
b11100101 h
1*
0,
#16880000000
0*
#16960000000
b110 k
b11001011 h
b1011110 O
b1011110 V
b1011110 X
b1011110 b
b1011110 e
1*
1,
0)
#16990000000
1g
#17040000000
0*
#17120000000
b111 k
b10010111 h
1*
0,
#17200000000
0*
#17280000000
b0 k
b101111 h
0(
0g
b1011110 .
b1011110 ;
b1011110 A
b1011110 K
b1011110 Q
b1011110 _
0`
b1011110 /
b1011110 <
b1011110 B
b1011110 L
b1011110 S
b1011110 Z
0[
1*
1,
1)
#17360000000
0*
#17440000000
b1 k
b1011110 h
1*
0,
#17520000000
0*
#17600000000
b10 k
b10111100 h
1(
1*
1,
0)
#17630000000
1g
#17680000000
0*
#17760000000
0(
b11 k
b1111001 h
1*
0,
#17840000000
0*
#17920000000
b100 k
b11110010 h
1(
0g
b1011110 0
b1011110 =
b1011110 C
b1011110 M
b1011110 T
b1011110 Y
b1011110 -
b1011110 :
b1011110 @
b1011110 J
b1011110 R
b1011110 ^
1*
1,
1)
#17950000000
1[
1`
#18000000000
0*
#18080000000
b101 k
b11100101 h
1*
0,
#18160000000
0*
#18240000000
b110 k
b11001011 h
1*
1,
0)
#18270000000
1g
#18320000000
0*
#18400000000
b111 k
b10010111 h
1*
0,
#18480000000
0*
#18560000000
b0 k
b101111 h
0(
0g
0`
0[
1*
1,
1)
#18640000000
0*
#18720000000
b1 k
b1011110 h
1*
0,
#18800000000
0*
#18880000000
b10 k
b10111100 h
1(
1*
1,
0)
#18910000000
1g
#18960000000
0*
#19040000000
0(
b11 k
b1111001 h
1*
0,
#19120000000
0*
#19200000000
b100 k
b11110010 h
1(
0g
1*
1,
1)
#19230000000
1[
1`
#19280000000
0*
#19360000000
0(
b101 k
b11100101 h
1*
0,
#19440000000
0*
#19520000000
b110 k
b11001010 h
1*
1,
0)
#19550000000
1g
#19600000000
0*
#19680000000
1(
b111 k
b10010100 h
1*
0,
#19760000000
0*
#19840000000
b0 k
b101001 h
0(
0g
0`
0[
1*
1,
1)
#19920000000
0*
#20000000000
b1 k
b1010010 h
1*
0,
#20080000000
0*
#20160000000
b10 k
b1010010 i
b1010010 '
b1010010 D
b1010010 P
b1010010 c
b1010010 d
b1010010 j
b10100100 h
1*
1,
0)
#20190000000
1g
#20240000000
0*
#20320000000
b11 k
b1001000 h
1*
0,
#20400000000
0*
#20480000000
b100 k
b10010000 h
1(
b1010010 N
b1010010 U
b1010010 ]
b1010010 a
b1010010 f
0g
1*
1,
1)
#20510000000
1[
1`
#20560000000
0*
#20640000000
b101 k
b100001 h
1*
0,
#20720000000
0*
#20800000000
b110 k
b1000011 h
b1010010 O
b1010010 V
b1010010 X
b1010010 b
b1010010 e
1*
1,
0)
#20830000000
1g
#20880000000
0*
#20960000000
b111 k
b10000111 h
1*
0,
#21040000000
0*
#21120000000
b0 k
b1111 h
0(
0g
b1010010 .
b1010010 ;
b1010010 A
b1010010 K
b1010010 Q
b1010010 _
0`
b1010010 /
b1010010 <
b1010010 B
b1010010 L
b1010010 S
b1010010 Z
0[
1*
1,
1)
#21200000000
0*
#21280000000
1(
b1 k
b11110 h
1*
0,
#21360000000
0*
#21440000000
b10 k
b11110 i
b11110 '
b11110 D
b11110 P
b11110 c
b11110 d
b11110 j
b111101 h
1*
1,
0)
#21470000000
1g
#21520000000
0*
#21600000000
0(
b11 k
b1111011 h
1*
0,
#21680000000
0*
#21760000000
b100 k
b11110110 h
b11110 N
b11110 U
b11110 ]
b11110 a
b11110 f
0g
b1010010 0
b1010010 =
b1010010 C
b1010010 M
b1010010 T
b1010010 Y
b1010010 -
b1010010 :
b1010010 @
b1010010 J
b1010010 R
b1010010 ^
1*
1,
1)
#21790000000
1[
1`
#21840000000
0*
#21920000000
1(
b101 k
b11101100 h
1*
0,
#22000000000
0*
#22080000000
b110 k
b11011001 h
b11110 O
b11110 V
b11110 X
b11110 b
b11110 e
1*
1,
0)
#22110000000
1g
#22160000000
0*
#22240000000
b111 k
b10110011 h
1*
0,
#22320000000
0*
#22400000000
b0 k
b1100111 h
0g
b11110 .
b11110 ;
b11110 A
b11110 K
b11110 Q
b11110 _
0`
b11110 /
b11110 <
b11110 B
b11110 L
b11110 S
b11110 Z
0[
1*
1,
1)
#22480000000
0*
#22560000000
0(
b1 k
b11001111 h
1*
0,
#22640000000
0*
#22720000000
b10 k
b11001111 i
b11001111 '
b11001111 D
b11001111 P
b11001111 c
b11001111 d
b11001111 j
b10011110 h
1(
1*
1,
0)
#22750000000
1g
#22800000000
0*
#22880000000
0(
b11 k
b111101 h
1*
0,
#22960000000
0*
#23040000000
b100 k
b1111010 h
1(
b11001111 N
b11001111 U
b11001111 ]
b11001111 a
b11001111 f
0g
b11110 0
b11110 =
b11110 C
b11110 M
b11110 T
b11110 Y
b11110 -
b11110 :
b11110 @
b11110 J
b11110 R
b11110 ^
1*
1,
1)
#23070000000
1[
1`
#23120000000
0*
#23200000000
b101 k
b11110101 h
1*
0,
#23280000000
0*
#23360000000
b110 k
b11101011 h
b11001111 O
b11001111 V
b11001111 X
b11001111 b
b11001111 e
1*
1,
0)
#23390000000
1g
#23440000000
0*
#23520000000
b111 k
b11010111 h
1*
0,
#23600000000
0*
#23680000000
b0 k
b10101111 h
0(
0g
b11001111 .
b11001111 ;
b11001111 A
b11001111 K
b11001111 Q
b11001111 _
0`
b11001111 /
b11001111 <
b11001111 B
b11001111 L
b11001111 S
b11001111 Z
0[
1*
1,
1)
#23760000000
0*
#23840000000
b1 k
b1011110 h
1*
0,
#23920000000
0*
#24000000000
b10 k
b1011110 i
b1011110 '
b1011110 D
b1011110 P
b1011110 c
b1011110 d
b1011110 j
b10111100 h
1(
1*
1,
0)
#24030000000
1g
#24080000000
0*
#24160000000
0(
b11 k
b1111001 h
1*
0,
#24240000000
0*
#24320000000
b100 k
b11110010 h
1(
b1011110 N
b1011110 U
b1011110 ]
b1011110 a
b1011110 f
0g
b11001111 0
b11001111 =
b11001111 C
b11001111 M
b11001111 T
b11001111 Y
b11001111 -
b11001111 :
b11001111 @
b11001111 J
b11001111 R
b11001111 ^
1*
1,
1)
#24350000000
1[
1`
#24400000000
0*
#24480000000
b101 k
b11100101 h
1*
0,
#24560000000
0*
#24640000000
b110 k
b11001011 h
b1011110 O
b1011110 V
b1011110 X
b1011110 b
b1011110 e
1*
1,
0)
#24670000000
1g
#24720000000
0*
#24800000000
b111 k
b10010111 h
1*
0,
#24880000000
0*
#24960000000
b0 k
b101111 h
0(
0g
b1011110 .
b1011110 ;
b1011110 A
b1011110 K
b1011110 Q
b1011110 _
0`
b1011110 /
b1011110 <
b1011110 B
b1011110 L
b1011110 S
b1011110 Z
0[
1*
1,
1)
#25040000000
0*
#25120000000
b1 k
b1011110 h
1*
0,
#25200000000
0*
#25280000000
b10 k
b10111100 h
1(
1*
1,
0)
#25310000000
1g
#25360000000
0*
#25440000000
b11 k
b1111001 h
1*
0,
#25520000000
0*
#25600000000
b100 k
b11110011 h
0g
b1011110 0
b1011110 =
b1011110 C
b1011110 M
b1011110 T
b1011110 Y
b1011110 -
b1011110 :
b1011110 @
b1011110 J
b1011110 R
b1011110 ^
1*
1,
1)
#25630000000
1[
1`
#25680000000
0*
#25760000000
b101 k
b11100111 h
1*
0,
#25840000000
0*
#25920000000
b110 k
b11001111 h
1*
1,
0)
#25950000000
1g
#26000000000
0*
#26080000000
b111 k
b10011111 h
1*
0,
#26160000000
0*
#26240000000
b0 k
b111111 h
0(
0g
0`
0[
1*
1,
1)
#26320000000
0*
#26400000000
b1 k
b1111110 h
1*
0,
#26480000000
0*
#26560000000
b10 k
b1111110 i
b1111110 '
b1111110 D
b1111110 P
b1111110 c
b1111110 d
b1111110 j
b11111100 h
1(
1*
1,
0)
#26590000000
1g
#26640000000
0*
#26720000000
0(
b11 k
b11111001 h
1*
0,
#26800000000
0*
#26880000000
b100 k
b11110010 h
1(
b1111110 N
b1111110 U
b1111110 ]
b1111110 a
b1111110 f
0g
1*
1,
1)
#26910000000
1[
1`
#26960000000
0*
#27040000000
b101 k
b11100101 h
1*
0,
#27120000000
0*
#27200000000
b110 k
b11001011 h
b1111110 O
b1111110 V
b1111110 X
b1111110 b
b1111110 e
1*
1,
0)
#27230000000
1g
#27280000000
0*
#27360000000
0(
b111 k
b10010111 h
1*
0,
#27440000000
0*
#27520000000
b0 k
b101110 h
0g
b1111110 .
b1111110 ;
b1111110 A
b1111110 K
b1111110 Q
b1111110 _
0`
b1111110 /
b1111110 <
b1111110 B
b1111110 L
b1111110 S
b1111110 Z
0[
1*
1,
1)
#27600000000
0*
#27680000000
b1 k
b1011100 h
1*
0,
#27760000000
0*
#27840000000
b10 k
b1011100 i
b1011100 '
b1011100 D
b1011100 P
b1011100 c
b1011100 d
b1011100 j
b10111000 h
1(
1*
1,
0)
#27870000000
1g
#27920000000
0*
#28000000000
0(
b11 k
b1110001 h
1*
0,
#28080000000
0*
#28160000000
b100 k
b11100010 h
1(
b1011100 N
b1011100 U
b1011100 ]
b1011100 a
b1011100 f
0g
b1111110 0
b1111110 =
b1111110 C
b1111110 M
b1111110 T
b1111110 Y
b1111110 -
b1111110 :
b1111110 @
b1111110 J
b1111110 R
b1111110 ^
1*
1,
1)
#28190000000
1[
1`
#28240000000
0*
#28320000000
b101 k
b11000101 h
1*
0,
#28400000000
0*
#28480000000
b110 k
b10001011 h
b1011100 O
b1011100 V
b1011100 X
b1011100 b
b1011100 e
1*
1,
0)
#28510000000
1g
#28560000000
0*
#28640000000
0(
b111 k
b10111 h
1*
0,
#28720000000
0*
#28800000000
b0 k
b101110 h
0g
b1011100 .
b1011100 ;
b1011100 A
b1011100 K
b1011100 Q
b1011100 _
0`
b1011100 /
b1011100 <
b1011100 B
b1011100 L
b1011100 S
b1011100 Z
0[
1*
1,
1)
#28880000000
0*
#28960000000
b1 k
b1011100 h
1*
0,
#29040000000
0*
#29120000000
b10 k
b10111000 h
1(
1*
1,
0)
#29150000000
1g
#29200000000
0*
#29280000000
0(
b11 k
b1110001 h
1*
0,
#29360000000
0*
#29440000000
b100 k
b11100010 h
1(
0g
b1011100 0
b1011100 =
b1011100 C
b1011100 M
b1011100 T
b1011100 Y
b1011100 -
b1011100 :
b1011100 @
b1011100 J
b1011100 R
b1011100 ^
1*
1,
1)
#29470000000
1[
1`
#29520000000
0*
#29600000000
b101 k
b11000101 h
1*
0,
#29680000000
0*
#29760000000
b110 k
b10001011 h
1*
1,
0)
#29790000000
1g
#29840000000
0*
#29920000000
b111 k
b10111 h
1*
0,
#30000000000
0*
#30080000000
b0 k
b101111 h
0(
0g
0`
0[
1*
1,
1)
#30160000000
0*
#30240000000
b1 k
b1011110 h
1*
0,
#30320000000
0*
#30400000000
b10 k
b1011110 i
b1011110 '
b1011110 D
b1011110 P
b1011110 c
b1011110 d
b1011110 j
b10111100 h
1(
1*
1,
0)
#30430000000
1g
#30480000000
0*
#30560000000
0(
b11 k
b1111001 h
1*
0,
#30640000000
0*
#30720000000
b100 k
b11110010 h
1(
b1011110 N
b1011110 U
b1011110 ]
b1011110 a
b1011110 f
0g
1*
1,
1)
#30750000000
1[
1`
#30800000000
0*
#30880000000
b101 k
b11100101 h
1*
0,
#30960000000
0*
#31040000000
b110 k
b11001011 h
b1011110 O
b1011110 V
b1011110 X
b1011110 b
b1011110 e
1*
1,
0)
#31070000000
1g
#31120000000
0*
#31200000000
b111 k
b10010111 h
1*
0,
#31280000000
0*
#31360000000
b0 k
b101111 h
0(
0g
b1011110 .
b1011110 ;
b1011110 A
b1011110 K
b1011110 Q
b1011110 _
0`
b1011110 /
b1011110 <
b1011110 B
b1011110 L
b1011110 S
b1011110 Z
0[
1*
1,
1)
#31440000000
0*
#31520000000
b1 k
b1011110 h
1*
0,
#31600000000
0*
#31680000000
b10 k
b10111100 h
1(
1*
1,
0)
#31710000000
1g
#31760000000
0*
#31840000000
b11 k
b1111001 h
1*
0,
#31920000000
0*
#32000000000
b100 k
b11110011 h
0g
b1011110 0
b1011110 =
b1011110 C
b1011110 M
b1011110 T
b1011110 Y
b1011110 -
b1011110 :
b1011110 @
b1011110 J
b1011110 R
b1011110 ^
1*
1,
1)
#32030000000
1[
1`
#32080000000
0*
#32160000000
b101 k
b11100111 h
1*
0,
#32240000000
0*
#32320000000
b110 k
b11001111 h
1*
1,
0)
#32350000000
1g
#32400000000
0*
#32480000000
b111 k
b10011111 h
1*
0,
#32560000000
0*
#32640000000
b0 k
b111111 h
0(
0g
0`
0[
1*
1,
1)
#32720000000
0*
#32800000000
b1 k
b1111110 h
1*
0,
#32880000000
0*
#32960000000
b10 k
b1111110 i
b1111110 '
b1111110 D
b1111110 P
b1111110 c
b1111110 d
b1111110 j
b11111100 h
1(
1*
1,
0)
#32990000000
1g
#33040000000
0*
#33120000000
0(
b11 k
b11111001 h
1*
0,
#33200000000
0*
#33280000000
b100 k
b11110010 h
1(
b1111110 N
b1111110 U
b1111110 ]
b1111110 a
b1111110 f
0g
1*
1,
1)
#33310000000
1[
1`
#33360000000
0*
#33440000000
b101 k
b11100101 h
1*
0,
#33520000000
0*
