Muxes/muxL2.vcd
$date
	Sat Jun  5 21:33:09 2021
$end
$version
	Icarus Verilog
$end
$timescale
	100ps
$end
$scope module BUF $end
$var wire 1 ! A $end
$var wire 1 " Y $end
$upscope $end
$scope module DFFSR $end
$var wire 1 # C $end
$var wire 1 $ D $end
$var wire 1 % R $end
$var wire 1 & S $end
$var reg 1 ' Q $end
$upscope $end
$scope module banco_mux $end
$var wire 1 ( validsalida0 $end
$var wire 1 ) validsalida1 $end
$var wire 1 * validSalida1 $end
$var wire 1 + validSalida0 $end
$var wire 1 , validEntrada3 $end
$var wire 1 - validEntrada2 $end
$var wire 1 . validEntrada1 $end
$var wire 1 / validEntrada0 $end
$var wire 1 0 reset $end
$var wire 1 1 clk_f $end
$var wire 1 2 clk_4f $end
$var wire 1 3 clk_2f $end
$var wire 8 4 Salida_estructural [7:0] $end
$var wire 8 5 Salida_conductual [7:0] $end
$var wire 8 6 Entrada3 [7:0] $end
$var wire 8 7 Entrada2 [7:0] $end
$var wire 8 8 Entrada1 [7:0] $end
$var wire 8 9 Entrada0 [7:0] $end
$scope module muxes1 $end
$var wire 1 ( validsalida0 $end
$var wire 1 ) validsalida1 $end
$var wire 1 , validEntrada3 $end
$var wire 1 - validEntrada2 $end
$var wire 1 . validEntrada1 $end
$var wire 1 / validEntrada0 $end
$var wire 1 0 reset $end
$var wire 1 1 clk_f $end
$var wire 1 2 clk_4f $end
$var wire 1 3 clk_2f $end
$var wire 8 : Salida_conductual [7:0] $end
$var wire 8 ; Salida1 [7:0] $end
$var wire 8 < Salida0 [7:0] $end
$var wire 8 = Entrada3 [7:0] $end
$var wire 8 > Entrada2 [7:0] $end
$var wire 8 ? Entrada1 [7:0] $end
$var wire 8 @ Entrada0 [7:0] $end
$scope module muxitol2 $end
$var wire 1 ( validsalida $end
$var wire 1 . validEntrada1 $end
$var wire 1 / validEntrada0 $end
$var wire 1 0 reset $end
$var wire 1 2 clk_4f $end
$var wire 8 A Salida_conductual [7:0] $end
$var wire 8 B Entrada1 [7:0] $end
$var wire 8 C Entrada0 [7:0] $end
$scope module mux1 $end
$var wire 1 ( validsalida $end
$var wire 1 . validEntrada1 $end
$var wire 1 / validEntrada0 $end
$var wire 1 0 reset $end
$var wire 1 2 clk $end
$var wire 8 D Entrada1 [7:0] $end
$var wire 8 E Entrada0 [7:0] $end
$var reg 8 F Salida_conductual [7:0] $end
$var reg 1 G selector $end
$upscope $end
$upscope $end
$scope module muxl1 $end
$var wire 1 ( validsalida0 $end
$var wire 1 ) validsalida1 $end
$var wire 1 , validEntrada3 $end
$var wire 1 - validEntrada2 $end
$var wire 1 . validEntrada1 $end
$var wire 1 / validEntrada0 $end
$var wire 1 0 reset $end
$var wire 1 3 clk_2f $end
$var wire 8 H Salida1 [7:0] $end
$var wire 8 I Salida0 [7:0] $end
$var wire 8 J Entrada3 [7:0] $end
$var wire 8 K Entrada2 [7:0] $end
$var wire 8 L Entrada1 [7:0] $end
$var wire 8 M Entrada0 [7:0] $end
$scope module mux1 $end
$var wire 1 ( validsalida $end
$var wire 1 . validEntrada1 $end
$var wire 1 / validEntrada0 $end
$var wire 1 0 reset $end
$var wire 1 3 clk $end
$var wire 8 N Entrada1 [7:0] $end
$var wire 8 O Entrada0 [7:0] $end
$var reg 8 P Salida_conductual [7:0] $end
$var reg 1 Q selector $end
$upscope $end
$scope module mux2 $end
$var wire 1 ) validsalida $end
$var wire 1 , validEntrada1 $end
$var wire 1 - validEntrada0 $end
$var wire 1 0 reset $end
$var wire 1 3 clk $end
$var wire 8 R Entrada1 [7:0] $end
$var wire 8 S Entrada0 [7:0] $end
$var reg 8 T Salida_conductual [7:0] $end
$var reg 1 U selector $end
$upscope $end
$upscope $end
$upscope $end
$scope module muxes2 $end
$var wire 1 ( validsalida0 $end
$var wire 1 ) validsalida1 $end
$var wire 1 , validEntrada3 $end
$var wire 1 - validEntrada2 $end
$var wire 1 . validEntrada1 $end
$var wire 1 / validEntrada0 $end
$var wire 1 0 reset $end
$var wire 1 1 clk_f $end
$var wire 1 2 clk_4f $end
$var wire 1 3 clk_2f $end
$var wire 8 V Salida_estructural [7:0] $end
$var wire 8 W Salida1 [7:0] $end
$var wire 8 X Salida0 [7:0] $end
$var wire 8 Y Entrada3 [7:0] $end
$var wire 8 Z Entrada2 [7:0] $end
$var wire 8 [ Entrada1 [7:0] $end
$var wire 8 \ Entrada0 [7:0] $end
$scope module muxitol2 $end
$var wire 1 ( validsalida $end
$var wire 1 . validEntrada1 $end
$var wire 1 / validEntrada0 $end
$var wire 1 0 reset $end
$var wire 1 2 clk_4f $end
$var wire 8 ] Salida_estructural [7:0] $end
$var wire 8 ^ Entrada1 [7:0] $end
$var wire 8 _ Entrada0 [7:0] $end
$scope module mux1 $end
$var wire 1 ` _01_ $end
$var wire 1 a _49_ $end
$var wire 1 b _50_ $end
$var wire 1 c _51_ $end
$var wire 1 d _52_ $end
$var wire 1 ( validsalida $end
$var wire 1 . validEntrada1 $end
$var wire 1 / validEntrada0 $end
$var wire 1 e selector $end
$var wire 1 0 reset $end
$var wire 1 2 clk $end
$var wire 1 f _48_ $end
$var wire 1 g _47_ $end
$var wire 1 h _46_ $end
$var wire 1 i _45_ $end
$var wire 1 j _44_ $end
$var wire 1 k _43_ $end
$var wire 1 l _42_ $end
$var wire 1 m _41_ $end
$var wire 1 n _40_ $end
$var wire 1 o _39_ $end
$var wire 1 p _38_ $end
$var wire 1 q _37_ $end
$var wire 1 r _36_ $end
$var wire 1 s _35_ $end
$var wire 1 t _34_ $end
$var wire 1 u _33_ $end
$var wire 1 v _32_ $end
$var wire 1 w _31_ $end
$var wire 1 x _30_ $end
$var wire 1 y _29_ $end
$var wire 1 z _28_ $end
$var wire 1 { _27_ $end
$var wire 1 | _26_ $end
$var wire 1 } _25_ $end
$var wire 1 ~ _24_ $end
$var wire 1 !" _23_ $end
$var wire 1 "" _22_ $end
$var wire 1 #" _21_ $end
$var wire 1 $" _20_ $end
$var wire 1 %" _19_ $end
$var wire 1 &" _18_ $end
$var wire 1 '" _17_ $end
$var wire 1 (" _16_ $end
$var wire 1 )" _15_ $end
$var wire 1 *" _14_ $end
$var wire 1 +" _13_ $end
$var wire 1 ," _12_ $end
$var wire 1 -" _11_ $end
$var wire 1 ." _10_ $end
$var wire 1 /" _09_ $end
$var wire 1 0" _08_ $end
$var wire 1 1" _07_ $end
$var wire 1 2" _06_ $end
$var wire 1 3" _05_ $end
$var wire 1 4" _04_ $end
$var wire 1 5" _03_ $end
$var wire 1 6" _02_ $end
$var wire 8 7" _00_ [7:0] $end
$var wire 8 8" Salida_estructural [7:0] $end
$var wire 8 9" Entrada1 [7:0] $end
$var wire 8 :" Entrada0 [7:0] $end
$scope module _58_ $end
$var wire 1 c A $end
$var wire 1 { Y $end
$upscope $end
$scope module _59_ $end
$var wire 1 b A $end
$var wire 1 z Y $end
$upscope $end
$scope module _60_ $end
$var wire 1 a A $end
$var wire 1 d B $end
$var wire 1 y Y $end
$upscope $end
$scope module _61_ $end
$var wire 1 z A $end
$var wire 1 y B $end
$var wire 1 x Y $end
$upscope $end
$scope module _62_ $end
$var wire 1 "" A $end
$var wire 1 x B $end
$var wire 1 w Y $end
$upscope $end
$scope module _63_ $end
$var wire 1 a A $end
$var wire 1 z B $end
$var wire 1 v Y $end
$upscope $end
$scope module _64_ $end
$var wire 1 v A $end
$var wire 1 ." Y $end
$upscope $end
$scope module _65_ $end
$var wire 1 { A $end
$var wire 1 v B $end
$var wire 1 u Y $end
$upscope $end
$scope module _66_ $end
$var wire 1 *" A $end
$var wire 1 u B $end
$var wire 1 t Y $end
$upscope $end
$scope module _67_ $end
$var wire 1 w A $end
$var wire 1 t B $end
$var wire 1 3" Y $end
$upscope $end
$scope module _68_ $end
$var wire 1 !" A $end
$var wire 1 x B $end
$var wire 1 s Y $end
$upscope $end
$scope module _69_ $end
$var wire 1 )" A $end
$var wire 1 u B $end
$var wire 1 r Y $end
$upscope $end
$scope module _70_ $end
$var wire 1 s A $end
$var wire 1 r B $end
$var wire 1 2" Y $end
$upscope $end
$scope module _71_ $end
$var wire 1 ~ A $end
$var wire 1 x B $end
$var wire 1 q Y $end
$upscope $end
$scope module _72_ $end
$var wire 1 (" A $end
$var wire 1 u B $end
$var wire 1 p Y $end
$upscope $end
$scope module _73_ $end
$var wire 1 q A $end
$var wire 1 p B $end
$var wire 1 1" Y $end
$upscope $end
$scope module _74_ $end
$var wire 1 } A $end
$var wire 1 x B $end
$var wire 1 o Y $end
$upscope $end
$scope module _75_ $end
$var wire 1 '" A $end
$var wire 1 u B $end
$var wire 1 n Y $end
$upscope $end
$scope module _76_ $end
$var wire 1 o A $end
$var wire 1 n B $end
$var wire 1 0" Y $end
$upscope $end
$scope module _77_ $end
$var wire 1 | A $end
$var wire 1 x B $end
$var wire 1 m Y $end
$upscope $end
$scope module _78_ $end
$var wire 1 &" A $end
$var wire 1 u B $end
$var wire 1 l Y $end
$upscope $end
$scope module _79_ $end
$var wire 1 m A $end
$var wire 1 l B $end
$var wire 1 /" Y $end
$upscope $end
$scope module _80_ $end
$var wire 1 %" A $end
$var wire 1 x B $end
$var wire 1 k Y $end
$upscope $end
$scope module _81_ $end
$var wire 1 -" A $end
$var wire 1 u B $end
$var wire 1 j Y $end
$upscope $end
$scope module _82_ $end
$var wire 1 k A $end
$var wire 1 j B $end
$var wire 1 6" Y $end
$upscope $end
$scope module _83_ $end
$var wire 1 ," A $end
$var wire 1 u B $end
$var wire 1 i Y $end
$upscope $end
$scope module _84_ $end
$var wire 1 $" A $end
$var wire 1 x B $end
$var wire 1 h Y $end
$upscope $end
$scope module _85_ $end
$var wire 1 i A $end
$var wire 1 h B $end
$var wire 1 5" Y $end
$upscope $end
$scope module _86_ $end
$var wire 1 +" A $end
$var wire 1 u B $end
$var wire 1 g Y $end
$upscope $end
$scope module _87_ $end
$var wire 1 #" A $end
$var wire 1 x B $end
$var wire 1 f Y $end
$upscope $end
$scope module _88_ $end
$var wire 1 g A $end
$var wire 1 f B $end
$var wire 1 4" Y $end
$upscope $end
$scope module _89_ $end
$var wire 1 ` D $end
$var wire 1 2 C $end
$var reg 1 e Q $end
$upscope $end
$scope module _90_ $end
$var wire 1 ;" D $end
$var wire 1 2 C $end
$var reg 1 <" Q $end
$upscope $end
$scope module _91_ $end
$var wire 1 =" D $end
$var wire 1 2 C $end
$var reg 1 >" Q $end
$upscope $end
$scope module _92_ $end
$var wire 1 ?" D $end
$var wire 1 2 C $end
$var reg 1 @" Q $end
$upscope $end
$scope module _93_ $end
$var wire 1 A" D $end
$var wire 1 2 C $end
$var reg 1 B" Q $end
$upscope $end
$scope module _94_ $end
$var wire 1 C" D $end
$var wire 1 2 C $end
$var reg 1 D" Q $end
$upscope $end
$scope module _95_ $end
$var wire 1 E" D $end
$var wire 1 2 C $end
$var reg 1 F" Q $end
$upscope $end
$scope module _96_ $end
$var wire 1 G" D $end
$var wire 1 2 C $end
$var reg 1 H" Q $end
$upscope $end
$scope module _97_ $end
$var wire 1 I" D $end
$var wire 1 2 C $end
$var reg 1 J" Q $end
$upscope $end
$upscope $end
$upscope $end
$scope module muxl1 $end
$var wire 1 ( validsalida0 $end
$var wire 1 ) validsalida1 $end
$var wire 1 , validEntrada3 $end
$var wire 1 - validEntrada2 $end
$var wire 1 . validEntrada1 $end
$var wire 1 / validEntrada0 $end
$var wire 1 0 reset $end
$var wire 1 3 clk_2f $end
$var wire 8 K" Salida1 [7:0] $end
$var wire 8 L" Salida0 [7:0] $end
$var wire 8 M" Entrada3 [7:0] $end
$var wire 8 N" Entrada2 [7:0] $end
$var wire 8 O" Entrada1 [7:0] $end
$var wire 8 P" Entrada0 [7:0] $end
$scope module mux1 $end
$var wire 1 Q" _01_ $end
$var wire 1 R" _49_ $end
$var wire 1 S" _50_ $end
$var wire 1 T" _51_ $end
$var wire 1 U" _52_ $end
$var wire 1 ( validsalida $end
$var wire 1 . validEntrada1 $end
$var wire 1 / validEntrada0 $end
$var wire 1 V" selector $end
$var wire 1 0 reset $end
$var wire 1 3 clk $end
$var wire 1 W" _48_ $end
$var wire 1 X" _47_ $end
$var wire 1 Y" _46_ $end
$var wire 1 Z" _45_ $end
$var wire 1 [" _44_ $end
$var wire 1 \" _43_ $end
$var wire 1 ]" _42_ $end
$var wire 1 ^" _41_ $end
$var wire 1 _" _40_ $end
$var wire 1 `" _39_ $end
$var wire 1 a" _38_ $end
$var wire 1 b" _37_ $end
$var wire 1 c" _36_ $end
$var wire 1 d" _35_ $end
$var wire 1 e" _34_ $end
$var wire 1 f" _33_ $end
$var wire 1 g" _32_ $end
$var wire 1 h" _31_ $end
$var wire 1 i" _30_ $end
$var wire 1 j" _29_ $end
$var wire 1 k" _28_ $end
$var wire 1 l" _27_ $end
$var wire 1 m" _26_ $end
$var wire 1 n" _25_ $end
$var wire 1 o" _24_ $end
$var wire 1 p" _23_ $end
$var wire 1 q" _22_ $end
$var wire 1 r" _21_ $end
$var wire 1 s" _20_ $end
$var wire 1 t" _19_ $end
$var wire 1 u" _18_ $end
$var wire 1 v" _17_ $end
$var wire 1 w" _16_ $end
$var wire 1 x" _15_ $end
$var wire 1 y" _14_ $end
$var wire 1 z" _13_ $end
$var wire 1 {" _12_ $end
$var wire 1 |" _11_ $end
$var wire 1 }" _10_ $end
$var wire 1 ~" _09_ $end
$var wire 1 !# _08_ $end
$var wire 1 "# _07_ $end
$var wire 1 ## _06_ $end
$var wire 1 $# _05_ $end
$var wire 1 %# _04_ $end
$var wire 1 &# _03_ $end
$var wire 1 '# _02_ $end
$var wire 8 (# _00_ [7:0] $end
$var wire 8 )# Salida_estructural [7:0] $end
$var wire 8 *# Entrada1 [7:0] $end
$var wire 8 +# Entrada0 [7:0] $end
$scope module _58_ $end
$var wire 1 T" A $end
$var wire 1 l" Y $end
$upscope $end
$scope module _59_ $end
$var wire 1 S" A $end
$var wire 1 k" Y $end
$upscope $end
$scope module _60_ $end
$var wire 1 R" A $end
$var wire 1 U" B $end
$var wire 1 j" Y $end
$upscope $end
$scope module _61_ $end
$var wire 1 k" A $end
$var wire 1 j" B $end
$var wire 1 i" Y $end
$upscope $end
$scope module _62_ $end
$var wire 1 q" A $end
$var wire 1 i" B $end
$var wire 1 h" Y $end
$upscope $end
$scope module _63_ $end
$var wire 1 R" A $end
$var wire 1 k" B $end
$var wire 1 g" Y $end
$upscope $end
$scope module _64_ $end
$var wire 1 g" A $end
$var wire 1 }" Y $end
$upscope $end
$scope module _65_ $end
$var wire 1 l" A $end
$var wire 1 g" B $end
$var wire 1 f" Y $end
$upscope $end
$scope module _66_ $end
$var wire 1 y" A $end
$var wire 1 f" B $end
$var wire 1 e" Y $end
$upscope $end
$scope module _67_ $end
$var wire 1 h" A $end
$var wire 1 e" B $end
$var wire 1 $# Y $end
$upscope $end
$scope module _68_ $end
$var wire 1 p" A $end
$var wire 1 i" B $end
$var wire 1 d" Y $end
$upscope $end
$scope module _69_ $end
$var wire 1 x" A $end
$var wire 1 f" B $end
$var wire 1 c" Y $end
$upscope $end
$scope module _70_ $end
$var wire 1 d" A $end
$var wire 1 c" B $end
$var wire 1 ## Y $end
$upscope $end
$scope module _71_ $end
$var wire 1 o" A $end
$var wire 1 i" B $end
$var wire 1 b" Y $end
$upscope $end
$scope module _72_ $end
$var wire 1 w" A $end
$var wire 1 f" B $end
$var wire 1 a" Y $end
$upscope $end
$scope module _73_ $end
$var wire 1 b" A $end
$var wire 1 a" B $end
$var wire 1 "# Y $end
$upscope $end
$scope module _74_ $end
$var wire 1 n" A $end
$var wire 1 i" B $end
$var wire 1 `" Y $end
$upscope $end
$scope module _75_ $end
$var wire 1 v" A $end
$var wire 1 f" B $end
$var wire 1 _" Y $end
$upscope $end
$scope module _76_ $end
$var wire 1 `" A $end
$var wire 1 _" B $end
$var wire 1 !# Y $end
$upscope $end
$scope module _77_ $end
$var wire 1 m" A $end
$var wire 1 i" B $end
$var wire 1 ^" Y $end
$upscope $end
$scope module _78_ $end
$var wire 1 u" A $end
$var wire 1 f" B $end
$var wire 1 ]" Y $end
$upscope $end
$scope module _79_ $end
$var wire 1 ^" A $end
$var wire 1 ]" B $end
$var wire 1 ~" Y $end
$upscope $end
$scope module _80_ $end
$var wire 1 t" A $end
$var wire 1 i" B $end
$var wire 1 \" Y $end
$upscope $end
$scope module _81_ $end
$var wire 1 |" A $end
$var wire 1 f" B $end
$var wire 1 [" Y $end
$upscope $end
$scope module _82_ $end
$var wire 1 \" A $end
$var wire 1 [" B $end
$var wire 1 '# Y $end
$upscope $end
$scope module _83_ $end
$var wire 1 {" A $end
$var wire 1 f" B $end
$var wire 1 Z" Y $end
$upscope $end
$scope module _84_ $end
$var wire 1 s" A $end
$var wire 1 i" B $end
$var wire 1 Y" Y $end
$upscope $end
$scope module _85_ $end
$var wire 1 Z" A $end
$var wire 1 Y" B $end
$var wire 1 &# Y $end
$upscope $end
$scope module _86_ $end
$var wire 1 z" A $end
$var wire 1 f" B $end
$var wire 1 X" Y $end
$upscope $end
$scope module _87_ $end
$var wire 1 r" A $end
$var wire 1 i" B $end
$var wire 1 W" Y $end
$upscope $end
$scope module _88_ $end
$var wire 1 X" A $end
$var wire 1 W" B $end
$var wire 1 %# Y $end
$upscope $end
$scope module _89_ $end
$var wire 1 Q" D $end
$var wire 1 3 C $end
$var reg 1 V" Q $end
$upscope $end
$scope module _90_ $end
$var wire 1 ,# D $end
$var wire 1 3 C $end
$var reg 1 -# Q $end
$upscope $end
$scope module _91_ $end
$var wire 1 .# D $end
$var wire 1 3 C $end
$var reg 1 /# Q $end
$upscope $end
$scope module _92_ $end
$var wire 1 0# D $end
$var wire 1 3 C $end
$var reg 1 1# Q $end
$upscope $end
$scope module _93_ $end
$var wire 1 2# D $end
$var wire 1 3 C $end
$var reg 1 3# Q $end
$upscope $end
$scope module _94_ $end
$var wire 1 4# D $end
$var wire 1 3 C $end
$var reg 1 5# Q $end
$upscope $end
$scope module _95_ $end
$var wire 1 6# D $end
$var wire 1 3 C $end
$var reg 1 7# Q $end
$upscope $end
$scope module _96_ $end
$var wire 1 8# D $end
$var wire 1 3 C $end
$var reg 1 9# Q $end
$upscope $end
$scope module _97_ $end
$var wire 1 :# D $end
$var wire 1 3 C $end
$var reg 1 ;# Q $end
$upscope $end
$upscope $end
$scope module mux2 $end
$var wire 1 <# _01_ $end
$var wire 1 =# _49_ $end
$var wire 1 ># _50_ $end
$var wire 1 ?# _51_ $end
$var wire 1 @# _52_ $end
$var wire 1 ) validsalida $end
$var wire 1 , validEntrada1 $end
$var wire 1 - validEntrada0 $end
$var wire 1 A# selector $end
$var wire 1 0 reset $end
$var wire 1 3 clk $end
$var wire 1 B# _48_ $end
$var wire 1 C# _47_ $end
$var wire 1 D# _46_ $end
$var wire 1 E# _45_ $end
$var wire 1 F# _44_ $end
$var wire 1 G# _43_ $end
$var wire 1 H# _42_ $end
$var wire 1 I# _41_ $end
$var wire 1 J# _40_ $end
$var wire 1 K# _39_ $end
$var wire 1 L# _38_ $end
$var wire 1 M# _37_ $end
$var wire 1 N# _36_ $end
$var wire 1 O# _35_ $end
$var wire 1 P# _34_ $end
$var wire 1 Q# _33_ $end
$var wire 1 R# _32_ $end
$var wire 1 S# _31_ $end
$var wire 1 T# _30_ $end
$var wire 1 U# _29_ $end
$var wire 1 V# _28_ $end
$var wire 1 W# _27_ $end
$var wire 1 X# _26_ $end
$var wire 1 Y# _25_ $end
$var wire 1 Z# _24_ $end
$var wire 1 [# _23_ $end
$var wire 1 \# _22_ $end
$var wire 1 ]# _21_ $end
$var wire 1 ^# _20_ $end
$var wire 1 _# _19_ $end
$var wire 1 `# _18_ $end
$var wire 1 a# _17_ $end
$var wire 1 b# _16_ $end
$var wire 1 c# _15_ $end
$var wire 1 d# _14_ $end
$var wire 1 e# _13_ $end
$var wire 1 f# _12_ $end
$var wire 1 g# _11_ $end
$var wire 1 h# _10_ $end
$var wire 1 i# _09_ $end
$var wire 1 j# _08_ $end
$var wire 1 k# _07_ $end
$var wire 1 l# _06_ $end
$var wire 1 m# _05_ $end
$var wire 1 n# _04_ $end
$var wire 1 o# _03_ $end
$var wire 1 p# _02_ $end
$var wire 8 q# _00_ [7:0] $end
$var wire 8 r# Salida_estructural [7:0] $end
$var wire 8 s# Entrada1 [7:0] $end
$var wire 8 t# Entrada0 [7:0] $end
$scope module _58_ $end
$var wire 1 ?# A $end
$var wire 1 W# Y $end
$upscope $end
$scope module _59_ $end
$var wire 1 ># A $end
$var wire 1 V# Y $end
$upscope $end
$scope module _60_ $end
$var wire 1 =# A $end
$var wire 1 @# B $end
$var wire 1 U# Y $end
$upscope $end
$scope module _61_ $end
$var wire 1 V# A $end
$var wire 1 U# B $end
$var wire 1 T# Y $end
$upscope $end
$scope module _62_ $end
$var wire 1 \# A $end
$var wire 1 T# B $end
$var wire 1 S# Y $end
$upscope $end
$scope module _63_ $end
$var wire 1 =# A $end
$var wire 1 V# B $end
$var wire 1 R# Y $end
$upscope $end
$scope module _64_ $end
$var wire 1 R# A $end
$var wire 1 h# Y $end
$upscope $end
$scope module _65_ $end
$var wire 1 W# A $end
$var wire 1 R# B $end
$var wire 1 Q# Y $end
$upscope $end
$scope module _66_ $end
$var wire 1 d# A $end
$var wire 1 Q# B $end
$var wire 1 P# Y $end
$upscope $end
$scope module _67_ $end
$var wire 1 S# A $end
$var wire 1 P# B $end
$var wire 1 m# Y $end
$upscope $end
$scope module _68_ $end
$var wire 1 [# A $end
$var wire 1 T# B $end
$var wire 1 O# Y $end
$upscope $end
$scope module _69_ $end
$var wire 1 c# A $end
$var wire 1 Q# B $end
$var wire 1 N# Y $end
$upscope $end
$scope module _70_ $end
$var wire 1 O# A $end
$var wire 1 N# B $end
$var wire 1 l# Y $end
$upscope $end
$scope module _71_ $end
$var wire 1 Z# A $end
$var wire 1 T# B $end
$var wire 1 M# Y $end
$upscope $end
$scope module _72_ $end
$var wire 1 b# A $end
$var wire 1 Q# B $end
$var wire 1 L# Y $end
$upscope $end
$scope module _73_ $end
$var wire 1 M# A $end
$var wire 1 L# B $end
$var wire 1 k# Y $end
$upscope $end
$scope module _74_ $end
$var wire 1 Y# A $end
$var wire 1 T# B $end
$var wire 1 K# Y $end
$upscope $end
$scope module _75_ $end
$var wire 1 a# A $end
$var wire 1 Q# B $end
$var wire 1 J# Y $end
$upscope $end
$scope module _76_ $end
$var wire 1 K# A $end
$var wire 1 J# B $end
$var wire 1 j# Y $end
$upscope $end
$scope module _77_ $end
$var wire 1 X# A $end
$var wire 1 T# B $end
$var wire 1 I# Y $end
$upscope $end
$scope module _78_ $end
$var wire 1 `# A $end
$var wire 1 Q# B $end
$var wire 1 H# Y $end
$upscope $end
$scope module _79_ $end
$var wire 1 I# A $end
$var wire 1 H# B $end
$var wire 1 i# Y $end
$upscope $end
$scope module _80_ $end
$var wire 1 _# A $end
$var wire 1 T# B $end
$var wire 1 G# Y $end
$upscope $end
$scope module _81_ $end
$var wire 1 g# A $end
$var wire 1 Q# B $end
$var wire 1 F# Y $end
$upscope $end
$scope module _82_ $end
$var wire 1 G# A $end
$var wire 1 F# B $end
$var wire 1 p# Y $end
$upscope $end
$scope module _83_ $end
$var wire 1 f# A $end
$var wire 1 Q# B $end
$var wire 1 E# Y $end
$upscope $end
$scope module _84_ $end
$var wire 1 ^# A $end
$var wire 1 T# B $end
$var wire 1 D# Y $end
$upscope $end
$scope module _85_ $end
$var wire 1 E# A $end
$var wire 1 D# B $end
$var wire 1 o# Y $end
$upscope $end
$scope module _86_ $end
$var wire 1 e# A $end
$var wire 1 Q# B $end
$var wire 1 C# Y $end
$upscope $end
$scope module _87_ $end
$var wire 1 ]# A $end
$var wire 1 T# B $end
$var wire 1 B# Y $end
$upscope $end
$scope module _88_ $end
$var wire 1 C# A $end
$var wire 1 B# B $end
$var wire 1 n# Y $end
$upscope $end
$scope module _89_ $end
$var wire 1 <# D $end
$var wire 1 3 C $end
$var reg 1 A# Q $end
$upscope $end
$scope module _90_ $end
$var wire 1 u# D $end
$var wire 1 3 C $end
$var reg 1 v# Q $end
$upscope $end
$scope module _91_ $end
$var wire 1 w# D $end
$var wire 1 3 C $end
$var reg 1 x# Q $end
$upscope $end
$scope module _92_ $end
$var wire 1 y# D $end
$var wire 1 3 C $end
$var reg 1 z# Q $end
$upscope $end
$scope module _93_ $end
$var wire 1 {# D $end
$var wire 1 3 C $end
$var reg 1 |# Q $end
$upscope $end
$scope module _94_ $end
$var wire 1 }# D $end
$var wire 1 3 C $end
$var reg 1 ~# Q $end
$upscope $end
$scope module _95_ $end
$var wire 1 !$ D $end
$var wire 1 3 C $end
$var reg 1 "$ Q $end
$upscope $end
$scope module _96_ $end
$var wire 1 #$ D $end
$var wire 1 3 C $end
$var reg 1 $$ Q $end
$upscope $end
$scope module _97_ $end
$var wire 1 %$ D $end
$var wire 1 3 C $end
$var reg 1 &$ Q $end
$upscope $end
$upscope $end
$upscope $end
$upscope $end
$scope module probador $end
$var wire 8 '$ Salida_conductual [7:0] $end
$var wire 8 ($ Salida_estructural [7:0] $end
$var reg 8 )$ Entrada0 [7:0] $end
$var reg 8 *$ Entrada1 [7:0] $end
$var reg 8 +$ Entrada2 [7:0] $end
$var reg 8 ,$ Entrada3 [7:0] $end
$var reg 1 3 clk_2f $end
$var reg 1 2 clk_4f $end
$var reg 1 1 clk_f $end
$var reg 1 0 reset $end
$var reg 1 / validEntrada0 $end
$var reg 1 . validEntrada1 $end
$var reg 1 - validEntrada2 $end
$var reg 1 , validEntrada3 $end
$var reg 1 + validSalida0 $end
$var reg 1 * validSalida1 $end
$upscope $end
$upscope $end
$enddefinitions $end
#0
$dumpvars
b0 ,$
b0 +$
b0 *$
b0 )$
bx ($
bx '$
x&$
x%$
x$$
x#$
x"$
x!$
x~#
x}#
x|#
x{#
xz#
xy#
xx#
xw#
xv#
xu#
b0 t#
b0 s#
bx r#
bx q#
xp#
xo#
xn#
xm#
xl#
xk#
xj#
xi#
xh#
0g#
0f#
0e#
0d#
0c#
0b#
0a#
0`#
0_#
0^#
0]#
0\#
0[#
0Z#
0Y#
0X#
xW#
xV#
xU#
xT#
xS#
xR#
xQ#
xP#
xO#
xN#
xM#
xL#
xK#
xJ#
xI#
xH#
xG#
xF#
xE#
xD#
xC#
xB#
xA#
0@#
0?#
x>#
0=#
x<#
x;#
x:#
x9#
x8#
x7#
x6#
x5#
x4#
x3#
x2#
x1#
x0#
x/#
x.#
x-#
x,#
b0 +#
b0 *#
bx )#
bx (#
x'#
x&#
x%#
x$#
x##
x"#
x!#
x~"
x}"
0|"
0{"
0z"
0y"
0x"
0w"
0v"
0u"
0t"
0s"
0r"
0q"
0p"
0o"
0n"
0m"
xl"
xk"
xj"
xi"
xh"
xg"
xf"
xe"
xd"
xc"
xb"
xa"
x`"
x_"
x^"
x]"
x\"
x["
xZ"
xY"
xX"
xW"
xV"
0U"
0T"
xS"
0R"
xQ"
b0 P"
b0 O"
b0 N"
b0 M"
bx L"
bx K"
xJ"
xI"
xH"
xG"
xF"
xE"
xD"
xC"
xB"
xA"
x@"
x?"
x>"
x="
x<"
x;"
bx :"
bx 9"
bx 8"
bx 7"
x6"
x5"
x4"
x3"
x2"
x1"
x0"
x/"
x."
x-"
x,"
x+"
x*"
x)"
x("
x'"
x&"
x%"
x$"
x#"
x""
x!"
x~
x}
x|
x{
xz
xy
xx
xw
xv
xu
xt
xs
xr
xq
xp
xo
xn
xm
xl
xk
xj
xi
xh
xg
xf
xe
0d
0c
xb
0a
x`
bx _
bx ^
bx ]
b0 \
b0 [
b0 Z
b0 Y
bx X
bx W
bx V
xU
bx T
b0 S
b0 R
xQ
bx P
b0 O
b0 N
b0 M
b0 L
b0 K
b0 J
bx I
bx H
xG
bx F
bx E
bx D
bx C
bx B
bx A
b0 @
b0 ?
b0 >
b0 =
bx <
bx ;
bx :
b0 9
b0 8
b0 7
b0 6
bx 5
bx 4
03
02
01
00
0/
0.
0-
0,
1+
1*
z)
z(
x'
z&
z%
z$
z#
z"
z!
$end
#33
1l"
1{
1W#
#90
1^"
1`"
1b"
1d"
1h"
1W"
1Y"
1\"
1]"
1_"
1a"
1c"
1e"
1X"
1Z"
1["
1I#
1K#
1M#
1O#
1S#
1B#
1D#
1G#
1H#
1J#
1L#
1N#
1P#
1C#
1E#
1F#
1U#
1R#
1j"
1g"
1y
1v
#93
0f"
0u
0Q#
#123
0<#
0h#
0Q"
0}"
0`
0."
#150
0T#
0i"
0x
#180
0:#
08#
06#
04#
02#
00#
0.#
0,#
0%$
0#$
0!$
0}#
0{#
0y#
0w#
0u#
0~"
0!#
0"#
0##
0$#
0%#
0&#
b0 (#
0'#
0i#
0j#
0k#
0l#
0m#
0n#
0o#
b0 q#
0p#
#183
1t
1r
1p
1n
1l
1j
1i
1g
#240
1w
1s
1q
1o
1m
1k
1h
1f
#330
0A"
0C"
0E"
0G"
0I"
0;"
0="
0?"
03"
02"
01"
00"
0/"
06"
05"
b0 7"
04"
#10000000
0G
b0 5
b0 :
b0 A
b0 F
b0 '$
12
#10000060
0b
0e
0<"
0>"
0@"
0B"
0D"
0F"
0H"
b0 4
b0 V
b0 ]
b0 8"
b0 ($
0J"
#10000093
1z
#20000000
0Q
b0 <
b0 C
b0 E
b0 I
b0 P
0U
b0 ;
b0 B
b0 D
b0 H
b0 T
02
13
